"","patient","barcode","sample","shortLetterCode","definition","classification_of_tumor","last_known_disease_status","updated_datetime.x","primary_diagnosis","tumor_stage","age_at_diagnosis","vital_status","morphology","days_to_death","days_to_last_known_disease_status","days_to_last_follow_up","state.x","days_to_recurrence","diagnosis_id","tumor_grade","tissue_or_organ_of_origin","days_to_birth","progression_or_recurrence","prior_malignancy","site_of_resection_or_biopsy","created_datetime.x","cigarettes_per_day","weight","updated_datetime.y","alcohol_history","alcohol_intensity","bmi","years_smoked","height","created_datetime.y","state.y","exposure_id","updated_datetime","created_datetime","gender","state","year_of_birth","race","demographic_id","ethnicity","year_of_death","bcr_patient_barcode","dbgap_accession_number","disease_type","released","state.1","primary_site","project_id","name"
"TCGA-VB-A8QN-01A-11R-A38C-07","TCGA-VB-A8QN","TCGA-VB-A8QN-01A-11R-A38C-07","TCGA-VB-A8QN-01A","TP","Primary solid Tumor","not reported","not reported","2016-05-16T11:08:25.267245-05:00","c83.3","not reported",20270,"alive","9680/3",NA,NA,0,NA,NA,"d4b3ca42-4f47-5122-8b53-f74d492ab594","not reported","c16.9",-20270,"not reported","not reported","c16.9",NA,NA,75,"2016-05-16T11:08:25.267245-05:00",NA,NA,0.00231481481481481,NA,180,NA,NA,"d97f95fb-4544-58f2-a4f7-25582e10eca9","2016-05-16T11:08:25.267245-05:00",NA,"male",NA,1958,"white","0fe10823-9d48-54dd-bb74-ed6354fca125","not hispanic or latino",NA,"TCGA-VB-A8QN",NA,"Lymphoid Neoplasm Diffuse Large B-cell Lymphoma",TRUE,"legacy","Lymph Nodes","TCGA-DLBC","Lymphoid Neoplasm Diffuse Large B-cell Lymphoma"
"TCGA-G8-6325-01A-11R-2213-07","TCGA-G8-6325","TCGA-G8-6325-01A-11R-2213-07","TCGA-G8-6325-01A","TP","Primary solid Tumor","not reported","not reported","2016-05-16T10:59:19.804397-05:00","c83.3","not reported",25256,"alive","9680/3",NA,NA,1581,NA,NA,"48e0630d-6f3c-5b39-96f0-48ca35ef1c42","not reported","c77.2",-25256,"not reported","not reported","c77.2",NA,NA,105.7,"2016-05-16T10:59:19.804397-05:00",NA,NA,0.00361478745596936,NA,171,NA,NA,"56a9eac1-1640-552b-8256-a768c50af6a7","2016-05-16T10:59:19.804397-05:00",NA,"male",NA,1939,"white","c4e762c0-940f-511e-bdf2-405fb007d520","not hispanic or latino",NA,"TCGA-G8-6325",NA,"Lymphoid Neoplasm Diffuse Large B-cell Lymphoma",TRUE,"legacy","Lymph Nodes","TCGA-DLBC","Lymphoid Neoplasm Diffuse Large B-cell Lymphoma"
"TCGA-FA-A6HN-01A-11R-A31O-07","TCGA-FA-A6HN","TCGA-FA-A6HN-01A-11R-A31O-07","TCGA-FA-A6HN-01A","TP","Primary solid Tumor","not reported","not reported","2016-05-16T10:54:35.619545-05:00","c83.3","not reported",27025,"dead","9680/3",58,NA,6,NA,NA,"387f712b-98e2-5b90-bfa8-d5a921ae839e","not reported","c77.0",-27025,"not reported","not reported","c77.0",NA,NA,58,"2016-05-16T10:54:35.619545-05:00",NA,NA,0.00221002895900015,NA,162,NA,NA,"b844b358-f6b7-5986-98f4-8ff7855cef98","2016-05-16T10:54:35.619545-05:00",NA,"male",NA,1940,"asian","15adab88-810a-5e3a-9c5e-d10ed17f3f0f","not hispanic or latino",NA,"TCGA-FA-A6HN",NA,"Lymphoid Neoplasm Diffuse Large B-cell Lymphoma",TRUE,"legacy","Lymph Nodes","TCGA-DLBC","Lymphoid Neoplasm Diffuse Large B-cell Lymphoma"
"TCGA-GS-A9TT-01A-11R-A38C-07","TCGA-GS-A9TT","TCGA-GS-A9TT-01A-11R-A38C-07","TCGA-GS-A9TT-01A","TP","Primary solid Tumor","not reported","not reported","2016-05-16T11:08:24.128955-05:00","c62.90","not reported",25794,"alive","9680/3",NA,NA,1163,NA,NA,"2be6fc09-d6fc-5edc-bdfc-a58606c02cb3","not reported","c62.9",-25794,"not reported","not reported","c62.9",NA,NA,85,"2016-05-16T11:08:24.128955-05:00",NA,NA,0.00297608627148909,NA,169,NA,NA,"24e8271c-f2a3-54ca-9de0-5b8d00440f11","2016-05-16T11:08:24.128955-05:00",NA,"male",NA,1941,"white","85db8510-cca1-559a-ac4a-726edce4c630","hispanic or latino",NA,"TCGA-GS-A9TT",NA,"Lymphoid Neoplasm Diffuse Large B-cell Lymphoma",TRUE,"legacy","Lymph Nodes","TCGA-DLBC","Lymphoid Neoplasm Diffuse Large B-cell Lymphoma"
"TCGA-FA-A7DS-01A-11R-A38C-07","TCGA-FA-A7DS","TCGA-FA-A7DS-01A-11R-A38C-07","TCGA-FA-A7DS-01A","TP","Primary solid Tumor","not reported","not reported","2016-05-16T11:08:31.257909-05:00","c50.9","not reported",20087,"alive","9680/3",NA,NA,719,NA,NA,"79bc0e8e-4f9d-594d-9912-41e230565b15","not reported","c50.9",-20087,"not reported","not reported","c50.9",NA,NA,60,"2016-05-16T11:08:31.257909-05:00",NA,NA,0.00243417582863402,NA,157,NA,NA,"4b1a7733-9af5-54a7-bbee-8ce5bb9fa9d1","2016-05-16T11:08:31.257909-05:00",NA,"female",NA,1959,"asian","18386745-7a4e-57e7-9762-0b0419d3f415","not hispanic or latino",NA,"TCGA-FA-A7DS",NA,"Lymphoid Neoplasm Diffuse Large B-cell Lymphoma",TRUE,"legacy","Lymph Nodes","TCGA-DLBC","Lymphoid Neoplasm Diffuse Large B-cell Lymphoma"
"TCGA-FA-A6HO-01A-11R-A31O-07","TCGA-FA-A6HO","TCGA-FA-A6HO-01A-11R-A31O-07","TCGA-FA-A6HO-01A","TP","Primary solid Tumor","not reported","not reported","2016-05-16T10:53:30.219151-05:00","c83.3","not reported",21330,"alive","9680/3",NA,NA,749,NA,NA,"4a878c20-bacb-55d5-b6c4-1fe80e4f6f87","not reported","c77.0",-21330,"not reported","not reported","c77.0",NA,NA,61,"2016-05-16T10:53:30.219151-05:00",NA,NA,0.00244351866688031,NA,158,NA,NA,"6fef5e01-0e79-5586-a897-d71d29bce3aa","2016-05-16T10:53:30.219151-05:00",NA,"female",NA,1955,"asian","1e7ab988-5db4-587f-91d5-744ecdac28af","not hispanic or latino",NA,"TCGA-FA-A6HO",NA,"Lymphoid Neoplasm Diffuse Large B-cell Lymphoma",TRUE,"legacy","Lymph Nodes","TCGA-DLBC","Lymphoid Neoplasm Diffuse Large B-cell Lymphoma"
"TCGA-FA-A7Q1-01A-11R-A38C-07","TCGA-FA-A7Q1","TCGA-FA-A7Q1-01A-11R-A38C-07","TCGA-FA-A7Q1-01A","TP","Primary solid Tumor","not reported","not reported","2016-05-16T11:08:29.539617-05:00","c48.1","not reported",22454,"dead","9680/3",248,NA,22,NA,NA,"a4ecd69c-6156-5653-973f-5d3446d68a40","not reported","c48.1",-22454,"not reported","not reported","c48.1",NA,NA,65,"2016-05-16T11:08:29.539617-05:00",NA,NA,0.00263702381435352,NA,157,NA,NA,"682f03d6-4220-5a13-a14b-babe7036a003","2016-05-16T11:08:29.539617-05:00",NA,"female",NA,1952,"asian","c70fcf39-d718-5fb4-9c7b-c11968f4e106","not hispanic or latino",NA,"TCGA-FA-A7Q1",NA,"Lymphoid Neoplasm Diffuse Large B-cell Lymphoma",TRUE,"legacy","Lymph Nodes","TCGA-DLBC","Lymphoid Neoplasm Diffuse Large B-cell Lymphoma"
"TCGA-GS-A9TY-01A-11R-A39D-07","TCGA-GS-A9TY","TCGA-GS-A9TY-01A-11R-A39D-07","TCGA-GS-A9TY-01A","TP","Primary solid Tumor","not reported","not reported","2016-05-16T11:03:57.835151-05:00","c83.3","not reported",30256,"alive","9680/3",NA,NA,3333,NA,NA,"29ab55f3-1249-5221-ad31-1cdaeb19fd39","not reported","c77.3",-30256,"not reported","not reported","c77.3",NA,NA,77,"2016-05-16T11:03:57.835151-05:00",NA,NA,0.00328933316245888,NA,153,NA,NA,"dd056477-1c7f-5acc-9214-e90832abf86d","2016-05-16T11:03:57.835151-05:00",NA,"female",NA,1923,"white","335b9244-6757-5f9b-b113-73fb441543f2","hispanic or latino",NA,"TCGA-GS-A9TY",NA,"Lymphoid Neoplasm Diffuse Large B-cell Lymphoma",TRUE,"legacy","Lymph Nodes","TCGA-DLBC","Lymphoid Neoplasm Diffuse Large B-cell Lymphoma"
"TCGA-G8-6906-01A-11R-2213-07","TCGA-G8-6906","TCGA-G8-6906-01A-11R-2213-07","TCGA-G8-6906-01A","TP","Primary solid Tumor","not reported","not reported","2016-05-16T10:59:15.310257-05:00","c83.3","not reported",21272,"dead","9680/3",6425,NA,NA,NA,NA,"e6152452-3315-5cce-8ad2-8deb11455de8","not reported","c77.2",-21272,"not reported","not reported","c77.2",NA,NA,59.2,"2016-05-16T10:59:15.310257-05:00",NA,NA,0.0021930401352276,NA,164.3,NA,NA,"6f291577-fdb7-5dcf-bf74-da56f61d78ee","2016-05-16T10:59:15.310257-05:00",NA,"male",NA,1929,"white","6f897b17-36ce-5af6-bbaf-5650fcce22d5","not hispanic or latino",2004,"TCGA-G8-6906",NA,"Lymphoid Neoplasm Diffuse Large B-cell Lymphoma",TRUE,"legacy","Lymph Nodes","TCGA-DLBC","Lymphoid Neoplasm Diffuse Large B-cell Lymphoma"
"TCGA-GS-A9TW-01A-11R-A38C-07","TCGA-GS-A9TW","TCGA-GS-A9TW-01A-11R-A38C-07","TCGA-GS-A9TW-01A","TP","Primary solid Tumor","not reported","not reported","2016-05-16T11:08:30.067712-05:00","c83.3","not reported",8493,"alive","9680/3",NA,NA,1617,NA,NA,"e2327815-6a31-5f2e-9792-15b01df1191d","not reported","c77.3",-8493,"not reported","not reported","c77.3",NA,NA,54,"2016-05-16T11:08:30.067712-05:00",NA,NA,0.00198347107438017,NA,165,NA,NA,"9590e5a2-337a-58db-8e97-7dafa1db2c72","2016-05-16T11:08:30.067712-05:00",NA,"female",NA,1987,"white","e973781e-e33b-518c-b74f-72de0e16e780","hispanic or latino",NA,"TCGA-GS-A9TW",NA,"Lymphoid Neoplasm Diffuse Large B-cell Lymphoma",TRUE,"legacy","Lymph Nodes","TCGA-DLBC","Lymphoid Neoplasm Diffuse Large B-cell Lymphoma"
"TCGA-G8-6324-01A-11R-2213-07","TCGA-G8-6324","TCGA-G8-6324-01A-11R-2213-07","TCGA-G8-6324-01A","TP","Primary solid Tumor","not reported","not reported","2016-05-16T10:59:16.015826-05:00","c83.3","not reported",15750,"dead","9680/3",1252,NA,NA,NA,NA,"18b8a2e1-da11-5d94-b1d6-23fc9a385200","not reported","c77.2",-15750,"not reported","not reported","c77.2",NA,NA,60,"2016-05-16T10:59:16.015826-05:00",NA,NA,0.00219056050967041,NA,165.5,NA,NA,"4656f3ef-0869-5542-ae16-9f188215ca4d","2016-05-16T10:59:16.015826-05:00",NA,"female",NA,1963,"black or african american","62381e12-1749-53a1-9c3c-0f9f2b6ff1f5","not hispanic or latino",2009,"TCGA-G8-6324",NA,"Lymphoid Neoplasm Diffuse Large B-cell Lymphoma",TRUE,"legacy","Lymph Nodes","TCGA-DLBC","Lymphoid Neoplasm Diffuse Large B-cell Lymphoma"
"TCGA-G8-6909-01A-11R-2213-07","TCGA-G8-6909","TCGA-G8-6909-01A-11R-2213-07","TCGA-G8-6909-01A","TP","Primary solid Tumor","not reported","not reported","2016-05-16T10:59:22.371137-05:00","c77.1","not reported",24661,"dead","9680/3",3553,NA,3227,NA,NA,"7f5a019a-073b-5ab9-99f8-99f67855d61b","not reported","c77.1",-24661,"not reported","not reported","c77.1",NA,NA,90.5,"2016-05-16T10:59:22.371137-05:00",NA,NA,0.00285633127130413,NA,178,NA,NA,"c3f88eeb-4c26-55f8-a6bf-06686fb252d7","2016-05-16T10:59:22.371137-05:00",NA,"male",NA,1935,"white","ba5b7539-ff56-5d2b-b311-ea6fd0e99e49","not hispanic or latino",NA,"TCGA-G8-6909",NA,"Lymphoid Neoplasm Diffuse Large B-cell Lymphoma",TRUE,"legacy","Lymph Nodes","TCGA-DLBC","Lymphoid Neoplasm Diffuse Large B-cell Lymphoma"
"TCGA-FF-A7CX-01A-12R-A38C-07","TCGA-FF-A7CX","TCGA-FF-A7CX-01A-12R-A38C-07","TCGA-FF-A7CX-01A","TP","Primary solid Tumor","not reported","not reported","2016-05-16T11:08:32.411308-05:00","c49.0","not reported",16924,"alive","9680/3",NA,NA,385,NA,NA,"385bdc11-8ef3-5ee6-8556-7cdf1bab57b9","not reported","c49.0",-16924,"not reported","not reported","c49.0",NA,NA,66,"2016-05-16T11:08:32.411308-05:00",NA,NA,0.00217994451050337,NA,174,NA,NA,"e13429da-528a-51a7-836a-143a6140c193","2016-05-16T11:08:32.411308-05:00",NA,"male",NA,1965,"asian","44685ec5-740a-5ad3-ba01-f645aa492cfc","not hispanic or latino",NA,"TCGA-FF-A7CX",NA,"Lymphoid Neoplasm Diffuse Large B-cell Lymphoma",TRUE,"legacy","Lymph Nodes","TCGA-DLBC","Lymphoid Neoplasm Diffuse Large B-cell Lymphoma"
"TCGA-FF-8046-01A-11R-2213-07","TCGA-FF-8046","TCGA-FF-8046-01A-11R-2213-07","TCGA-FF-8046-01A","TP","Primary solid Tumor","not reported","not reported","2016-05-16T10:59:17.934442-05:00","c08.0","not reported",18853,"alive","9680/3",NA,NA,751,NA,NA,"f7d41c26-1eee-51f2-8e0b-89aac19b938f","not reported","c08.0",-18853,"not reported","not reported","c08.0",NA,NA,81.9,"2016-05-16T10:59:17.934442-05:00",NA,NA,0.00258490089635147,NA,178,NA,NA,"c152757e-c9f5-5186-a5e4-2ea825763ed9","2016-05-16T10:59:17.934442-05:00",NA,"male",NA,1960,"asian","f6f5a9f5-614e-5cbd-83f1-74a51c0747dd","not hispanic or latino",NA,"TCGA-FF-8046",NA,"Lymphoid Neoplasm Diffuse Large B-cell Lymphoma",TRUE,"legacy","Lymph Nodes","TCGA-DLBC","Lymphoid Neoplasm Diffuse Large B-cell Lymphoma"
"TCGA-GR-7353-01A-11R-2213-07","TCGA-GR-7353","TCGA-GR-7353-01A-11R-2213-07","TCGA-GR-7353-01A","TP","Primary solid Tumor","not reported","not reported","2016-05-16T10:59:13.941487-05:00","c83.3","not reported",13317,"alive","9680/3",NA,NA,2983,NA,NA,"53582fc7-d7e7-59f0-b630-1ea3f5f18346","not reported","c77.0",-13317,"not reported","not reported","c77.0",NA,NA,68,"2016-05-16T10:59:13.941487-05:00",NA,NA,0.00231196185262943,NA,171.5,NA,NA,"67ff4b41-839e-5319-8547-ce2e7e9db56e","2016-05-16T10:59:13.941487-05:00",NA,"male",NA,1969,"white","7e4beb99-2a9d-578f-bbd7-27c4219a1482","not hispanic or latino",NA,"TCGA-GR-7353",NA,"Lymphoid Neoplasm Diffuse Large B-cell Lymphoma",TRUE,"legacy","Lymph Nodes","TCGA-DLBC","Lymphoid Neoplasm Diffuse Large B-cell Lymphoma"
"TCGA-FF-8041-01A-11R-2213-07","TCGA-FF-8041","TCGA-FF-8041-01A-11R-2213-07","TCGA-FF-8041-01A","TP","Primary solid Tumor","not reported","not reported","2016-05-16T10:59:20.367085-05:00","c38.1","not reported",10466,"alive","9680/3",NA,NA,1081,NA,NA,"dcfbbd23-f227-55fd-9aa1-1797bb812f82","not reported","c38.1",-10466,"not reported","not reported","c38.1",NA,NA,58.9,"2016-05-16T10:59:20.367085-05:00",NA,NA,0.00196799091182465,NA,173,NA,NA,"cf621f77-b271-5d37-914b-b4ff9c286a52","2016-05-16T10:59:20.367085-05:00",NA,"female",NA,1982,"asian","87629751-3dab-5305-925c-1950608db905","not hispanic or latino",NA,"TCGA-FF-8041",NA,"Lymphoid Neoplasm Diffuse Large B-cell Lymphoma",TRUE,"legacy","Lymph Nodes","TCGA-DLBC","Lymphoid Neoplasm Diffuse Large B-cell Lymphoma"
"TCGA-RQ-AAAT-01A-11R-A39D-07","TCGA-RQ-AAAT","TCGA-RQ-AAAT-01A-11R-A39D-07","TCGA-RQ-AAAT-01A","TP","Primary solid Tumor","not reported","not reported","2016-05-16T11:03:55.334151-05:00","c71.6","not reported",23178,"alive","9680/3",NA,NA,17,NA,NA,"a65278de-733a-5bf1-8ab6-8a8e3ba95728","not reported","c71.6",-23178,"not reported","not reported","c71.6",NA,NA,68.2,"2016-05-16T11:03:55.334151-05:00",NA,NA,0.00258272189349112,NA,162.5,NA,NA,"1c4807a0-abaf-5c0d-b8ec-e5b9e7005d93","2016-05-16T11:03:55.334151-05:00",NA,"female",NA,1950,"white","481a60e6-5dd2-5fdf-81c8-af3dda919dfb","hispanic or latino",NA,"TCGA-RQ-AAAT",NA,"Lymphoid Neoplasm Diffuse Large B-cell Lymphoma",TRUE,"legacy","Lymph Nodes","TCGA-DLBC","Lymphoid Neoplasm Diffuse Large B-cell Lymphoma"
"TCGA-GS-A9TV-01A-11R-A38C-07","TCGA-GS-A9TV","TCGA-GS-A9TV-01A-11R-A38C-07","TCGA-GS-A9TV-01A","TP","Primary solid Tumor","not reported","not reported","2016-05-16T11:08:28.457974-05:00","c83.3","not reported",14838,"alive","9680/3",NA,NA,730,NA,NA,"06da42e7-be91-56b5-ad97-ada9fe168672","not reported","c77.0",-14838,"not reported","not reported","c77.0",NA,NA,58,"2016-05-16T11:08:28.457974-05:00",NA,NA,0.002265625,NA,160,NA,NA,"036bf2a1-0999-5e7c-8070-419350a1265d","2016-05-16T11:08:28.457974-05:00",NA,"female",NA,1973,"white","fc4095fa-c8f8-566e-a8b7-7237f16c71b7","hispanic or latino",NA,"TCGA-GS-A9TV",NA,"Lymphoid Neoplasm Diffuse Large B-cell Lymphoma",TRUE,"legacy","Lymph Nodes","TCGA-DLBC","Lymphoid Neoplasm Diffuse Large B-cell Lymphoma"
"TCGA-FF-A7CQ-01A-11R-A38C-07","TCGA-FF-A7CQ","TCGA-FF-A7CQ-01A-11R-A38C-07","TCGA-FF-A7CQ-01A","TP","Primary solid Tumor","not reported","not reported","2016-05-16T11:08:24.742744-05:00","c83.3","not reported",27255,"alive","9680/3",NA,NA,298,NA,NA,"1273ac54-4554-5b97-9da0-8cec8ad09732","not reported","c77.0",-27255,"not reported","not reported","c77.0",NA,NA,43.9,"2016-05-16T11:08:24.742744-05:00",NA,NA,0.0016727632982777,NA,162,NA,NA,"27b631ce-b5cd-55a5-a8cb-51800e5d642a","2016-05-16T11:08:24.742744-05:00",NA,"male",NA,1936,"asian","b517c501-3d27-52f9-a473-514855d0ebb8","not hispanic or latino",NA,"TCGA-FF-A7CQ",NA,"Lymphoid Neoplasm Diffuse Large B-cell Lymphoma",TRUE,"legacy","Lymph Nodes","TCGA-DLBC","Lymphoid Neoplasm Diffuse Large B-cell Lymphoma"
"TCGA-GS-A9TZ-01A-11R-A39D-07","TCGA-GS-A9TZ","TCGA-GS-A9TZ-01A-11R-A39D-07","TCGA-GS-A9TZ-01A","TP","Primary solid Tumor","not reported","not reported","2016-05-16T11:03:55.891118-05:00","c83.3","not reported",18691,"alive","9680/3",NA,NA,765,NA,NA,"66e838e4-c8a5-5a70-a35d-7269bddd04bf","not reported","c77.0",-18691,"not reported","not reported","c77.0",NA,NA,68,"2016-05-16T11:03:55.891118-05:00",NA,NA,0.00240929705215419,NA,168,NA,NA,"3bddc3d8-81b3-54eb-9072-cc0c1b2d0c29","2016-05-16T11:03:55.891118-05:00",NA,"male",NA,1961,"white","99a22ca0-8cd6-5266-a6da-0f182036c5c7","hispanic or latino",NA,"TCGA-GS-A9TZ",NA,"Lymphoid Neoplasm Diffuse Large B-cell Lymphoma",TRUE,"legacy","Lymph Nodes","TCGA-DLBC","Lymphoid Neoplasm Diffuse Large B-cell Lymphoma"
"TCGA-G8-6914-01A-11R-2213-07","TCGA-G8-6914","TCGA-G8-6914-01A-11R-2213-07","TCGA-G8-6914-01A","TP","Primary solid Tumor","not reported","not reported","2016-05-16T10:59:22.957784-05:00","c83.3","not reported",24569,"alive","9680/3",NA,NA,5980,NA,NA,"f868c65f-240b-5e4f-a905-40daa566a9a8","not reported","c77.0",-24569,"not reported","not reported","c77.0",NA,NA,72.5,"2016-05-16T10:59:22.957784-05:00",NA,NA,0.00245064899945917,NA,172,NA,NA,"a86b2508-2bc8-544d-b427-14e7d4b1e1ac","2016-05-16T10:59:22.957784-05:00",NA,"male",NA,1929,"white","4ba5b6b1-5d5a-5f95-805b-db2584215f3d","not hispanic or latino",NA,"TCGA-G8-6914",NA,"Lymphoid Neoplasm Diffuse Large B-cell Lymphoma",TRUE,"legacy","Lymph Nodes","TCGA-DLBC","Lymphoid Neoplasm Diffuse Large B-cell Lymphoma"
"TCGA-FA-A4BB-01A-11R-A31O-07","TCGA-FA-A4BB","TCGA-FA-A4BB-01A-11R-A31O-07","TCGA-FA-A4BB-01A","TP","Primary solid Tumor","not reported","not reported","2016-05-16T10:54:38.000281-05:00","c83.3","not reported",24590,"alive","9680/3",NA,NA,132,NA,NA,"b01f9457-dec8-5a32-8c89-66eb5c36c347","not reported","c77.3",-24590,"not reported","not reported","c77.3",NA,NA,85,"2016-05-16T10:54:38.000281-05:00",NA,NA,0.00268274207802045,NA,178,NA,NA,"f4bc8a87-e54f-54c4-852b-280609d6750d","2016-05-16T10:54:38.000281-05:00",NA,"male",NA,1945,"white","965ae4b2-dfc4-5eb9-8d02-5d11fc2d5b2e","not hispanic or latino",NA,"TCGA-FA-A4BB",NA,"Lymphoid Neoplasm Diffuse Large B-cell Lymphoma",TRUE,"legacy","Lymph Nodes","TCGA-DLBC","Lymphoid Neoplasm Diffuse Large B-cell Lymphoma"
"TCGA-GS-A9U4-01A-11R-A39D-07","TCGA-GS-A9U4","TCGA-GS-A9U4-01A-11R-A39D-07","TCGA-GS-A9U4-01A","TP","Primary solid Tumor","not reported","not reported","2016-05-16T11:03:57.238002-05:00","c83.3","not reported",10075,"dead","9680/3",391,NA,NA,NA,NA,"fbcc70a2-5bd6-50ee-b71b-a4d8c2c05985","not reported","c77.0",-10075,"not reported","not reported","c77.0",NA,NA,50,"2016-05-16T11:03:57.238002-05:00",NA,NA,0.00188189243102864,NA,163,NA,NA,"1e760c19-a8e1-5f3e-9d00-34d9149d7b0d","2016-05-16T11:03:57.238002-05:00",NA,"female",NA,1984,"white","3f66f968-4495-57d4-a4d6-1ed44285e63f","hispanic or latino",2012,"TCGA-GS-A9U4",NA,"Lymphoid Neoplasm Diffuse Large B-cell Lymphoma",TRUE,"legacy","Lymph Nodes","TCGA-DLBC","Lymphoid Neoplasm Diffuse Large B-cell Lymphoma"
"TCGA-FF-A7CR-01A-11R-A38C-07","TCGA-FF-A7CR","TCGA-FF-A7CR-01A-11R-A38C-07","TCGA-FF-A7CR-01A","TP","Primary solid Tumor","not reported","not reported","2016-05-16T11:08:25.847717-05:00","c83.3","not reported",22471,"dead","9680/3",313,NA,NA,NA,NA,"df56e7e7-4838-5503-ae16-d40cb94e285b","not reported","c77.0",-22471,"not reported","not reported","c77.0",NA,NA,73,"2016-05-16T11:08:25.847717-05:00",NA,NA,0.00252595155709343,NA,170,NA,NA,"a43b1866-7b8b-5d1d-a3a3-8cef53fdcf32","2016-05-16T11:08:25.847717-05:00",NA,"male",NA,1951,"asian","53104f90-4e64-5b82-8e79-c2500193cc6b","not hispanic or latino",2012,"TCGA-FF-A7CR",NA,"Lymphoid Neoplasm Diffuse Large B-cell Lymphoma",TRUE,"legacy","Lymph Nodes","TCGA-DLBC","Lymphoid Neoplasm Diffuse Large B-cell Lymphoma"
"TCGA-FM-8000-01A-11R-2213-07","TCGA-FM-8000","TCGA-FM-8000-01A-11R-2213-07","TCGA-FM-8000-01A","TP","Primary solid Tumor","not reported","not reported","2016-05-16T10:59:17.226982-05:00","c83.3","not reported",25724,"alive","9680/3",NA,NA,972,NA,NA,"1d23cdcf-c7d7-5486-bf5a-965c19b7c7e5","not reported","c18.9",-25724,"not reported","not reported","c18.9",NA,NA,69.5,"2016-05-16T10:59:17.226982-05:00",NA,NA,0.00289281997918835,NA,155,NA,NA,"113365d6-6976-5b5f-95dd-c82f79cab62b","2016-05-16T10:59:17.226982-05:00",NA,"female",NA,1941,"white","8fadcb02-b913-56eb-ad9a-e05e98494a26","not hispanic or latino",NA,"TCGA-FM-8000",NA,"Lymphoid Neoplasm Diffuse Large B-cell Lymphoma",TRUE,"legacy","Lymph Nodes","TCGA-DLBC","Lymphoid Neoplasm Diffuse Large B-cell Lymphoma"
"TCGA-GR-7351-01A-11R-2213-07","TCGA-GR-7351","TCGA-GR-7351-01A-11R-2213-07","TCGA-GR-7351-01A","TP","Primary solid Tumor","not reported","not reported","2016-05-16T10:59:18.498312-05:00","c83.3","not reported",20812,"alive","9680/3",NA,NA,4578,NA,NA,"d2af9e0f-b4dc-5289-9630-da7f4a3787a9","not reported","c73.9",-20812,"not reported","not reported","c73.9",NA,NA,77.5,"2016-05-16T10:59:18.498312-05:00",NA,NA,0.00279558838117397,NA,166.5,NA,NA,"b5795d56-4442-527f-90cf-0e8356978d26","2016-05-16T10:59:18.498312-05:00",NA,"female",NA,1945,"white","f23ec618-493d-58a2-853b-6037f9d64d9e","not hispanic or latino",NA,"TCGA-GR-7351",NA,"Lymphoid Neoplasm Diffuse Large B-cell Lymphoma",TRUE,"legacy","Lymph Nodes","TCGA-DLBC","Lymphoid Neoplasm Diffuse Large B-cell Lymphoma"
"TCGA-GR-A4D9-01B-11R-A31O-07","TCGA-GR-A4D9","TCGA-GR-A4D9-01B-11R-A31O-07","TCGA-GR-A4D9-01B","TP","Primary solid Tumor","not reported","not reported","2016-05-16T10:53:31.556457-05:00","c83.3","not reported",24405,"alive","9680/3",NA,NA,1739,NA,NA,"5e004eb7-b9ce-5b39-b227-7430986b1baf","not reported","c77.0",-24405,"not reported","not reported","c77.0",NA,NA,96.8,"2016-05-16T10:53:31.556457-05:00",NA,NA,0.00356852019587047,NA,164.7,NA,NA,"2ef3ed5f-c39d-5d8f-969e-ff41702d7833","2016-05-16T10:53:31.556457-05:00",NA,"female",NA,1943,"white","24873dc9-0264-530c-9d77-3824ea03c543","not hispanic or latino",NA,"TCGA-GR-A4D9",NA,"Lymphoid Neoplasm Diffuse Large B-cell Lymphoma",TRUE,"legacy","Lymph Nodes","TCGA-DLBC","Lymphoid Neoplasm Diffuse Large B-cell Lymphoma"
"TCGA-FA-A82F-01A-11R-A38C-07","TCGA-FA-A82F","TCGA-FA-A82F-01A-11R-A38C-07","TCGA-FA-A82F-01A","TP","Primary solid Tumor","not reported","not reported","2016-05-16T11:08:28.972596-05:00","c83.3","not reported",17819,"alive","9680/3",NA,NA,427,NA,NA,"b91ab214-e463-53e5-a9ef-55d8045ab8d4","not reported","c17.9",-17819,"not reported","not reported","c17.9",NA,NA,50,"2016-05-16T11:08:28.972596-05:00",NA,NA,0.00202847985719502,NA,157,NA,NA,"070df657-f17c-504a-a8c8-a243f513d19c","2016-05-16T11:08:28.972596-05:00",NA,"female",NA,1965,"asian","e1340048-0325-5e12-8820-7aba852475eb","not hispanic or latino",NA,"TCGA-FA-A82F",NA,"Lymphoid Neoplasm Diffuse Large B-cell Lymphoma",TRUE,"legacy","Lymph Nodes","TCGA-DLBC","Lymphoid Neoplasm Diffuse Large B-cell Lymphoma"
"TCGA-GR-A4D5-01A-11R-A31O-07","TCGA-GR-A4D5","TCGA-GR-A4D5-01A-11R-A31O-07","TCGA-GR-A4D5-01A","TP","Primary solid Tumor","not reported","not reported","2016-05-16T10:54:34.972179-05:00","c83.3","not reported",17023,"alive","9680/3",NA,NA,1299,NA,NA,"9242c841-408d-599a-99f8-b32327efda4b","not reported","c77.0",-17023,"not reported","not reported","c77.0",NA,NA,117.1,"2016-05-16T10:54:34.972179-05:00",NA,NA,0.00460294218806812,NA,159.5,NA,NA,"271ee885-27cc-5e03-8b47-f4a6806b18e0","2016-05-16T10:54:34.972179-05:00",NA,"female",NA,1964,"white","5732493d-5b13-56a3-8fdd-e1b6fdd08f0d","not hispanic or latino",NA,"TCGA-GR-A4D5",NA,"Lymphoid Neoplasm Diffuse Large B-cell Lymphoma",TRUE,"legacy","Lymph Nodes","TCGA-DLBC","Lymphoid Neoplasm Diffuse Large B-cell Lymphoma"
"TCGA-GS-A9TX-01A-11R-A38C-07","TCGA-GS-A9TX","TCGA-GS-A9TX-01A-11R-A38C-07","TCGA-GS-A9TX-01A","TP","Primary solid Tumor","not reported","not reported","2016-05-16T11:08:31.800498-05:00","c83.3","not reported",13708,"alive","9680/3",NA,NA,1373,NA,NA,"9b0086d1-b263-5f55-96a9-03588a3a367e","not reported","c77.4",-13708,"not reported","not reported","c77.4",NA,NA,85,"2016-05-16T11:08:31.800498-05:00",NA,NA,0.00243072435585805,NA,187,NA,NA,"edffea5e-2786-5c88-a9c6-a92f4100da74","2016-05-16T11:08:31.800498-05:00",NA,"male",NA,1974,"white","d48fbf16-362c-5998-8bda-806098588bc1","hispanic or latino",NA,"TCGA-GS-A9TX",NA,"Lymphoid Neoplasm Diffuse Large B-cell Lymphoma",TRUE,"legacy","Lymph Nodes","TCGA-DLBC","Lymphoid Neoplasm Diffuse Large B-cell Lymphoma"
"TCGA-FF-8062-01A-11R-2213-07","TCGA-FF-8062","TCGA-FF-8062-01A-11R-2213-07","TCGA-FF-8062-01A","TP","Primary solid Tumor","not reported","not reported","2016-05-16T10:59:12.773059-05:00","c83.3","not reported",21959,"alive","9680/3",NA,NA,679,NA,NA,"e1538c18-e4a2-52ab-b8ea-45864a5b41ce","not reported","c73.9",-21959,"not reported","not reported","c73.9",NA,NA,60.1,"2016-05-16T10:59:12.773059-05:00",NA,NA,0.00243823278834841,NA,157,NA,NA,"e83c57cc-858b-5910-93e3-39e4305307c1","2016-05-16T10:59:12.773059-05:00",NA,"female",NA,1951,"asian","7f9d67a0-1082-5f07-946f-e49513e90141","not hispanic or latino",NA,"TCGA-FF-8062",NA,"Lymphoid Neoplasm Diffuse Large B-cell Lymphoma",TRUE,"legacy","Lymph Nodes","TCGA-DLBC","Lymphoid Neoplasm Diffuse Large B-cell Lymphoma"
"TCGA-GR-A4D6-01A-11R-A31O-07","TCGA-GR-A4D6","TCGA-GR-A4D6-01A-11R-A31O-07","TCGA-GR-A4D6-01A","TP","Primary solid Tumor","not reported","not reported","2016-05-16T10:54:36.252096-05:00","c83.3","not reported",19838,"alive","9680/3",NA,NA,1334,NA,NA,"b2f418f0-cc31-5011-8882-1df2dd2aae1b","not reported","c77.0",-19838,"not reported","not reported","c77.0",NA,NA,54.5,"2016-05-16T10:54:36.252096-05:00",NA,NA,0.0022684703433923,NA,155,NA,NA,"0d9e6e2a-6feb-5431-8848-92da3a313da5","2016-05-16T10:54:36.252096-05:00",NA,"female",NA,1956,"asian","0f07013a-e3ea-50ba-80b4-245cd1b627c8","not hispanic or latino",NA,"TCGA-GR-A4D6",NA,"Lymphoid Neoplasm Diffuse Large B-cell Lymphoma",TRUE,"legacy","Lymph Nodes","TCGA-DLBC","Lymphoid Neoplasm Diffuse Large B-cell Lymphoma"
"TCGA-FA-A86F-01A-11R-A38C-07","TCGA-FA-A86F","TCGA-FA-A86F-01A-11R-A38C-07","TCGA-FA-A86F-01A","TP","Primary solid Tumor","not reported","not reported","2016-05-16T11:08:27.201679-05:00","c83.3","not reported",23641,"alive","9680/3",NA,NA,553,NA,NA,"76013747-cd53-5ef2-98aa-16c55d3a46ee","not reported","c77.3",-23641,"not reported","not reported","c77.3",NA,NA,67,"2016-05-16T11:08:27.201679-05:00",NA,NA,0.00275312294543064,NA,156,NA,NA,"8bb5b35e-29db-5229-b364-002e6f6afe96","2016-05-16T11:08:27.201679-05:00",NA,"female",NA,1949,"white","d1a014bb-e1f4-5fa3-a834-e70a71f7e757","not hispanic or latino",NA,"TCGA-FA-A86F",NA,"Lymphoid Neoplasm Diffuse Large B-cell Lymphoma",TRUE,"legacy","Lymph Nodes","TCGA-DLBC","Lymphoid Neoplasm Diffuse Large B-cell Lymphoma"
"TCGA-GS-A9TU-01A-11R-A38C-07","TCGA-GS-A9TU","TCGA-GS-A9TU-01A-11R-A38C-07","TCGA-GS-A9TU-01A","TP","Primary solid Tumor","not reported","not reported","2016-05-16T11:08:26.584983-05:00","c83.3","not reported",16720,"alive","9680/3",NA,NA,3897,NA,NA,"fa13235b-bf7b-5f6e-a73e-be735c87870e","not reported","c77.4",-16720,"not reported","not reported","c77.4",NA,NA,90,"2016-05-16T11:08:26.584983-05:00",NA,NA,0.00268744961031981,NA,183,NA,NA,"418bfe34-ce80-5de7-9140-3d54d078d989","2016-05-16T11:08:26.584983-05:00",NA,"male",NA,1959,"white","7d9da7f2-d8eb-5333-b570-dd5dd94b3534","hispanic or latino",NA,"TCGA-GS-A9TU",NA,"Lymphoid Neoplasm Diffuse Large B-cell Lymphoma",TRUE,"legacy","Lymph Nodes","TCGA-DLBC","Lymphoid Neoplasm Diffuse Large B-cell Lymphoma"
"TCGA-G8-6326-01A-11R-2213-07","TCGA-G8-6326","TCGA-G8-6326-01A-11R-2213-07","TCGA-G8-6326-01A","TP","Primary solid Tumor","not reported","not reported","2016-05-16T10:59:16.644467-05:00","c48.1","not reported",19238,"alive","9680/3",NA,NA,2131,NA,NA,"3833dbff-0973-5682-bbcb-fbd0f7d9990f","not reported","c48.1",-19238,"not reported","not reported","c48.1",NA,NA,127.7,"2016-05-16T10:59:16.644467-05:00",NA,NA,0.00373119065010957,NA,185,NA,NA,"09946e83-1984-5a33-b8d2-a9e08ea2de6a","2016-05-16T10:59:16.644467-05:00",NA,"male",NA,1957,"white","c723b222-da7c-5d48-98a8-c2b283cfcf51","not hispanic or latino",NA,"TCGA-G8-6326",NA,"Lymphoid Neoplasm Diffuse Large B-cell Lymphoma",TRUE,"legacy","Lymph Nodes","TCGA-DLBC","Lymphoid Neoplasm Diffuse Large B-cell Lymphoma"
"TCGA-FA-A4XK-01A-11R-A31O-07","TCGA-FA-A4XK","TCGA-FA-A4XK-01A-11R-A31O-07","TCGA-FA-A4XK-01A","TP","Primary solid Tumor","not reported","not reported","2016-05-16T10:54:34.334641-05:00","c83.3","not reported",14723,"dead","9680/3",708,NA,456,NA,NA,"d759354e-fb28-56f0-9f44-eb2885c5cdff","not reported","c17.1",-14723,"not reported","not reported","c17.1",NA,NA,60,"2016-05-16T10:54:34.334641-05:00",NA,NA,0.00220385674931129,NA,165,NA,NA,"f09801b0-4d71-5e19-a890-c1a631f29c97","2016-05-16T10:54:34.334641-05:00",NA,"male",NA,1972,"asian","77e3967f-f88c-56f7-977f-b269eb9ef353","not hispanic or latino",NA,"TCGA-FA-A4XK",NA,"Lymphoid Neoplasm Diffuse Large B-cell Lymphoma",TRUE,"legacy","Lymph Nodes","TCGA-DLBC","Lymphoid Neoplasm Diffuse Large B-cell Lymphoma"
"TCGA-FF-8043-01A-11R-2213-07","TCGA-FF-8043","TCGA-FF-8043-01A-11R-2213-07","TCGA-FF-8043-01A","TP","Primary solid Tumor","not reported","not reported","2016-05-16T10:59:19.190638-05:00","c83.3","not reported",25612,"alive","9680/3",NA,NA,965,NA,NA,"b99090dd-812f-50ba-ace7-b62c49d489de","not reported","c18.9",-25612,"not reported","not reported","c18.9",NA,NA,41.5,"2016-05-16T10:59:19.190638-05:00",NA,NA,0.00194689435166072,NA,146,NA,NA,"171b1e2d-562a-5f05-911d-0c1f64f0639d","2016-05-16T10:59:19.190638-05:00",NA,"female",NA,1940,"asian","61e7efa5-9fe8-574d-8571-5b73f92c23c9","not hispanic or latino",NA,"TCGA-FF-8043",NA,"Lymphoid Neoplasm Diffuse Large B-cell Lymphoma",TRUE,"legacy","Lymph Nodes","TCGA-DLBC","Lymphoid Neoplasm Diffuse Large B-cell Lymphoma"
"TCGA-FF-8047-01A-11R-2213-07","TCGA-FF-8047","TCGA-FF-8047-01A-11R-2213-07","TCGA-FF-8047-01A","TP","Primary solid Tumor","not reported","not reported","2016-05-16T10:59:23.607217-05:00","c83.3","not reported",13996,"alive","9680/3",NA,NA,126,NA,NA,"04142a14-7125-57a9-93be-24468968e6e3","not reported","c77.0",-13996,"not reported","not reported","c77.0",NA,NA,52.5,"2016-05-16T10:59:23.607217-05:00",NA,NA,0.00218522372528616,NA,155,NA,NA,"f9a120e2-8c20-52a5-88e3-b367868e59ec","2016-05-16T10:59:23.607217-05:00",NA,"female",NA,1973,"asian","baa18beb-dfe7-5488-acbe-4addf1eb70b7","not hispanic or latino",NA,"TCGA-FF-8047",NA,"Lymphoid Neoplasm Diffuse Large B-cell Lymphoma",TRUE,"legacy","Lymph Nodes","TCGA-DLBC","Lymphoid Neoplasm Diffuse Large B-cell Lymphoma"
"TCGA-GS-A9U3-01A-11R-A39D-07","TCGA-GS-A9U3","TCGA-GS-A9U3-01A-11R-A39D-07","TCGA-GS-A9U3-01A","TP","Primary solid Tumor","not reported","not reported","2016-05-16T11:03:56.649245-05:00","c83.3","not reported",28474,"alive","9680/3",NA,NA,3394,NA,NA,"45ed87c9-7886-56ea-84c4-8da2c41c499f","not reported","c77.4",-28474,"not reported","not reported","c77.4",NA,NA,80,"2016-05-16T11:03:56.649245-05:00",NA,NA,0.00324556777151203,NA,157,NA,NA,"278725b4-9979-5ba8-9d09-df78b5b1a6b8","2016-05-16T11:03:56.649245-05:00",NA,"female",NA,1928,"white","ded866bb-5f4c-5dce-b57b-730c47ef0b1a","hispanic or latino",NA,"TCGA-GS-A9U3",NA,"Lymphoid Neoplasm Diffuse Large B-cell Lymphoma",TRUE,"legacy","Lymph Nodes","TCGA-DLBC","Lymphoid Neoplasm Diffuse Large B-cell Lymphoma"
"TCGA-FF-8061-01A-11R-2213-07","TCGA-FF-8061","TCGA-FF-8061-01A-11R-2213-07","TCGA-FF-8061-01A","TP","Primary solid Tumor","not reported","not reported","2016-05-16T10:59:20.948839-05:00","c83.3","not reported",15358,"alive","9680/3",NA,NA,832,NA,NA,"a76158eb-bf68-5259-8113-2b4dfc6dd778","not reported","c17.9",-15358,"not reported","not reported","c17.9",NA,NA,48.1,"2016-05-16T10:59:20.948839-05:00",NA,NA,0.00164495058308539,NA,171,NA,NA,"e45ed39d-b83c-5da7-9f54-13ee16d7f57e","2016-05-16T10:59:20.948839-05:00",NA,"male",NA,1968,"asian","1a75ebec-b0d0-50ee-bd5f-e5b4b88c8584","not hispanic or latino",NA,"TCGA-FF-8061",NA,"Lymphoid Neoplasm Diffuse Large B-cell Lymphoma",TRUE,"legacy","Lymph Nodes","TCGA-DLBC","Lymphoid Neoplasm Diffuse Large B-cell Lymphoma"
"TCGA-RQ-A6JB-01A-11R-A31O-07","TCGA-RQ-A6JB","TCGA-RQ-A6JB-01A-11R-A31O-07","TCGA-RQ-A6JB-01A","TP","Primary solid Tumor","not reported","not reported","2016-05-16T10:54:37.329177-05:00","c83.3","not reported",22859,"alive","9680/3",NA,NA,1,NA,NA,"03b7fb3b-c292-5f94-9026-b3e3643f3619","not reported","c41.0",-22859,"not reported","not reported","c41.0",NA,NA,72,"2016-05-16T10:54:37.329177-05:00",NA,NA,0.00258166302126286,NA,167,NA,NA,"e23a8959-0772-5ac6-8aa5-7db51cc15976","2016-05-16T10:54:37.329177-05:00",NA,"female",NA,1949,"white","45800c31-df11-5c89-82fd-1be8c1a6e119","not hispanic or latino",NA,"TCGA-RQ-A6JB",NA,"Lymphoid Neoplasm Diffuse Large B-cell Lymphoma",TRUE,"legacy","Lymph Nodes","TCGA-DLBC","Lymphoid Neoplasm Diffuse Large B-cell Lymphoma"
"TCGA-GR-A4D4-01A-11R-A31O-07","TCGA-GR-A4D4","TCGA-GR-A4D4-01A-11R-A31O-07","TCGA-GR-A4D4-01A","TP","Primary solid Tumor","not reported","not reported","2016-05-16T10:54:38.549015-05:00","c83.3","not reported",20888,"alive","9680/3",NA,NA,1581,NA,NA,"419545fc-8c92-515d-9d50-90a650445145","not reported","c49.9",-20888,"not reported","not reported","c49.9",NA,NA,76.1,"2016-05-16T10:54:38.549015-05:00",NA,NA,0.00269628684807256,NA,168,NA,NA,"47848a05-b3b1-57d7-ab4d-04553c3f50d7","2016-05-16T10:54:38.549015-05:00",NA,"female",NA,1953,"white","23baac97-78e9-5759-8de5-09ee92456562","not hispanic or latino",NA,"TCGA-GR-A4D4",NA,"Lymphoid Neoplasm Diffuse Large B-cell Lymphoma",TRUE,"legacy","Lymph Nodes","TCGA-DLBC","Lymphoid Neoplasm Diffuse Large B-cell Lymphoma"
"TCGA-FF-A7CW-01A-11R-A38C-07","TCGA-FF-A7CW","TCGA-FF-A7CW-01A-11R-A38C-07","TCGA-FF-A7CW-01A","TP","Primary solid Tumor","not reported","not reported","2016-05-16T11:08:27.826402-05:00","c83.3","not reported",26520,"alive","9680/3",NA,NA,791,NA,NA,"b611c4e8-6b93-5f05-9375-f7e1c08cef53","not reported","c77.0",-26520,"not reported","not reported","c77.0",NA,NA,51,"2016-05-16T11:08:27.826402-05:00",NA,NA,0.00215044695564176,NA,154,NA,NA,"6da95e9f-ddea-507e-925d-10e6faa761de","2016-05-16T11:08:27.826402-05:00",NA,"male",NA,1940,"asian","a8a35af9-6f70-5d57-ba38-c0a9b11661f8","not hispanic or latino",NA,"TCGA-FF-A7CW",NA,"Lymphoid Neoplasm Diffuse Large B-cell Lymphoma",TRUE,"legacy","Lymph Nodes","TCGA-DLBC","Lymphoid Neoplasm Diffuse Large B-cell Lymphoma"
"TCGA-G8-6907-01A-11R-2213-07","TCGA-G8-6907","TCGA-G8-6907-01A-11R-2213-07","TCGA-G8-6907-01A","TP","Primary solid Tumor","not reported","not reported","2016-05-16T10:59:13.355487-05:00","c83.3","not reported",21021,"dead","9680/3",595,NA,NA,NA,NA,"80ab0c0c-3dcc-5b36-a8fd-5bcb544ea136","not reported","c77.0",-21021,"not reported","not reported","c77.0",NA,NA,91.8,"2016-05-16T10:59:13.355487-05:00",NA,NA,0.00386077003436842,NA,154.2,NA,NA,"9a5fc0cb-1362-51dd-996e-442be08e264b","2016-05-16T10:59:13.355487-05:00",NA,"female",NA,1943,"white","d285e87d-d8cc-5756-aede-6524bd4175ac","not hispanic or latino",2001,"TCGA-G8-6907",NA,"Lymphoid Neoplasm Diffuse Large B-cell Lymphoma",TRUE,"legacy","Lymph Nodes","TCGA-DLBC","Lymphoid Neoplasm Diffuse Large B-cell Lymphoma"
"TCGA-FA-8693-01A-11R-2404-07","TCGA-FA-8693","TCGA-FA-8693-01A-11R-2404-07","TCGA-FA-8693-01A","TP","Primary solid Tumor","not reported","not reported","2016-05-16T11:13:10.410048-05:00","c83.3","not reported",27468,"alive","9680/3",NA,NA,132,NA,NA,"951b7843-4a7a-50d1-ba43-5e30d8b8e393","not reported","c16.9",-27468,"not reported","not reported","c16.9",NA,NA,82,"2016-05-16T11:13:10.410048-05:00",NA,NA,0.00287104793249536,NA,169,NA,NA,"2ddbb9dc-1582-5971-a51e-2e25e789a321","2016-05-16T11:13:10.410048-05:00",NA,"male",NA,1937,"white","c3fbd503-558d-5704-b25e-3a664884eda0","not hispanic or latino",NA,"TCGA-FA-8693",NA,"Lymphoid Neoplasm Diffuse Large B-cell Lymphoma",TRUE,"legacy","Lymph Nodes","TCGA-DLBC","Lymphoid Neoplasm Diffuse Large B-cell Lymphoma"
"TCGA-FF-8042-01A-11R-2213-07","TCGA-FF-8042","TCGA-FF-8042-01A-11R-2213-07","TCGA-FF-8042-01A","TP","Primary solid Tumor","not reported","not reported","2016-05-16T10:59:21.661656-05:00","c83.3","not reported",21005,"alive","9680/3",NA,NA,946,NA,NA,"1961ab22-372e-5c8f-9e60-59c7b667c986","not reported","c77.0",-21005,"not reported","not reported","c77.0",NA,NA,89.9,"2016-05-16T10:59:21.661656-05:00",NA,NA,0.0030744502581991,NA,171,NA,NA,"3214a491-103b-5e0b-8aff-6b0e966989f8","2016-05-16T10:59:21.661656-05:00",NA,"female",NA,1953,"asian","3c761ed7-59e8-5b67-8d78-c4cd42e747dc","not hispanic or latino",NA,"TCGA-FF-8042",NA,"Lymphoid Neoplasm Diffuse Large B-cell Lymphoma",TRUE,"legacy","Lymph Nodes","TCGA-DLBC","Lymphoid Neoplasm Diffuse Large B-cell Lymphoma"
"TCGA-RQ-A68N-01A-11R-A31O-07","TCGA-RQ-A68N","TCGA-RQ-A68N-01A-11R-A31O-07","TCGA-RQ-A68N-01A","TP","Primary solid Tumor","not reported","not reported","2016-05-16T10:53:30.950714-05:00","c71.7","not reported",23127,"alive","9680/3",NA,NA,788,NA,NA,"a32cf072-a7ef-5494-ad98-359ed372dd6b","not reported","c71.7",-23127,"not reported","not reported","c71.7",NA,NA,58,"2016-05-16T10:53:30.950714-05:00",NA,NA,0.00221002895900015,NA,162,NA,NA,"28394061-6b66-5fca-9e59-9e05d96d5454","2016-05-16T10:53:30.950714-05:00",NA,"male",NA,1949,"white","c4db9092-f143-5a6e-ab58-88750e8f6880","hispanic or latino",NA,"TCGA-RQ-A68N",NA,"Lymphoid Neoplasm Diffuse Large B-cell Lymphoma",TRUE,"legacy","Lymph Nodes","TCGA-DLBC","Lymphoid Neoplasm Diffuse Large B-cell Lymphoma"
"TCGA-GS-A9TQ-01A-11R-A38C-07","TCGA-GS-A9TQ","TCGA-GS-A9TQ-01A-11R-A38C-07","TCGA-GS-A9TQ-01A","TP","Primary solid Tumor","not reported","not reported","2016-05-16T11:08:30.617951-05:00","c83.3","not reported",25292,"alive","9680/3",NA,NA,982,NA,NA,"932bf459-2fd8-51b7-b8f2-ee9ab6290bbb","not reported","c77.4",-25292,"not reported","not reported","c77.4",NA,NA,68,"2016-05-16T11:08:30.617951-05:00",NA,NA,0.00283038501560874,NA,155,NA,NA,"7062c5a2-281a-5779-803f-34dcd8441fbb","2016-05-16T11:08:30.617951-05:00",NA,"female",NA,1943,"white","ded4a6fb-abb0-57c1-b55c-b45b47d4add5","hispanic or latino",NA,"TCGA-GS-A9TQ",NA,"Lymphoid Neoplasm Diffuse Large B-cell Lymphoma",TRUE,"legacy","Lymph Nodes","TCGA-DLBC","Lymphoid Neoplasm Diffuse Large B-cell Lymphoma"
