"","sample","patient","barcode","shortLetterCode","definition","classification_of_tumor","last_known_disease_status","updated_datetime.x","primary_diagnosis","tumor_stage","age_at_diagnosis","vital_status","morphology","days_to_death","days_to_last_known_disease_status","days_to_last_follow_up","state.x","days_to_recurrence","diagnosis_id","tumor_grade","tissue_or_organ_of_origin","days_to_birth","progression_or_recurrence","prior_malignancy","site_of_resection_or_biopsy","created_datetime.x","cigarettes_per_day","weight","updated_datetime.y","alcohol_history","alcohol_intensity","bmi","years_smoked","height","created_datetime.y","state.y","exposure_id","updated_datetime","created_datetime","gender","state","year_of_birth","race","demographic_id","ethnicity","year_of_death","bcr_patient_barcode","dbgap_accession_number","disease_type","released","state.1","primary_site","project_id","name","subtype_patient","subtype_mtDNA.data","subtype_WGS.data","subtype_Primary.Site.Of.Disease","subtype_Gender","subtype_Age.at.Diagnosis","subtype_Race","subtype_Ethnicity","subtype_Year.of.Initial.Pathologic.Diagnosis","subtype_Prior.Diagnosis..Y.N.","subtype_Prior.Therapy..Y.N.","subtype_Histological.Subtype","subtype_Laterality","subtype_Pathologic.Spread.Distant.Metastasis","subtype_Pathologic.Spread.Lymph.Nodes","subtype_T.Stage","subtype_Tumor.Stage","subtype_Composite.Tumor.Status","subtype_Composite.Vital.Status","subtype_Max.Follow.up","subtype_New.Tumor.After.Initial.Treatment..days.","subtype_Number.Of.Lymph.Nodes.Positive","subtype_Karnofsky.Performance.Status.Score","subtype_LDH","subtype_Eosinophilic.vs.Classic","subtype_Sarcomatoid.Features..Y.N.","subtype_Calcium","subtype_White.Cell.Count","subtype_Hemoglobin","subtype_Platelets","subtype_Path.review.notes","subtype_Copy.Pattern","subtype_Notable.Molecular.Observations"
"TCGA-KN-8428-01A-11R-2315-07","TCGA-KN-8428-01A","TCGA-KN-8428","TCGA-KN-8428-01A-11R-2315-07","TP","Primary solid Tumor","not reported","not reported","2016-05-16T11:09:37.081289-05:00","c64.9","stage ii",26252,"dead","8317/3",1590,NA,NA,NA,NA,"a4a780c9-7e64-5280-81de-72b36251c287","not reported","c64.9",-26252,"not reported","not reported","c64.9",NA,2.63013698630137,NA,"2016-05-16T11:09:37.081289-05:00",NA,NA,NA,NA,NA,NA,NA,"0ceb79ca-530a-56a4-a15d-27480c34c4d8","2016-05-16T11:09:37.081289-05:00",NA,"male",NA,1935,"white","41fe097c-1209-5d68-9c19-9f69da94cb5d","not hispanic or latino",2010,"TCGA-KN-8428",NA,"Kidney Chromophobe",TRUE,"legacy","Kidney","TCGA-KICH","Kidney Chromophobe","TCGA-KN-8428","YES","YES","Kidney","MALE",71,"WHITE","NOT HISPANIC OR LATINO",2006,"No","No","Kidney Chromophobe","Left","[Not Available]","N0","T2","Stage II","WITH TUMOR","DECEASED","1590","478","0","[Not Evaluated]","[Not Evaluated]","Eosinophilic","[Not Evaluated]","Low","Elevated","Low","Normal","","classic","Hypermutated"
"TCGA-KN-8432-01A-11R-2315-07","TCGA-KN-8432-01A","TCGA-KN-8432","TCGA-KN-8432-01A-11R-2315-07","TP","Primary solid Tumor","not reported","not reported","2016-05-16T11:09:22.670387-05:00","c64.9","stage ii",31591,"alive","8317/3",NA,NA,76,NA,NA,"433ba9f3-f53e-536b-be05-e324242f7082","not reported","c64.9",-31591,"not reported","not reported","c64.9",NA,NA,NA,"2016-05-16T11:09:22.670387-05:00",NA,NA,NA,NA,NA,NA,NA,"d5587e7f-62c8-551a-a6f7-f5f61cdbe38a","2016-05-16T11:09:22.670387-05:00",NA,"female",NA,1924,"white","4a1d09b8-26df-59c9-9c3b-6bf42842d251","not hispanic or latino",NA,"TCGA-KN-8432",NA,"Kidney Chromophobe",TRUE,"legacy","Kidney","TCGA-KICH","Kidney Chromophobe","TCGA-KN-8432","YES","YES","Kidney","FEMALE",86,"WHITE","NOT HISPANIC OR LATINO",2010,"No","No","Kidney Chromophobe","Right","[Not Available]","NX","T2b","Stage II","[Unknown]","LIVING","76","[Not Available]","[Not Available]","[Not Evaluated]","[Not Evaluated]","Classic","NO","[Not Evaluated]","Normal","Normal","Normal","","classic",""
"TCGA-KN-8437-01A-11R-2315-07","TCGA-KN-8437-01A","TCGA-KN-8437","TCGA-KN-8437-01A-11R-2315-07","TP","Primary solid Tumor","not reported","not reported","2016-05-16T11:09:12.950261-05:00","c64.9","stage i",15475,"alive","8317/3",NA,NA,3068,NA,NA,"0ff5216e-0c29-5715-8359-ff3db4fd3bbb","not reported","c64.9",-15475,"not reported","not reported","c64.9",NA,NA,NA,"2016-05-16T11:09:12.950261-05:00",NA,NA,NA,NA,NA,NA,NA,"8f0e0e7d-aeeb-55f5-9759-c1be00bd5747","2016-05-16T11:09:12.950261-05:00",NA,"female",NA,1964,"white","474c3de6-d830-5684-9ec8-bc0b6c82a044","not hispanic or latino",NA,"TCGA-KN-8437",NA,"Kidney Chromophobe",TRUE,"legacy","Kidney","TCGA-KICH","Kidney Chromophobe","TCGA-KN-8437","YES","YES","Kidney","FEMALE",42,"WHITE","NOT HISPANIC OR LATINO",2006,"No","No","Kidney Chromophobe","Right","[Not Available]","NX","T1a","Stage I","TUMOR FREE","LIVING","2303","[Not Available]","[Not Available]","[Not Evaluated]","Normal","Eosinophilic","[Not Evaluated]","Low","Normal","Low","Normal","oncocytic features noted","copy neutral","MT-ND5 mutation (>70% heteroplasmy)"
"TCGA-KL-8346-01A-11R-2315-07","TCGA-KL-8346-01A","TCGA-KL-8346","TCGA-KL-8346-01A-11R-2315-07","TP","Primary solid Tumor","not reported","not reported","2016-05-16T11:09:36.355043-05:00","c64.9","stage ii",22651,"alive","8317/3",NA,NA,1897,NA,NA,"6a02eac5-9eac-5f96-806f-6276921f775f","not reported","c64.9",-22651,"not reported","not reported","c64.9",NA,NA,NA,"2016-05-16T11:09:36.355043-05:00",NA,NA,NA,NA,NA,NA,NA,"1aea3ccf-3f44-5004-a5a6-937b279a6980","2016-05-16T11:09:36.355043-05:00",NA,"male",NA,1946,"white","6032347b-3e4b-55cf-ab54-bd72683d84b4","not reported",NA,"TCGA-KL-8346",NA,"Kidney Chromophobe",TRUE,"legacy","Kidney","TCGA-KICH","Kidney Chromophobe","TCGA-KL-8346","YES","YES","Kidney","MALE",62,"WHITE","[Not Evaluated]",2008,"No","No","Kidney Chromophobe","Right","M0","N0","T2b","Stage II","TUMOR FREE","LIVING","1896","[Not Available]","0","[Not Available]","[Not Evaluated]","Classic","[Not Available]","Normal","Elevated","Normal","Normal","","classic",""
"TCGA-KN-8428-11A-01R-2315-07","TCGA-KN-8428-11A","TCGA-KN-8428","TCGA-KN-8428-11A-01R-2315-07","NT","Solid Tissue Normal","not reported","not reported","2016-05-16T11:09:37.081289-05:00","c64.9","stage ii",26252,"dead","8317/3",1590,NA,NA,NA,NA,"a4a780c9-7e64-5280-81de-72b36251c287","not reported","c64.9",-26252,"not reported","not reported","c64.9",NA,2.63013698630137,NA,"2016-05-16T11:09:37.081289-05:00",NA,NA,NA,NA,NA,NA,NA,"0ceb79ca-530a-56a4-a15d-27480c34c4d8","2016-05-16T11:09:37.081289-05:00",NA,"male",NA,1935,"white","41fe097c-1209-5d68-9c19-9f69da94cb5d","not hispanic or latino",2010,"TCGA-KN-8428",NA,"Kidney Chromophobe",TRUE,"legacy","Kidney","TCGA-KICH","Kidney Chromophobe",NA,NA,NA,NA,NA,NA,NA,NA,NA,NA,NA,NA,NA,NA,NA,NA,NA,NA,NA,NA,NA,NA,NA,NA,NA,NA,NA,NA,NA,NA,NA,NA,NA
"TCGA-KM-8442-01A-11R-2315-07","TCGA-KM-8442-01A","TCGA-KM-8442","TCGA-KM-8442-01A-11R-2315-07","TP","Primary solid Tumor","not reported","not reported","2016-05-16T11:09:45.586890-05:00","c64.9","stage ii",14212,"alive","8317/3",NA,NA,1437,NA,NA,"7910057b-38eb-5ec4-a9f8-5386e11d814f","not reported","c64.9",-14212,"not reported","not reported","c64.9",NA,NA,NA,"2016-05-16T11:09:45.586890-05:00",NA,NA,NA,NA,NA,NA,NA,"5875e3ca-5ba3-5fd2-96a5-afeff7d1fcaf","2016-05-16T11:09:45.586890-05:00",NA,"male",NA,1971,"not reported","b1208962-d6a5-5e1e-bd82-a53107b2d9b8","hispanic or latino",NA,"TCGA-KM-8442",NA,"Kidney Chromophobe",TRUE,"legacy","Kidney","TCGA-KICH","Kidney Chromophobe","TCGA-KM-8442","YES","YES","Kidney","MALE",38,"[Unknown]","HISPANIC OR LATINO",2009,"Yes, History of Synchronous and or Bilateral Malignancy","No","Kidney Chromophobe","Right","MX","NX","T2b","Stage II","WITH TUMOR","LIVING","673","[Not Available]","[Not Available]","100","Normal","Classic","NO","Normal","Normal","Normal","Normal","","classic",""
"TCGA-KN-8430-11A-01R-2315-07","TCGA-KN-8430-11A","TCGA-KN-8430","TCGA-KN-8430-11A-01R-2315-07","NT","Solid Tissue Normal","not reported","not reported","2016-05-16T11:09:25.835144-05:00","c64.9","stage i",27467,"dead","8317/3",NA,NA,NA,NA,NA,"3e9abc64-5eb2-5ff2-8a21-c9e8dfe1883a","not reported","c64.9",-27467,"not reported","not reported","c64.9",NA,NA,NA,"2016-05-16T11:09:25.835144-05:00",NA,NA,NA,NA,NA,NA,NA,"36312b92-2c0e-565e-b4ac-d15177684ea1","2016-05-16T11:09:25.835144-05:00",NA,"male",NA,1932,"white","09aac3cf-d29f-5975-9a97-16b8cd81e9b3","not hispanic or latino",NA,"TCGA-KN-8430",NA,"Kidney Chromophobe",TRUE,"legacy","Kidney","TCGA-KICH","Kidney Chromophobe",NA,NA,NA,NA,NA,NA,NA,NA,NA,NA,NA,NA,NA,NA,NA,NA,NA,NA,NA,NA,NA,NA,NA,NA,NA,NA,NA,NA,NA,NA,NA,NA,NA
"TCGA-KL-8326-01A-11R-2315-07","TCGA-KL-8326-01A","TCGA-KL-8326","TCGA-KL-8326-01A-11R-2315-07","TP","Primary solid Tumor","not reported","not reported","2016-05-16T11:09:24.473143-05:00","c64.9","stage iii",25267,"alive","8317/3",NA,NA,3322,NA,NA,"86dd8552-870c-526e-88d9-66b7b7e521ac","not reported","c64.9",-25267,"not reported","not reported","c64.9",NA,NA,NA,"2016-05-16T11:09:24.473143-05:00",NA,NA,NA,NA,NA,NA,NA,"d3420aa3-da36-5c85-8020-2f0b473c0cac","2016-05-16T11:09:24.473143-05:00",NA,"male",NA,1932,"white","2f868b12-d219-55a3-9e74-d8f7049be57c","not reported",NA,"TCGA-KL-8326",NA,"Kidney Chromophobe",TRUE,"legacy","Kidney","TCGA-KICH","Kidney Chromophobe","TCGA-KL-8326","YES","YES","Kidney","MALE",69,"WHITE","[Not Evaluated]",2001,"No","No","Kidney Chromophobe","Right","M0","N0","T3a","Stage III","TUMOR FREE","LIVING","3321","[Not Available]","0","[Not Available]","[Not Evaluated]","Eosinophilic","[Not Available]","Low","Elevated","Low","Normal","","chr1 loss",""
"TCGA-KL-8334-01A-11R-2315-07","TCGA-KL-8334-01A","TCGA-KL-8334","TCGA-KL-8334-01A-11R-2315-07","TP","Primary solid Tumor","not reported","not reported","2016-05-16T11:09:44.939795-05:00","c64.9","stage iii",13602,"alive","8317/3",NA,NA,2949,NA,NA,"c62fd3b0-9c89-5f5c-abb3-0def404e93df","not reported","c64.9",-13602,"not reported","not reported","c64.9",NA,NA,NA,"2016-05-16T11:09:44.939795-05:00",NA,NA,NA,NA,NA,NA,NA,"48f2bd98-2bed-5cda-9f0f-095c54304bb7","2016-05-16T11:09:44.939795-05:00",NA,"female",NA,1968,"white","c2f0c5d9-e387-511e-8f05-95d4bfa5c74f","not reported",NA,"TCGA-KL-8334",NA,"Kidney Chromophobe",TRUE,"legacy","Kidney","TCGA-KICH","Kidney Chromophobe","TCGA-KL-8334","YES","YES","Kidney","FEMALE",37,"WHITE","[Not Evaluated]",2005,"No","No","Kidney Chromophobe","Left","M0","N0","T3a","Stage III","TUMOR FREE","LIVING","2949","[Not Available]","0","[Not Available]","[Not Evaluated]","Classic","[Not Available]","Low","Elevated","Low","Normal","","classic",""
"TCGA-KM-8477-01A-11R-2315-07","TCGA-KM-8477-01A","TCGA-KM-8477","TCGA-KM-8477-01A-11R-2315-07","TP","Primary solid Tumor","not reported","not reported","2016-05-16T11:09:34.613905-05:00","c64.9","stage i",20491,"alive","8317/3",NA,NA,1553,NA,NA,"b4a42585-e451-5f23-9e8a-0cbc92c58ecf","not reported","c64.9",-20491,"not reported","not reported","c64.9",NA,NA,NA,"2016-05-16T11:09:34.613905-05:00",NA,NA,NA,NA,NA,NA,NA,"a04deb89-fdc2-56ce-bdc3-5114144304e0","2016-05-16T11:09:34.613905-05:00",NA,"male",NA,1949,"white","a050e9ad-d0d8-53bf-8474-93590da9fb18","not hispanic or latino",NA,"TCGA-KM-8477",NA,"Kidney Chromophobe",TRUE,"legacy","Kidney","TCGA-KICH","Kidney Chromophobe","TCGA-KM-8477","YES","YES","Kidney","MALE",56,"WHITE","NOT HISPANIC OR LATINO",2005,"No","No","Kidney Chromophobe","Right","MX","NX","T1a","Stage I","TUMOR FREE","LIVING","1552","[Not Available]","[Not Available]","90","Normal","Eosinophilic","NO","Normal","Elevated","Normal","Normal","","copy neutral","MT-ND5 mutation (>70% heteroplasmy)"
"TCGA-KO-8415-11A-01R-2315-07","TCGA-KO-8415-11A","TCGA-KO-8415","TCGA-KO-8415-11A-01R-2315-07","NT","Solid Tissue Normal","not reported","not reported","2016-05-16T11:09:48.338668-05:00","c64.9","stage i",16395,"alive","8317/3",NA,NA,2939,NA,NA,"623b0d52-7a09-5f70-963f-431b8f39af49","not reported","c64.9",-16395,"not reported","not reported","c64.9",NA,NA,NA,"2016-05-16T11:09:48.338668-05:00",NA,NA,NA,NA,NA,NA,NA,"48bd27af-09de-5677-a11e-2de6cd4a7d0d","2016-05-16T11:09:48.338668-05:00",NA,"female",NA,1963,"white","d0a99c1e-1891-5efb-9f1e-6f44e7088255","hispanic or latino",NA,"TCGA-KO-8415",NA,"Kidney Chromophobe",TRUE,"legacy","Kidney","TCGA-KICH","Kidney Chromophobe",NA,NA,NA,NA,NA,NA,NA,NA,NA,NA,NA,NA,NA,NA,NA,NA,NA,NA,NA,NA,NA,NA,NA,NA,NA,NA,NA,NA,NA,NA,NA,NA,NA
"TCGA-KN-8435-01A-11R-2315-07","TCGA-KN-8435-01A","TCGA-KN-8435","TCGA-KN-8435-01A-11R-2315-07","TP","Primary solid Tumor","not reported","not reported","2016-05-16T11:09:12.219144-05:00","c64.9","stage ii",21891,"alive","8317/3",NA,NA,3498,NA,NA,"c7a2d55a-88ba-5fe8-853e-834a1bc83a3e","not reported","c64.9",-21891,"not reported","not reported","c64.9",NA,NA,NA,"2016-05-16T11:09:12.219144-05:00",NA,NA,NA,NA,NA,NA,NA,"c256f1f5-56dd-5b55-aaf0-d92c2181c226","2016-05-16T11:09:12.219144-05:00",NA,"male",NA,1945,"white","c5e121a9-7420-5329-9cc9-2f80c57bace2","not hispanic or latino",NA,"TCGA-KN-8435",NA,"Kidney Chromophobe",TRUE,"legacy","Kidney","TCGA-KICH","Kidney Chromophobe","TCGA-KN-8435","YES","YES","Kidney","MALE",59,"WHITE","NOT HISPANIC OR LATINO",2004,"No","No","Kidney Chromophobe","Right","[Not Available]","NX","T2","Stage II","TUMOR FREE","LIVING","2727","[Not Available]","[Not Available]","[Not Evaluated]","[Not Evaluated]","Eosinophilic","[Not Evaluated]","Normal","Elevated","Low","Normal","","classic","Strong kataegis pattern; p16 silencing"
"TCGA-KN-8426-01A-11R-2315-07","TCGA-KN-8426-01A","TCGA-KN-8426","TCGA-KN-8426-01A-11R-2315-07","TP","Primary solid Tumor","not reported","not reported","2016-05-16T11:09:44.242074-05:00","c64.9","stage iv",18345,"alive","8317/3",NA,NA,108,NA,NA,"a3448036-bb68-5646-8cda-d2665f31acd3","not reported","c64.9",-18345,"not reported","not reported","c64.9",NA,NA,NA,"2016-05-16T11:09:44.242074-05:00",NA,NA,NA,NA,NA,NA,NA,"6d451fa9-6ea1-5d5e-98d2-3e81b5f9c0b4","2016-05-16T11:09:44.242074-05:00",NA,"male",NA,1956,"white","bb7024da-76df-56c2-abc2-1ff39b9f8429","not reported",NA,"TCGA-KN-8426",NA,"Kidney Chromophobe",TRUE,"legacy","Kidney","TCGA-KICH","Kidney Chromophobe","TCGA-KN-8426","YES","YES","Kidney","MALE",50,"WHITE","[Not Evaluated]",2006,"No","No","Kidney Chromophobe","Left","M1","NX","T3a","Stage IV","WITH TUMOR","LIVING","107","[Not Available]","[Not Available]","[Not Evaluated]","[Not Evaluated]","Classic","[Not Evaluated]","Low","Elevated","Low","Normal","","classic",""
"TCGA-KO-8404-01A-11R-2315-07","TCGA-KO-8404-01A","TCGA-KO-8404","TCGA-KO-8404-01A-11R-2315-07","TP","Primary solid Tumor","not reported","not reported","2016-05-16T11:09:50.881972-05:00","c64.9","stage iv",28705,"dead","8317/3",325,NA,NA,NA,NA,"2c04590e-9dbf-5f32-9f5e-ea809883b3b8","not reported","c64.9",-28705,"not reported","not reported","c64.9",NA,NA,NA,"2016-05-16T11:09:50.881972-05:00",NA,NA,NA,NA,NA,NA,NA,"5d5c3e6a-41f0-5c84-8d12-d1ef621ff665","2016-05-16T11:09:50.881972-05:00",NA,"male",NA,1927,"white","b1af9fff-c88d-523a-a45d-c8404eff80be","not hispanic or latino",2005,"TCGA-KO-8404",NA,"Kidney Chromophobe",TRUE,"legacy","Kidney","TCGA-KICH","Kidney Chromophobe","TCGA-KO-8404","YES","NO","Kidney","MALE",78,"WHITE","NOT HISPANIC OR LATINO",2005,"No","No","Kidney Chromophobe","Right","[Not Available]","NX","T4","Stage IV","WITH TUMOR","DECEASED","325","148","[Not Available]","[Not Available]","[Not Available]","Classic","YES","[Not Available]","[Not Available]","[Not Available]","[Not Available]","","classic",""
"TCGA-KN-8431-11A-01R-2315-07","TCGA-KN-8431-11A","TCGA-KN-8431","TCGA-KN-8431-11A-01R-2315-07","NT","Solid Tissue Normal","not reported","not reported","2016-05-16T11:09:19.536542-05:00","c64.9","stage ii",13043,"alive","8317/3",NA,NA,588,NA,NA,"d73c4c3a-ac54-5020-8bd6-db9813307472","not reported","c64.9",-13043,"not reported","not reported","c64.9",NA,NA,NA,"2016-05-16T11:09:19.536542-05:00",NA,NA,NA,NA,NA,NA,NA,"4b0475fe-52f6-580e-8ff2-ec0c2867d599","2016-05-16T11:09:19.536542-05:00",NA,"female",NA,1972,"not reported","e5daed55-1ca4-527d-980f-329742a576f1","not reported",NA,"TCGA-KN-8431",NA,"Kidney Chromophobe",TRUE,"legacy","Kidney","TCGA-KICH","Kidney Chromophobe",NA,NA,NA,NA,NA,NA,NA,NA,NA,NA,NA,NA,NA,NA,NA,NA,NA,NA,NA,NA,NA,NA,NA,NA,NA,NA,NA,NA,NA,NA,NA,NA,NA
"TCGA-KM-8439-01A-11R-2315-07","TCGA-KM-8439-01A","TCGA-KM-8439","TCGA-KM-8439-01A-11R-2315-07","TP","Primary solid Tumor","not reported","not reported","2016-05-16T11:09:11.623494-05:00","c64.9","stage i",11266,"alive","8317/3",NA,NA,708,NA,NA,"d8acfca8-4cb8-5995-9407-3992fd836ed0","not reported","c64.9",-11266,"not reported","not reported","c64.9",NA,NA,NA,"2016-05-16T11:09:11.623494-05:00",NA,NA,NA,NA,NA,NA,NA,"958112a9-5e1c-5b60-8096-5e3be3e8a6fb","2016-05-16T11:09:11.623494-05:00",NA,"male",NA,1981,"white","7d55db31-3ff3-5977-a9f3-af4e41e6f74b","not hispanic or latino",NA,"TCGA-KM-8439",NA,"Kidney Chromophobe",TRUE,"legacy","Kidney","TCGA-KICH","Kidney Chromophobe","TCGA-KM-8439","YES","YES","Kidney","MALE",30,"WHITE","NOT HISPANIC OR LATINO",2011,"Yes, History of Synchronous and or Bilateral Malignancy","No","Kidney Chromophobe","Left","MX","NX","T1b","Stage I","WITH TUMOR","LIVING","247","[Not Available]","[Not Available]","80","Normal","Eosinophilic","NO","Normal","Normal","Normal","Normal","oncocytic features noted","copy neutral",""
"TCGA-KO-8417-01A-11R-2315-07","TCGA-KO-8417-01A","TCGA-KO-8417","TCGA-KO-8417-01A-11R-2315-07","TP","Primary solid Tumor","not reported","not reported","2016-05-16T11:09:21.482135-05:00","c64.9","stage i",11139,"alive","8317/3",NA,NA,2815,NA,NA,"c6a29c8f-1f5d-5def-8347-50b1b476e622","not reported","c64.9",-11139,"not reported","not reported","c64.9",NA,NA,NA,"2016-05-16T11:09:21.482135-05:00",NA,NA,NA,NA,NA,NA,NA,"7bfb3c3f-22ad-5449-bc13-5897866e4db9","2016-05-16T11:09:21.482135-05:00",NA,"female",NA,1977,"white","b0bb6cbd-0028-5484-8f92-8ab30b138039","not hispanic or latino",NA,"TCGA-KO-8417",NA,"Kidney Chromophobe",TRUE,"legacy","Kidney","TCGA-KICH","Kidney Chromophobe","TCGA-KO-8417","YES","YES","Kidney","FEMALE",30,"WHITE","NOT HISPANIC OR LATINO",2007,"No","No","Kidney Chromophobe","Right","M0","N0","T1","Stage I","TUMOR FREE","LIVING","1944","[Not Available]","[Not Available]","[Not Available]","[Not Available]","Classic","NO","[Not Available]","[Not Available]","[Not Available]","[Not Available]","","classic",""
"TCGA-KN-8423-11A-01R-2315-07","TCGA-KN-8423-11A","TCGA-KN-8423","TCGA-KN-8423-11A-01R-2315-07","NT","Solid Tissue Normal","not reported","not reported","2016-05-16T11:09:29.102571-05:00","c64.9","stage i",16335,"alive","8317/3",NA,NA,788,NA,NA,"40aaebad-3dea-5075-983e-08dfe735dc60","not reported","c64.9",-16335,"not reported","not reported","c64.9",NA,NA,NA,"2016-05-16T11:09:29.102571-05:00",NA,NA,NA,NA,NA,NA,NA,"3cd8e57a-ad16-55cc-9f64-b5c2b4659ff4","2016-05-16T11:09:29.102571-05:00",NA,"male",NA,1961,"white","e03bc099-e466-5fe8-86a8-a7c0ac223bf0","not hispanic or latino",NA,"TCGA-KN-8423",NA,"Kidney Chromophobe",TRUE,"legacy","Kidney","TCGA-KICH","Kidney Chromophobe",NA,NA,NA,NA,NA,NA,NA,NA,NA,NA,NA,NA,NA,NA,NA,NA,NA,NA,NA,NA,NA,NA,NA,NA,NA,NA,NA,NA,NA,NA,NA,NA,NA
"TCGA-KN-8418-01A-11R-2315-07","TCGA-KN-8418-01A","TCGA-KN-8418","TCGA-KN-8418-01A-11R-2315-07","TP","Primary solid Tumor","not reported","not reported","2016-05-16T11:09:10.466910-05:00","c64.9","stage ii",15086,"alive","8317/3",NA,NA,3935,NA,NA,"4e3a4652-2a97-57db-9ef4-b3deadd20cbd","not reported","c64.9",-15086,"not reported","not reported","c64.9",NA,NA,NA,"2016-05-16T11:09:10.466910-05:00",NA,NA,NA,NA,NA,NA,NA,"59b6162a-eeeb-5171-a598-5c02445af899","2016-05-16T11:09:10.466910-05:00",NA,"female",NA,1961,"white","dc880a30-e818-538d-a280-5237bcc939b0","not reported",NA,"TCGA-KN-8418",NA,"Kidney Chromophobe",TRUE,"legacy","Kidney","TCGA-KICH","Kidney Chromophobe","TCGA-KN-8418","YES","YES","Kidney","FEMALE",41,"WHITE","[Not Evaluated]",2002,"No","No","Kidney Chromophobe","Right","[Not Available]","N0","T2","Stage II","TUMOR FREE","LIVING","3473","[Not Available]","0","[Not Evaluated]","[Not Evaluated]","Classic","[Not Evaluated]","Low","Elevated","Normal","Normal","","classic",""
"TCGA-KN-8426-11A-01R-2315-07","TCGA-KN-8426-11A","TCGA-KN-8426","TCGA-KN-8426-11A-01R-2315-07","NT","Solid Tissue Normal","not reported","not reported","2016-05-16T11:09:44.242074-05:00","c64.9","stage iv",18345,"alive","8317/3",NA,NA,108,NA,NA,"a3448036-bb68-5646-8cda-d2665f31acd3","not reported","c64.9",-18345,"not reported","not reported","c64.9",NA,NA,NA,"2016-05-16T11:09:44.242074-05:00",NA,NA,NA,NA,NA,NA,NA,"6d451fa9-6ea1-5d5e-98d2-3e81b5f9c0b4","2016-05-16T11:09:44.242074-05:00",NA,"male",NA,1956,"white","bb7024da-76df-56c2-abc2-1ff39b9f8429","not reported",NA,"TCGA-KN-8426",NA,"Kidney Chromophobe",TRUE,"legacy","Kidney","TCGA-KICH","Kidney Chromophobe",NA,NA,NA,NA,NA,NA,NA,NA,NA,NA,NA,NA,NA,NA,NA,NA,NA,NA,NA,NA,NA,NA,NA,NA,NA,NA,NA,NA,NA,NA,NA,NA,NA
"TCGA-KO-8414-01A-11R-2315-07","TCGA-KO-8414-01A","TCGA-KO-8414","TCGA-KO-8414-01A-11R-2315-07","TP","Primary solid Tumor","not reported","not reported","2016-05-16T11:09:25.097487-05:00","c64.9","stage ii",18502,"alive","8317/3",NA,NA,3212,NA,NA,"b61a04d5-dc70-5767-9072-3202a97f95d1","not reported","c64.9",-18502,"not reported","not reported","c64.9",NA,NA,NA,"2016-05-16T11:09:25.097487-05:00",NA,NA,NA,NA,NA,NA,NA,"d86ada7e-df06-58fe-ba14-66d1ea2b31ef","2016-05-16T11:09:25.097487-05:00",NA,"female",NA,1956,"white","0c0acac4-e720-53ca-88c1-7814b4de80b0","not hispanic or latino",NA,"TCGA-KO-8414",NA,"Kidney Chromophobe",TRUE,"legacy","Kidney","TCGA-KICH","Kidney Chromophobe","TCGA-KO-8414","YES","NO","Kidney","FEMALE",50,"WHITE","NOT HISPANIC OR LATINO",2006,"No","No","Kidney Chromophobe","Left","M0","N0","T2","Stage II","TUMOR FREE","LIVING","2368","[Not Available]","0","[Not Available]","[Not Available]","Classic","NO","[Not Available]","[Not Available]","[Not Available]","[Not Available]","","classic",""
"TCGA-KO-8416-01A-11R-2315-07","TCGA-KO-8416-01A","TCGA-KO-8416","TCGA-KO-8416-01A-11R-2315-07","TP","Primary solid Tumor","not reported","not reported","2016-05-16T11:09:20.866277-05:00","c64.9","stage iii",15261,"alive","8317/3",NA,NA,2752,NA,NA,"9e8772c0-6087-5e8f-b36d-bc93cc45ac5a","not reported","c64.9",-15261,"not reported","not reported","c64.9",NA,1.47945205479452,NA,"2016-05-16T11:09:20.866277-05:00",NA,NA,NA,NA,NA,NA,NA,"7a63c6bc-709d-508d-846d-b994e54378af","2016-05-16T11:09:20.866277-05:00",NA,"male",NA,1966,"white","5e1bb630-817e-59cc-b327-f9763de8f233","not hispanic or latino",NA,"TCGA-KO-8416",NA,"Kidney Chromophobe",TRUE,"legacy","Kidney","TCGA-KICH","Kidney Chromophobe","TCGA-KO-8416","NO","YES","Kidney","MALE",41,"WHITE","NOT HISPANIC OR LATINO",2007,"No","No","Kidney Chromophobe","Right","M0","N0","T3a","Stage III","TUMOR FREE","LIVING","1873","[Not Available]","[Not Available]","[Not Available]","[Not Available]","Classic","NO","[Not Available]","[Not Available]","[Not Available]","[Not Available]","","classic","p16 silencing"
"TCGA-KN-8437-11A-01R-2315-07","TCGA-KN-8437-11A","TCGA-KN-8437","TCGA-KN-8437-11A-01R-2315-07","NT","Solid Tissue Normal","not reported","not reported","2016-05-16T11:09:12.950261-05:00","c64.9","stage i",15475,"alive","8317/3",NA,NA,3068,NA,NA,"0ff5216e-0c29-5715-8359-ff3db4fd3bbb","not reported","c64.9",-15475,"not reported","not reported","c64.9",NA,NA,NA,"2016-05-16T11:09:12.950261-05:00",NA,NA,NA,NA,NA,NA,NA,"8f0e0e7d-aeeb-55f5-9759-c1be00bd5747","2016-05-16T11:09:12.950261-05:00",NA,"female",NA,1964,"white","474c3de6-d830-5684-9ec8-bc0b6c82a044","not hispanic or latino",NA,"TCGA-KN-8437",NA,"Kidney Chromophobe",TRUE,"legacy","Kidney","TCGA-KICH","Kidney Chromophobe",NA,NA,NA,NA,NA,NA,NA,NA,NA,NA,NA,NA,NA,NA,NA,NA,NA,NA,NA,NA,NA,NA,NA,NA,NA,NA,NA,NA,NA,NA,NA,NA,NA
"TCGA-KN-8423-01A-11R-2315-07","TCGA-KN-8423-01A","TCGA-KN-8423","TCGA-KN-8423-01A-11R-2315-07","TP","Primary solid Tumor","not reported","not reported","2016-05-16T11:09:29.102571-05:00","c64.9","stage i",16335,"alive","8317/3",NA,NA,788,NA,NA,"40aaebad-3dea-5075-983e-08dfe735dc60","not reported","c64.9",-16335,"not reported","not reported","c64.9",NA,NA,NA,"2016-05-16T11:09:29.102571-05:00",NA,NA,NA,NA,NA,NA,NA,"3cd8e57a-ad16-55cc-9f64-b5c2b4659ff4","2016-05-16T11:09:29.102571-05:00",NA,"male",NA,1961,"white","e03bc099-e466-5fe8-86a8-a7c0ac223bf0","not hispanic or latino",NA,"TCGA-KN-8423",NA,"Kidney Chromophobe",TRUE,"legacy","Kidney","TCGA-KICH","Kidney Chromophobe","TCGA-KN-8423","YES","NO","Kidney","MALE",44,"WHITE","NOT HISPANIC OR LATINO",2005,"No","No","Kidney Chromophobe","Left","[Not Available]","N0","T1b","Stage I","TUMOR FREE","LIVING","788","[Not Available]","0","[Not Evaluated]","[Unknown]","Classic","[Not Evaluated]","Low","Elevated","Low","Normal","","classic",""
"TCGA-KO-8409-01A-11R-2315-07","TCGA-KO-8409-01A","TCGA-KO-8409","TCGA-KO-8409-01A-11R-2315-07","TP","Primary solid Tumor","not reported","not reported","2016-05-16T11:09:42.561215-05:00","c64.9","stage ii",25419,"alive","8317/3",NA,NA,3180,NA,NA,"997ede99-4925-5e1b-b0b9-b228b1a4eaf7","not reported","c64.9",-25419,"not reported","not reported","c64.9",NA,0.164383561643836,NA,"2016-05-16T11:09:42.561215-05:00",NA,NA,NA,6,NA,NA,NA,"15fb789e-c9f6-59b1-829f-3cc167ff63e7","2016-05-16T11:09:42.561215-05:00",NA,"male",NA,1935,"white","b4f7c3b9-5819-5e2e-9989-e292ce25aa0f","not hispanic or latino",NA,"TCGA-KO-8409",NA,"Kidney Chromophobe",TRUE,"legacy","Kidney","TCGA-KICH","Kidney Chromophobe","TCGA-KO-8409","YES","YES","Kidney","MALE",69,"WHITE","NOT HISPANIC OR LATINO",2004,"No","No","Kidney Chromophobe","Left","M0","N0","T2b","Stage II","TUMOR FREE","LIVING","2445","[Not Available]","0","[Not Available]","[Not Available]","Eosinophilic","NO","[Not Available]","[Not Available]","[Not Available]","[Not Available]","","classic",""
"TCGA-KN-8433-01A-11R-2315-07","TCGA-KN-8433-01A","TCGA-KN-8433","TCGA-KN-8433-01A-11R-2315-07","TP","Primary solid Tumor","not reported","not reported","2016-05-16T11:09:31.666411-05:00","c64.9","stage iii",17108,"alive","8317/3",NA,NA,341,NA,NA,"e088997d-f698-55da-9ffd-e3df6ad59f70","not reported","c64.9",-17108,"not reported","not reported","c64.9",NA,1.31506849315068,NA,"2016-05-16T11:09:31.666411-05:00",NA,NA,NA,NA,NA,NA,NA,"9511d2c4-9a60-5344-8e82-cfd88a42f568","2016-05-16T11:09:31.666411-05:00",NA,"female",NA,1962,"white","8e43112a-1b72-50c3-aeaa-f4fb61857d76","not hispanic or latino",NA,"TCGA-KN-8433",NA,"Kidney Chromophobe",TRUE,"legacy","Kidney","TCGA-KICH","Kidney Chromophobe","TCGA-KN-8433","YES","NO","Kidney","FEMALE",46,"WHITE","NOT HISPANIC OR LATINO",2008,"No","No","Kidney Chromophobe","Left","[Not Available]","NX","T3a","Stage III","TUMOR FREE","LIVING","341","[Not Available]","[Not Available]","[Not Evaluated]","[Not Evaluated]","Classic","[Not Evaluated]","[Not Evaluated]","Normal","Normal","Normal","","classic",""
"TCGA-KN-8433-11A-01R-2315-07","TCGA-KN-8433-11A","TCGA-KN-8433","TCGA-KN-8433-11A-01R-2315-07","NT","Solid Tissue Normal","not reported","not reported","2016-05-16T11:09:31.666411-05:00","c64.9","stage iii",17108,"alive","8317/3",NA,NA,341,NA,NA,"e088997d-f698-55da-9ffd-e3df6ad59f70","not reported","c64.9",-17108,"not reported","not reported","c64.9",NA,1.31506849315068,NA,"2016-05-16T11:09:31.666411-05:00",NA,NA,NA,NA,NA,NA,NA,"9511d2c4-9a60-5344-8e82-cfd88a42f568","2016-05-16T11:09:31.666411-05:00",NA,"female",NA,1962,"white","8e43112a-1b72-50c3-aeaa-f4fb61857d76","not hispanic or latino",NA,"TCGA-KN-8433",NA,"Kidney Chromophobe",TRUE,"legacy","Kidney","TCGA-KICH","Kidney Chromophobe",NA,NA,NA,NA,NA,NA,NA,NA,NA,NA,NA,NA,NA,NA,NA,NA,NA,NA,NA,NA,NA,NA,NA,NA,NA,NA,NA,NA,NA,NA,NA,NA,NA
"TCGA-KL-8329-01A-11R-2315-07","TCGA-KL-8329-01A","TCGA-KL-8329","TCGA-KL-8329-01A-11R-2315-07","TP","Primary solid Tumor","not reported","not reported","2016-05-16T11:09:38.925903-05:00","c64.9","stage i",20972,"alive","8317/3",NA,NA,2752,NA,NA,"7c96a7e8-b4ce-5c3f-8cfb-2bddca72c184","not reported","c64.9",-20972,"not reported","not reported","c64.9",NA,NA,NA,"2016-05-16T11:09:38.925903-05:00",NA,NA,NA,NA,NA,NA,NA,"9c8a7e8a-ca84-5f20-b72f-a75b864a1b00","2016-05-16T11:09:38.925903-05:00",NA,"female",NA,1946,"asian","9e272d21-d5a5-5b52-8116-425eb74cdb33","not reported",NA,"TCGA-KL-8329",NA,"Kidney Chromophobe",TRUE,"legacy","Kidney","TCGA-KICH","Kidney Chromophobe","TCGA-KL-8329","YES","NO","Kidney","FEMALE",57,"ASIAN","[Not Evaluated]",2003,"No","No","Kidney Chromophobe","Left","M0","N0","T1b","Stage I","TUMOR FREE","LIVING","2752","[Not Available]","0","[Not Available]","[Not Evaluated]","Classic","[Not Available]","Low","Elevated","Low","Normal","","classic",""
"TCGA-KO-8415-01A-11R-2315-07","TCGA-KO-8415-01A","TCGA-KO-8415","TCGA-KO-8415-01A-11R-2315-07","TP","Primary solid Tumor","not reported","not reported","2016-05-16T11:09:48.338668-05:00","c64.9","stage i",16395,"alive","8317/3",NA,NA,2939,NA,NA,"623b0d52-7a09-5f70-963f-431b8f39af49","not reported","c64.9",-16395,"not reported","not reported","c64.9",NA,NA,NA,"2016-05-16T11:09:48.338668-05:00",NA,NA,NA,NA,NA,NA,NA,"48bd27af-09de-5677-a11e-2de6cd4a7d0d","2016-05-16T11:09:48.338668-05:00",NA,"female",NA,1963,"white","d0a99c1e-1891-5efb-9f1e-6f44e7088255","hispanic or latino",NA,"TCGA-KO-8415",NA,"Kidney Chromophobe",TRUE,"legacy","Kidney","TCGA-KICH","Kidney Chromophobe","TCGA-KO-8415","YES","NO","Kidney","FEMALE",44,"WHITE","HISPANIC OR LATINO",2007,"No","No","Kidney Chromophobe","Right","M0","N0","T1","Stage I","TUMOR FREE","LIVING","1739","[Not Available]","[Not Available]","[Not Available]","[Not Available]","Classic","NO","[Not Available]","[Not Available]","[Not Available]","[Not Available]","","classic",""
"TCGA-KO-8408-01A-11R-2315-07","TCGA-KO-8408-01A","TCGA-KO-8408","TCGA-KO-8408-01A-11R-2315-07","TP","Primary solid Tumor","not reported","not reported","2016-05-16T11:09:26.353842-05:00","c64.9","stage iii",17299,"dead","8317/3",507,NA,NA,NA,NA,"ac43a46f-46ce-576d-948a-da62930ed015","not reported","c64.9",-17299,"not reported","not reported","c64.9",NA,4.10958904109589,NA,"2016-05-16T11:09:26.353842-05:00",NA,NA,NA,NA,NA,NA,NA,"acbb72a3-f475-5b9d-a1be-b363de3f84cd","2016-05-16T11:09:26.353842-05:00",NA,"male",NA,1957,"white","de8e496a-1ba4-5430-b16b-542e8dd213a1","not hispanic or latino",2005,"TCGA-KO-8408",NA,"Kidney Chromophobe",TRUE,"legacy","Kidney","TCGA-KICH","Kidney Chromophobe","TCGA-KO-8408","YES","NO","Kidney","MALE",47,"WHITE","NOT HISPANIC OR LATINO",2004,"No","No","Kidney Chromophobe","Left","[Not Available]","N1","T3a","Stage III","TUMOR FREE","DECEASED","507","46","3","[Not Available]","[Not Available]","Eosinophilic","NO","[Not Available]","[Not Available]","[Not Available]","[Not Available]","","classic","p16 silencing"
"TCGA-KL-8324-11A-01R-2315-07","TCGA-KL-8324-11A","TCGA-KL-8324","TCGA-KL-8324-11A-01R-2315-07","NT","Solid Tissue Normal","not reported","not reported","2016-05-16T11:09:38.256265-05:00","c64.9","stage ii",24650,"alive","8317/3",NA,NA,4676,NA,NA,"bd13aa04-1e08-5c40-b130-803ab3d64fa8","not reported","c64.9",-24650,"not reported","not reported","c64.9",NA,0.0547945205479452,NA,"2016-05-16T11:09:38.256265-05:00",NA,NA,NA,NA,NA,NA,NA,"4c86adb6-511d-55da-8cd7-6f0a068783a7","2016-05-16T11:09:38.256265-05:00",NA,"female",NA,1933,"white","18b930c7-fd9f-53f2-9127-5fe976fadf61","not reported",NA,"TCGA-KL-8324",NA,"Kidney Chromophobe",TRUE,"legacy","Kidney","TCGA-KICH","Kidney Chromophobe",NA,NA,NA,NA,NA,NA,NA,NA,NA,NA,NA,NA,NA,NA,NA,NA,NA,NA,NA,NA,NA,NA,NA,NA,NA,NA,NA,NA,NA,NA,NA,NA,NA
"TCGA-KN-8424-01A-11R-2315-07","TCGA-KN-8424-01A","TCGA-KN-8424","TCGA-KN-8424-01A-11R-2315-07","TP","Primary solid Tumor","not reported","not reported","2016-05-16T11:09:43.688011-05:00","c64.9","stage i",15384,"alive","8317/3",NA,NA,1983,NA,NA,"6d0b124d-2f97-5375-b38b-e1d984ef0832","not reported","c64.9",-15384,"not reported","not reported","c64.9",NA,NA,NA,"2016-05-16T11:09:43.688011-05:00",NA,NA,NA,NA,NA,NA,NA,"ba28d706-260f-5b3a-a904-82d3a0180421","2016-05-16T11:09:43.688011-05:00",NA,"female",NA,1963,"white","d7f364af-8f2c-57d2-a07e-2fff2fe8d8cb","not reported",NA,"TCGA-KN-8424",NA,"Kidney Chromophobe",TRUE,"legacy","Kidney","TCGA-KICH","Kidney Chromophobe","TCGA-KN-8424","NO","YES","Kidney","FEMALE",42,"WHITE","[Not Evaluated]",2005,"No","No","Kidney Chromophobe","Right","[Not Available]","N0","T1b","Stage I","TUMOR FREE","LIVING","1983","[Not Available]","[Not Available]","[Not Evaluated]","[Not Evaluated]","Classic","[Not Evaluated]","Low","Elevated","Normal","Normal","","classic",""
"TCGA-KN-8419-11A-01R-2315-07","TCGA-KN-8419-11A","TCGA-KN-8419","TCGA-KN-8419-11A-01R-2315-07","NT","Solid Tissue Normal","not reported","not reported","2016-05-16T11:09:09.036009-05:00","c64.9","stage ii",15769,"alive","8317/3",NA,NA,714,NA,NA,"6f9c39ed-9029-5827-ac4b-3877f1bfef74","not reported","c64.9",-15769,"not reported","not reported","c64.9",NA,NA,NA,"2016-05-16T11:09:09.036009-05:00",NA,NA,NA,NA,NA,NA,NA,"e6ae06ff-024a-5b25-a4cc-6eb7d88aa884","2016-05-16T11:09:09.036009-05:00",NA,"male",NA,1961,"black or african american","bc6ac3db-0650-5f90-9d04-fc2a9ebeb1a2","not hispanic or latino",NA,"TCGA-KN-8419",NA,"Kidney Chromophobe",TRUE,"legacy","Kidney","TCGA-KICH","Kidney Chromophobe",NA,NA,NA,NA,NA,NA,NA,NA,NA,NA,NA,NA,NA,NA,NA,NA,NA,NA,NA,NA,NA,NA,NA,NA,NA,NA,NA,NA,NA,NA,NA,NA,NA
"TCGA-KO-8405-01A-11R-2315-07","TCGA-KO-8405-01A","TCGA-KO-8405","TCGA-KO-8405-01A-11R-2315-07","TP","Primary solid Tumor","not reported","not reported","2016-05-16T11:09:32.994667-05:00","c64.9","stage iii",10671,"alive","8317/3",NA,NA,3056,NA,NA,"ebaa8140-9f9d-5b23-b928-062476ee0d35","not reported","c64.9",-10671,"not reported","not reported","c64.9",NA,NA,NA,"2016-05-16T11:09:32.994667-05:00",NA,NA,NA,NA,NA,NA,NA,"683cf0f0-bc01-5de8-a5b1-f0897712c380","2016-05-16T11:09:32.994667-05:00",NA,"male",NA,1976,"white","af0c7919-9a6e-5ba6-b8ec-ad6d7d3c8b39","hispanic or latino",NA,"TCGA-KO-8405",NA,"Kidney Chromophobe",TRUE,"legacy","Kidney","TCGA-KICH","Kidney Chromophobe","TCGA-KO-8405","YES","YES","Kidney","MALE",29,"WHITE","HISPANIC OR LATINO",2005,"No","No","Kidney Chromophobe","Left","M0","N0","T3a","Stage III","TUMOR FREE","LIVING","2279","[Not Available]","0","[Not Available]","[Not Available]","Classic","NO","[Not Available]","[Not Available]","[Not Available]","[Not Available]","","classic",""
"TCGA-KO-8406-01A-11R-2315-07","TCGA-KO-8406-01A","TCGA-KO-8406","TCGA-KO-8406-01A-11R-2315-07","TP","Primary solid Tumor","not reported","not reported","2016-05-16T11:09:18.931735-05:00","c64.9","stage i",6556,"alive","8317/3",NA,NA,3145,NA,NA,"4ad381e3-afd8-592f-b924-49be7b320e79","not reported","c64.9",-6556,"not reported","not reported","c64.9",NA,NA,NA,"2016-05-16T11:09:18.931735-05:00",NA,NA,NA,NA,NA,NA,NA,"13b6fda3-fb2f-51bc-aaac-6c3d2f7b2221","2016-05-16T11:09:18.931735-05:00",NA,"female",NA,1988,"white","a26d498c-23fd-511c-9a7a-6911d5cdfcec","not hispanic or latino",NA,"TCGA-KO-8406",NA,"Kidney Chromophobe",TRUE,"legacy","Kidney","TCGA-KICH","Kidney Chromophobe","TCGA-KO-8406","YES","YES","Kidney","FEMALE",17,"WHITE","NOT HISPANIC OR LATINO",2005,"No","No","Kidney Chromophobe","Right","M0","N0","T1","Stage I","TUMOR FREE","LIVING","2404","[Not Available]","[Not Available]","[Not Available]","[Not Available]","Classic","NO","[Not Available]","[Not Available]","[Not Available]","[Not Available]","","classic",""
"TCGA-KL-8324-01A-11R-2315-07","TCGA-KL-8324-01A","TCGA-KL-8324","TCGA-KL-8324-01A-11R-2315-07","TP","Primary solid Tumor","not reported","not reported","2016-05-16T11:09:38.256265-05:00","c64.9","stage ii",24650,"alive","8317/3",NA,NA,4676,NA,NA,"bd13aa04-1e08-5c40-b130-803ab3d64fa8","not reported","c64.9",-24650,"not reported","not reported","c64.9",NA,0.0547945205479452,NA,"2016-05-16T11:09:38.256265-05:00",NA,NA,NA,NA,NA,NA,NA,"4c86adb6-511d-55da-8cd7-6f0a068783a7","2016-05-16T11:09:38.256265-05:00",NA,"female",NA,1933,"white","18b930c7-fd9f-53f2-9127-5fe976fadf61","not reported",NA,"TCGA-KL-8324",NA,"Kidney Chromophobe",TRUE,"legacy","Kidney","TCGA-KICH","Kidney Chromophobe","TCGA-KL-8324","YES","NO","Kidney","FEMALE",67,"WHITE","[Not Evaluated]",2000,"No","No","Kidney Chromophobe","Right","M0","NX","T2","Stage II","TUMOR FREE","LIVING","4311","[Not Available]","[Not Available]","[Not Available]","[Not Evaluated]","Classic","[Not Available]","Low","Normal","Normal","Normal","","classic",""
"TCGA-KL-8330-01A-11R-2315-07","TCGA-KL-8330-01A","TCGA-KL-8330","TCGA-KL-8330-01A-11R-2315-07","TP","Primary solid Tumor","not reported","not reported","2016-05-16T11:09:30.201649-05:00","c64.9","stage ii",16250,"alive","8317/3",NA,NA,3304,NA,NA,"440dc429-df7d-5951-8222-875144608086","not reported","c64.9",-16250,"not reported","not reported","c64.9",NA,1.91780821917808,NA,"2016-05-16T11:09:30.201649-05:00",NA,NA,NA,NA,NA,NA,NA,"2a3a9edf-dd51-5c2f-8c65-702dcbacd925","2016-05-16T11:09:30.201649-05:00",NA,"female",NA,1959,"black or african american","018a818e-08f8-5f8a-a83b-080721cf4eea","not hispanic or latino",NA,"TCGA-KL-8330",NA,"Kidney Chromophobe",TRUE,"legacy","Kidney","TCGA-KICH","Kidney Chromophobe","TCGA-KL-8330","YES","YES","Kidney","FEMALE",44,"BLACK OR AFRICAN AMERICAN","NOT HISPANIC OR LATINO",2003,"No","No","Kidney Chromophobe","Right","M0","N0","T2b","Stage II","TUMOR FREE","LIVING","3304","[Not Available]","0","[Not Available]","[Not Evaluated]","Eosinophilic","[Not Available]","Low","Elevated","Low","Elevated","","classic",""
"TCGA-KL-8327-01A-11R-2315-07","TCGA-KL-8327-01A","TCGA-KL-8327","TCGA-KL-8327-01A-11R-2315-07","TP","Primary solid Tumor","not reported","not reported","2016-05-16T11:09:14.810283-05:00","c64.9","stage i",17121,"alive","8317/3",NA,NA,4169,NA,NA,"da94b1a6-70a5-5028-8cd9-64f9a7eebcbe","not reported","c64.9",-17121,"not reported","not reported","c64.9",NA,NA,NA,"2016-05-16T11:09:14.810283-05:00",NA,NA,NA,NA,NA,NA,NA,"219ad471-2a11-51ab-b2c4-2f109f63ecb9","2016-05-16T11:09:14.810283-05:00",NA,"female",NA,1955,"white","8c55f6e5-9a81-581b-ba3e-8dae00d0cf02","not reported",NA,"TCGA-KL-8327",NA,"Kidney Chromophobe",TRUE,"legacy","Kidney","TCGA-KICH","Kidney Chromophobe","TCGA-KL-8327","YES","YES","Kidney","FEMALE",46,"WHITE","[Not Evaluated]",2001,"No","No","Kidney Chromophobe","Right","M0","N0","T1b","Stage I","TUMOR FREE","LIVING","4169","[Not Available]","0","[Not Available]","[Not Evaluated]","Classic","[Not Available]","Low","Elevated","Low","Normal","","classic",""
"TCGA-KL-8339-01A-11R-2315-07","TCGA-KL-8339-01A","TCGA-KL-8339","TCGA-KL-8339-01A-11R-2315-07","TP","Primary solid Tumor","not reported","not reported","2016-05-16T11:09:27.557538-05:00","c64.9","stage iv",24545,"dead","8317/3",855,NA,NA,NA,NA,"8a057deb-7f70-5827-a771-61e9f1c1b6ed","not reported","c64.9",-24545,"not reported","not reported","c64.9",NA,NA,NA,"2016-05-16T11:09:27.557538-05:00",NA,NA,NA,NA,NA,NA,NA,"32a496b2-1057-54b0-bf03-852aed29a772","2016-05-16T11:09:27.557538-05:00",NA,"male",NA,1939,"white","57bd6f59-4a6a-5e46-b544-11765271d600","not reported",2008,"TCGA-KL-8339",NA,"Kidney Chromophobe",TRUE,"legacy","Kidney","TCGA-KICH","Kidney Chromophobe","TCGA-KL-8339","YES","NO","Kidney","MALE",67,"WHITE","[Unknown]",2006,"Yes, History of Prior Malignancy","No","Kidney Chromophobe","Left","M1","N1","T3a","Stage IV","WITH TUMOR","DECEASED","854","63","1","[Not Available]","[Not Evaluated]","Eosinophilic","[Not Available]","Low","Elevated","Low","Normal","","classic","p16 silencing"
"TCGA-KM-8443-01A-11R-2315-07","TCGA-KM-8443-01A","TCGA-KM-8443","TCGA-KM-8443-01A-11R-2315-07","TP","Primary solid Tumor","not reported","not reported","2016-05-16T11:09:13.609103-05:00","c64.9","stage ii",21183,"alive","8317/3",NA,NA,1520,NA,NA,"507bb957-93fa-56aa-add5-556e95f87ff3","not reported","c64.9",-21183,"not reported","not reported","c64.9",NA,NA,NA,"2016-05-16T11:09:13.609103-05:00",NA,NA,NA,NA,NA,NA,NA,"b157be3b-56fb-5e65-8200-7aecc57f3e68","2016-05-16T11:09:13.609103-05:00",NA,"male",NA,1952,"white","0e8eb0ea-3156-5d03-af3b-58ec48f3df38","not hispanic or latino",NA,"TCGA-KM-8443",NA,"Kidney Chromophobe",TRUE,"legacy","Kidney","TCGA-KICH","Kidney Chromophobe","TCGA-KM-8443","YES","YES","Kidney","MALE",57,"WHITE","NOT HISPANIC OR LATINO",2009,"No","No","Kidney Chromophobe","Right","MX","N0","T2","Stage II","TUMOR FREE","LIVING","1128","[Not Available]","0","90","Low","Eosinophilic","NO","Elevated","Normal","Normal","Elevated","","classic","p16 silencing, strong kataegis pattern"
"TCGA-KN-8429-01A-11R-2315-07","TCGA-KN-8429-01A","TCGA-KN-8429","TCGA-KN-8429-01A-11R-2315-07","TP","Primary solid Tumor","not reported","not reported","2016-05-16T11:09:35.131879-05:00","c64.9","stage iii",13903,"alive","8317/3",NA,NA,2650,NA,NA,"5112813b-a90c-552d-a59c-788d84dd1047","not reported","c64.9",-13903,"not reported","not reported","c64.9",NA,NA,NA,"2016-05-16T11:09:35.131879-05:00",NA,NA,NA,NA,NA,NA,NA,"38ba8f3c-693d-5abf-851d-48b04be3e7dd","2016-05-16T11:09:35.131879-05:00",NA,"female",NA,1968,"white","68933758-48e4-5c92-a03e-be8522b5f5c3","not reported",NA,"TCGA-KN-8429",NA,"Kidney Chromophobe",TRUE,"legacy","Kidney","TCGA-KICH","Kidney Chromophobe","TCGA-KN-8429","YES","YES","Kidney","FEMALE",38,"WHITE","[Unknown]",2006,"No","No","Kidney Chromophobe","Right","[Not Available]","N0","T3a","Stage III","WITH TUMOR","LIVING","2063","1988","[Not Available]","[Not Evaluated]","[Not Evaluated]","Classic","[Not Evaluated]","Low","Elevated","Low","Normal","","classic",""
"TCGA-KL-8336-11A-01R-2315-07","TCGA-KL-8336-11A","TCGA-KL-8336","TCGA-KL-8336-11A-01R-2315-07","NT","Solid Tissue Normal","not reported","not reported","2016-05-16T11:09:11.041446-05:00","c64.9","stage iv",18821,"dead","8317/3",920,NA,NA,NA,NA,"b39772b5-7cec-5983-b577-fa24c9cd695c","not reported","c64.9",-18821,"not reported","not reported","c64.9",NA,NA,NA,"2016-05-16T11:09:11.041446-05:00",NA,NA,NA,NA,NA,NA,NA,"094a3081-d58b-5207-87e8-39dc54d2ea36","2016-05-16T11:09:11.041446-05:00",NA,"female",NA,1955,"white","19fa9dfd-851d-5ca8-95ac-99aecaea3de0","not reported",2008,"TCGA-KL-8336",NA,"Kidney Chromophobe",TRUE,"legacy","Kidney","TCGA-KICH","Kidney Chromophobe",NA,NA,NA,NA,NA,NA,NA,NA,NA,NA,NA,NA,NA,NA,NA,NA,NA,NA,NA,NA,NA,NA,NA,NA,NA,NA,NA,NA,NA,NA,NA,NA,NA
"TCGA-KL-8323-01A-21R-2315-07","TCGA-KL-8323-01A","TCGA-KL-8323","TCGA-KL-8323-01A-21R-2315-07","TP","Primary solid Tumor","not reported","not reported","2016-05-16T11:09:22.106186-05:00","c64.9","stage iii",20849,"dead","8317/3",1158,NA,NA,NA,NA,"ec106839-9250-5b1c-b6bc-05be84df1a01","not reported","c64.9",-20849,"not reported","not reported","c64.9",NA,NA,NA,"2016-05-16T11:09:22.106186-05:00",NA,NA,NA,NA,NA,NA,NA,"39e96ea3-d964-5793-b57d-7daa199ade03","2016-05-16T11:09:22.106186-05:00",NA,"female",NA,1943,"white","1499f237-16ed-5e7e-97a0-c39a413e4b30","not reported",2003,"TCGA-KL-8323",NA,"Kidney Chromophobe",TRUE,"legacy","Kidney","TCGA-KICH","Kidney Chromophobe","TCGA-KL-8323","NO","YES","Kidney","FEMALE",57,"WHITE","[Not Evaluated]",2000,"No","No","Kidney Chromophobe","Right","M0","NX","T3b","Stage III","WITH TUMOR","DECEASED","1158","761","[Not Available]","[Not Available]","[Not Evaluated]","Classic","[Not Available]","Low","Elevated","Normal","Normal","","classic",""
"TCGA-KN-8425-11A-01R-2315-07","TCGA-KN-8425-11A","TCGA-KN-8425","TCGA-KN-8425-11A-01R-2315-07","NT","Solid Tissue Normal","not reported","not reported","2016-05-16T11:09:30.939367-05:00","c64.9","stage i",19692,"alive","8317/3",NA,NA,3179,NA,NA,"ffcff2f2-c079-5653-bc90-efc430df079b","not reported","c64.9",-19692,"not reported","not reported","c64.9",NA,NA,NA,"2016-05-16T11:09:30.939367-05:00",NA,NA,NA,NA,NA,NA,NA,"dd04a005-6adf-526b-81c4-45b3ddf72b2e","2016-05-16T11:09:30.939367-05:00",NA,"male",NA,1952,"white","44264dd2-1fba-5471-ae09-fb0ed3a610cc","not reported",NA,"TCGA-KN-8425",NA,"Kidney Chromophobe",TRUE,"legacy","Kidney","TCGA-KICH","Kidney Chromophobe",NA,NA,NA,NA,NA,NA,NA,NA,NA,NA,NA,NA,NA,NA,NA,NA,NA,NA,NA,NA,NA,NA,NA,NA,NA,NA,NA,NA,NA,NA,NA,NA,NA
"TCGA-KO-8403-01A-11R-2315-07","TCGA-KO-8403-01A","TCGA-KO-8403","TCGA-KO-8403-01A-11R-2315-07","TP","Primary solid Tumor","not reported","not reported","2016-05-16T11:09:26.862386-05:00","c64.9","stage i",18171,"alive","8317/3",NA,NA,3208,NA,NA,"dcef87ae-be63-586b-802e-95419ba708f9","not reported","c64.9",-18171,"not reported","not reported","c64.9",NA,NA,NA,"2016-05-16T11:09:26.862386-05:00",NA,NA,NA,NA,NA,NA,NA,"ef36f32a-bb74-5a4c-8f45-ac244e3e19aa","2016-05-16T11:09:26.862386-05:00",NA,"male",NA,1956,"white","7c8be500-aa57-590e-8d75-6c3ba6dab490","not hispanic or latino",NA,"TCGA-KO-8403",NA,"Kidney Chromophobe",TRUE,"legacy","Kidney","TCGA-KICH","Kidney Chromophobe","TCGA-KO-8403","YES","NO","Kidney","MALE",49,"WHITE","NOT HISPANIC OR LATINO",2005,"No","No","Kidney Chromophobe","Left","[Not Available]","NX","T1a","Stage I","TUMOR FREE","LIVING","2339","[Not Available]","[Not Available]","[Not Available]","[Not Evaluated]","Classic","NO","[Not Evaluated]","Normal","Normal","Normal","","classic",""
"TCGA-KL-8345-01A-11R-2315-07","TCGA-KL-8345-01A","TCGA-KL-8345","TCGA-KL-8345-01A-11R-2315-07","TP","Primary solid Tumor","not reported","not reported","2016-05-16T11:09:50.344403-05:00","c64.9","stage iii",27412,"alive","8317/3",NA,NA,1665,NA,NA,"1aec2c2f-1898-5a57-9cf5-a58c2a86c582","not reported","c64.9",-27412,"not reported","not reported","c64.9",NA,0.328767123287671,NA,"2016-05-16T11:09:50.344403-05:00",NA,NA,NA,6,NA,NA,NA,"6d9b6468-1141-5fd9-8494-20745ef68de1","2016-05-16T11:09:50.344403-05:00",NA,"male",NA,1933,"white","018c5098-95b6-51f3-af6e-5c6f7b5f2bd5","not reported",NA,"TCGA-KL-8345",NA,"Kidney Chromophobe",TRUE,"legacy","Kidney","TCGA-KICH","Kidney Chromophobe","TCGA-KL-8345","YES","NO","Kidney","MALE",75,"WHITE","[Not Evaluated]",2008,"No","No","Kidney Chromophobe","Right","M0","N0","T3a","Stage III","TUMOR FREE","LIVING","1664","[Not Available]","0","[Not Available]","[Not Evaluated]","Classic","[Not Available]","Low","Elevated","Low","Normal","","classic",""
"TCGA-KL-8341-01A-11R-2315-07","TCGA-KL-8341-01A","TCGA-KL-8341","TCGA-KL-8341-01A-11R-2315-07","TP","Primary solid Tumor","not reported","not reported","2016-05-16T11:09:28.555656-05:00","c64.9","stage iv",15045,"dead","8317/3",754,NA,NA,NA,NA,"5388b79f-b6fc-5e9d-b915-c21fab69a105","not reported","c64.9",-15045,"not reported","not reported","c64.9",NA,0.547945205479452,NA,"2016-05-16T11:09:28.555656-05:00",NA,NA,NA,20,NA,NA,NA,"99b7a6d9-0b6f-57ea-913a-a4a7c0730eb9","2016-05-16T11:09:28.555656-05:00",NA,"male",NA,1965,"asian","453f9c94-8289-5aaf-880e-7577fcd7a2ae","not reported",2008,"TCGA-KL-8341",NA,"Kidney Chromophobe",TRUE,"legacy","Kidney","TCGA-KICH","Kidney Chromophobe","TCGA-KL-8341","YES","YES","Kidney","MALE",41,"ASIAN","[Not Evaluated]",2006,"No","No","Kidney Chromophobe","Left","M0","N2","T3b","Stage IV","WITH TUMOR","DECEASED","754","174","2","[Not Available]","[Not Evaluated]","Classic","[Not Available]","Low","Normal","Low","Normal","","classic","Strong kataegis pattern"
"TCGA-KL-8333-01A-11R-2315-07","TCGA-KL-8333-01A","TCGA-KL-8333","TCGA-KL-8333-01A-11R-2315-07","TP","Primary solid Tumor","not reported","not reported","2016-05-16T11:09:37.726022-05:00","c64.9","stage ii",25229,"alive","8317/3",NA,NA,2991,NA,NA,"eed3d58c-bd43-5c7f-be70-ee9cb023898d","not reported","c64.9",-25229,"not reported","not reported","c64.9",NA,NA,NA,"2016-05-16T11:09:37.726022-05:00",NA,NA,NA,NA,NA,NA,NA,"50424d1f-9e19-5da1-8a19-abdf4690eb49","2016-05-16T11:09:37.726022-05:00",NA,"male",NA,1936,"white","e500aa5e-bbd2-5416-9a83-20a50037de2b","not reported",NA,"TCGA-KL-8333",NA,"Kidney Chromophobe",TRUE,"legacy","Kidney","TCGA-KICH","Kidney Chromophobe","TCGA-KL-8333","YES","YES","Kidney","MALE",69,"WHITE","[Not Evaluated]",2005,"No","No","Kidney Chromophobe","Left","M0","N0","T2","Stage II","TUMOR FREE","LIVING","2990","[Not Available]","0","[Not Available]","[Not Evaluated]","Classic","[Not Available]","Low","Elevated","Normal","Normal","","classic",""
"TCGA-KN-8434-11A-01R-2315-07","TCGA-KN-8434-11A","TCGA-KN-8434","TCGA-KN-8434-11A-01R-2315-07","NT","Solid Tissue Normal","not reported","not reported","2016-05-16T11:09:18.342999-05:00","c64.9","stage ii",23934,"alive","8317/3",NA,NA,1797,NA,NA,"a8c61f40-2a91-5893-8ea8-caf416c4ef17","not reported","c64.9",-23934,"not reported","not reported","c64.9",NA,NA,NA,"2016-05-16T11:09:18.342999-05:00",NA,NA,NA,NA,NA,NA,NA,"48925609-aa2c-597f-8ed8-0316128e3c53","2016-05-16T11:09:18.342999-05:00",NA,"female",NA,1944,"white","58fe198e-1dd3-5047-bd9e-f9ab6d831278","not hispanic or latino",NA,"TCGA-KN-8434",NA,"Kidney Chromophobe",TRUE,"legacy","Kidney","TCGA-KICH","Kidney Chromophobe",NA,NA,NA,NA,NA,NA,NA,NA,NA,NA,NA,NA,NA,NA,NA,NA,NA,NA,NA,NA,NA,NA,NA,NA,NA,NA,NA,NA,NA,NA,NA,NA,NA
"TCGA-KL-8328-01A-11R-2315-07","TCGA-KL-8328-01A","TCGA-KL-8328","TCGA-KL-8328-01A-11R-2315-07","TP","Primary solid Tumor","not reported","not reported","2016-05-16T11:09:20.098480-05:00","c64.9","stage ii",21976,"alive","8317/3",NA,NA,3127,NA,NA,"963718f4-b1fe-5c53-aa99-cfa3645a6157","not reported","c64.9",-21976,"not reported","not reported","c64.9",NA,NA,NA,"2016-05-16T11:09:20.098480-05:00",NA,NA,NA,NA,NA,NA,NA,"cc53bcac-15fa-53ba-9234-789d2610904c","2016-05-16T11:09:20.098480-05:00",NA,"male",NA,1943,"white","43e673ed-051b-5131-8d62-67e6e246dbd8","not reported",NA,"TCGA-KL-8328",NA,"Kidney Chromophobe",TRUE,"legacy","Kidney","TCGA-KICH","Kidney Chromophobe","TCGA-KL-8328","YES","YES","Kidney","MALE",60,"WHITE","[Unknown]",2003,"Yes, History of Prior Malignancy","No","Kidney Chromophobe","Left","M0","N0","T2b","Stage II","TUMOR FREE","LIVING","3126","[Not Available]","0","[Not Available]","[Not Evaluated]","Classic","[Not Available]","Low","Normal","Low","Normal","","classic",""
"TCGA-KN-8432-11A-01R-2315-07","TCGA-KN-8432-11A","TCGA-KN-8432","TCGA-KN-8432-11A-01R-2315-07","NT","Solid Tissue Normal","not reported","not reported","2016-05-16T11:09:22.670387-05:00","c64.9","stage ii",31591,"alive","8317/3",NA,NA,76,NA,NA,"433ba9f3-f53e-536b-be05-e324242f7082","not reported","c64.9",-31591,"not reported","not reported","c64.9",NA,NA,NA,"2016-05-16T11:09:22.670387-05:00",NA,NA,NA,NA,NA,NA,NA,"d5587e7f-62c8-551a-a6f7-f5f61cdbe38a","2016-05-16T11:09:22.670387-05:00",NA,"female",NA,1924,"white","4a1d09b8-26df-59c9-9c3b-6bf42842d251","not hispanic or latino",NA,"TCGA-KN-8432",NA,"Kidney Chromophobe",TRUE,"legacy","Kidney","TCGA-KICH","Kidney Chromophobe",NA,NA,NA,NA,NA,NA,NA,NA,NA,NA,NA,NA,NA,NA,NA,NA,NA,NA,NA,NA,NA,NA,NA,NA,NA,NA,NA,NA,NA,NA,NA,NA,NA
"TCGA-KL-8336-01A-11R-2315-07","TCGA-KL-8336-01A","TCGA-KL-8336","TCGA-KL-8336-01A-11R-2315-07","TP","Primary solid Tumor","not reported","not reported","2016-05-16T11:09:11.041446-05:00","c64.9","stage iv",18821,"dead","8317/3",920,NA,NA,NA,NA,"b39772b5-7cec-5983-b577-fa24c9cd695c","not reported","c64.9",-18821,"not reported","not reported","c64.9",NA,NA,NA,"2016-05-16T11:09:11.041446-05:00",NA,NA,NA,NA,NA,NA,NA,"094a3081-d58b-5207-87e8-39dc54d2ea36","2016-05-16T11:09:11.041446-05:00",NA,"female",NA,1955,"white","19fa9dfd-851d-5ca8-95ac-99aecaea3de0","not reported",2008,"TCGA-KL-8336",NA,"Kidney Chromophobe",TRUE,"legacy","Kidney","TCGA-KICH","Kidney Chromophobe","TCGA-KL-8336","YES","NO","Kidney","FEMALE",51,"WHITE","[Not Evaluated]",2006,"No","No","Kidney Chromophobe","Right","M0","N2","T3b","Stage IV","WITH TUMOR","DECEASED","919","47","4","[Not Available]","[Not Evaluated]","Classic","[Not Available]","Low","Normal","Low","Low","","classic",""
"TCGA-KM-8639-01A-11R-2403-07","TCGA-KM-8639-01A","TCGA-KM-8639","TCGA-KM-8639-01A-11R-2403-07","TP","Primary solid Tumor","not reported","not reported","2016-05-16T10:42:56.750062-05:00","c64.9","stage i",24640,"alive","8317/3",NA,NA,953,NA,NA,"2a0a42ff-8798-5604-a4e4-893efeb26fba","not reported","c64.9",-24640,"not reported","not reported","c64.9",NA,1.0958904109589,NA,"2016-05-16T10:42:56.750062-05:00",NA,NA,NA,20,NA,NA,NA,"43a9bc29-5ff9-5dde-bb02-79758c88e29b","2016-05-16T10:42:56.750062-05:00",NA,"male",NA,1938,"white","5da7919e-0acd-5f32-83dc-932395fc5760","not hispanic or latino",NA,"TCGA-KM-8639",NA,"Kidney Chromophobe",TRUE,"legacy","Kidney","TCGA-KICH","Kidney Chromophobe","TCGA-KM-8639","YES","YES","Kidney","MALE",67,"WHITE","NOT HISPANIC OR LATINO",2005,"No","No","Kidney Chromophobe","Right","MX","NX","T1a","Stage I","TUMOR FREE","LIVING","953","[Not Available]","[Not Available]","70","[Not Evaluated]","Eosinophilic","NO","Normal","Normal","Normal","Low","","chr6 gain",""
"TCGA-KL-8343-01A-11R-2315-07","TCGA-KL-8343-01A","TCGA-KL-8343","TCGA-KL-8343-01A-11R-2315-07","TP","Primary solid Tumor","not reported","not reported","2016-05-16T11:09:40.830943-05:00","c64.9","stage iii",26562,"dead","8317/3",2172,NA,1815,NA,NA,"5fdfa708-e34a-5f6d-88b4-c8bbb0ffe32f","not reported","c64.9",-26562,"not reported","not reported","c64.9",NA,NA,NA,"2016-05-16T11:09:40.830943-05:00",NA,NA,NA,NA,NA,NA,NA,"9b317a17-7b50-564c-8d9f-2ceafd296250","2016-05-16T11:09:40.830943-05:00",NA,"male",NA,1935,"white","a4f76b4b-e956-5d2b-bc4e-275f5f9a62c9","not hispanic or latino",NA,"TCGA-KL-8343",NA,"Kidney Chromophobe",TRUE,"legacy","Kidney","TCGA-KICH","Kidney Chromophobe","TCGA-KL-8343","YES","YES","Kidney","MALE",72,"WHITE","NOT HISPANIC OR LATINO",2007,"No","No","Kidney Chromophobe","Right","M0","N0","T3","Stage III","WITH TUMOR","LIVING","2172","[Not Available]","0","[Not Available]","[Not Evaluated]","Eosinophilic","[Not Available]","Low","Elevated","Low","Normal","","mixed",""
"TCGA-KO-8407-01A-11R-2315-07","TCGA-KO-8407-01A","TCGA-KO-8407","TCGA-KO-8407-01A-11R-2315-07","TP","Primary solid Tumor","not reported","not reported","2016-05-16T11:09:16.197752-05:00","c64.9","stage ii",15407,"alive","8317/3",NA,NA,2820,NA,NA,"f75f7b66-d26c-580d-9dfe-8a72d7eeeb2d","not reported","c64.9",-15407,"not reported","not reported","c64.9",NA,NA,NA,"2016-05-16T11:09:16.197752-05:00",NA,NA,NA,NA,NA,NA,NA,"03316bc0-5ea6-5d90-90ed-3a71f3efe384","2016-05-16T11:09:16.197752-05:00",NA,"male",NA,1963,"white","d096ce37-e104-5910-84e7-55afb95e8a0e","not hispanic or latino",NA,"TCGA-KO-8407",NA,"Kidney Chromophobe",TRUE,"legacy","Kidney","TCGA-KICH","Kidney Chromophobe","TCGA-KO-8407","YES","YES","Kidney","MALE",42,"WHITE","NOT HISPANIC OR LATINO",2005,"No","No","Kidney Chromophobe","Left","M0","N0","T2","Stage II","TUMOR FREE","LIVING","2820","[Not Available]","0","[Not Available]","[Not Available]","Classic","NO","[Not Available]","[Not Available]","[Not Available]","[Not Available]","","classic",""
"TCGA-KL-8337-01A-11R-2315-07","TCGA-KL-8337-01A","TCGA-KL-8337","TCGA-KL-8337-01A-11R-2315-07","TP","Primary solid Tumor","not reported","not reported","2016-05-16T11:09:41.926326-05:00","c64.9","stage ii",9819,"alive","8317/3",NA,NA,1364,NA,NA,"0148ed7a-0c34-5a61-98d6-62ac4efacfbb","not reported","c64.9",-9819,"not reported","not reported","c64.9",NA,NA,NA,"2016-05-16T11:09:41.926326-05:00",NA,NA,NA,NA,NA,NA,NA,"a1f79c3a-bc53-5a67-b1f7-a2ba5c979d67","2016-05-16T11:09:41.926326-05:00",NA,"male",NA,1980,"black or african american","7a672e63-3114-53eb-997d-1d9c86d0c27e","not reported",NA,"TCGA-KL-8337",NA,"Kidney Chromophobe",TRUE,"legacy","Kidney","TCGA-KICH","Kidney Chromophobe","TCGA-KL-8337","YES","YES","Kidney","MALE",26,"BLACK OR AFRICAN AMERICAN","[Not Evaluated]",2006,"No","No","Kidney Chromophobe","Right","M0","N0","T2","Stage II","TUMOR FREE","LIVING","1364","[Not Available]","0","[Not Available]","[Not Evaluated]","Classic","[Not Available]","Low","Normal","Low","Normal","","classic",""
"TCGA-KN-8434-01A-11R-2315-07","TCGA-KN-8434-01A","TCGA-KN-8434","TCGA-KN-8434-01A-11R-2315-07","TP","Primary solid Tumor","not reported","not reported","2016-05-16T11:09:18.342999-05:00","c64.9","stage ii",23934,"alive","8317/3",NA,NA,1797,NA,NA,"a8c61f40-2a91-5893-8ea8-caf416c4ef17","not reported","c64.9",-23934,"not reported","not reported","c64.9",NA,NA,NA,"2016-05-16T11:09:18.342999-05:00",NA,NA,NA,NA,NA,NA,NA,"48925609-aa2c-597f-8ed8-0316128e3c53","2016-05-16T11:09:18.342999-05:00",NA,"female",NA,1944,"white","58fe198e-1dd3-5047-bd9e-f9ab6d831278","not hispanic or latino",NA,"TCGA-KN-8434",NA,"Kidney Chromophobe",TRUE,"legacy","Kidney","TCGA-KICH","Kidney Chromophobe","TCGA-KN-8434","YES","YES","Kidney","FEMALE",65,"WHITE","NOT HISPANIC OR LATINO",2009,"No","No","Kidney Chromophobe","Right","[Not Available]","NX","T2","Stage II","TUMOR FREE","LIVING","1124","[Not Available]","[Not Available]","[Not Evaluated]","[Not Evaluated]","Classic","[Not Evaluated]","[Not Evaluated]","Normal","Normal","Normal","","classic",""
"TCGA-KN-8435-11A-01R-2315-07","TCGA-KN-8435-11A","TCGA-KN-8435","TCGA-KN-8435-11A-01R-2315-07","NT","Solid Tissue Normal","not reported","not reported","2016-05-16T11:09:12.219144-05:00","c64.9","stage ii",21891,"alive","8317/3",NA,NA,3498,NA,NA,"c7a2d55a-88ba-5fe8-853e-834a1bc83a3e","not reported","c64.9",-21891,"not reported","not reported","c64.9",NA,NA,NA,"2016-05-16T11:09:12.219144-05:00",NA,NA,NA,NA,NA,NA,NA,"c256f1f5-56dd-5b55-aaf0-d92c2181c226","2016-05-16T11:09:12.219144-05:00",NA,"male",NA,1945,"white","c5e121a9-7420-5329-9cc9-2f80c57bace2","not hispanic or latino",NA,"TCGA-KN-8435",NA,"Kidney Chromophobe",TRUE,"legacy","Kidney","TCGA-KICH","Kidney Chromophobe",NA,NA,NA,NA,NA,NA,NA,NA,NA,NA,NA,NA,NA,NA,NA,NA,NA,NA,NA,NA,NA,NA,NA,NA,NA,NA,NA,NA,NA,NA,NA,NA,NA
"TCGA-KL-8340-01A-11R-2315-07","TCGA-KL-8340-01A","TCGA-KL-8340","TCGA-KL-8340-01A-11R-2315-07","TP","Primary solid Tumor","not reported","not reported","2016-05-16T11:09:35.738300-05:00","c64.9","stage ii",12696,"alive","8317/3",NA,NA,2024,NA,NA,"1d5f38de-a8c0-52db-9be2-89663e6e1c57","not reported","c64.9",-12696,"not reported","not reported","c64.9",NA,NA,NA,"2016-05-16T11:09:35.738300-05:00",NA,NA,NA,NA,NA,NA,NA,"dff37352-b346-5498-bd58-5255e1bb2ed4","2016-05-16T11:09:35.738300-05:00",NA,"male",NA,1972,"white","999bef04-c4b7-5adb-8362-4ed4fa49f69a","not reported",NA,"TCGA-KL-8340",NA,"Kidney Chromophobe",TRUE,"legacy","Kidney","TCGA-KICH","Kidney Chromophobe","TCGA-KL-8340","YES","YES","Kidney","MALE",34,"WHITE","[Not Evaluated]",2006,"No","No","Kidney Chromophobe","Right","M0","N0","T2","Stage II","TUMOR FREE","LIVING","2024","[Not Available]","0","[Not Available]","[Not Evaluated]","Classic","[Not Available]","Normal","Elevated","Normal","Normal","","classic",""
"TCGA-KL-8326-11A-01R-2315-07","TCGA-KL-8326-11A","TCGA-KL-8326","TCGA-KL-8326-11A-01R-2315-07","NT","Solid Tissue Normal","not reported","not reported","2016-05-16T11:09:24.473143-05:00","c64.9","stage iii",25267,"alive","8317/3",NA,NA,3322,NA,NA,"86dd8552-870c-526e-88d9-66b7b7e521ac","not reported","c64.9",-25267,"not reported","not reported","c64.9",NA,NA,NA,"2016-05-16T11:09:24.473143-05:00",NA,NA,NA,NA,NA,NA,NA,"d3420aa3-da36-5c85-8020-2f0b473c0cac","2016-05-16T11:09:24.473143-05:00",NA,"male",NA,1932,"white","2f868b12-d219-55a3-9e74-d8f7049be57c","not reported",NA,"TCGA-KL-8326",NA,"Kidney Chromophobe",TRUE,"legacy","Kidney","TCGA-KICH","Kidney Chromophobe",NA,NA,NA,NA,NA,NA,NA,NA,NA,NA,NA,NA,NA,NA,NA,NA,NA,NA,NA,NA,NA,NA,NA,NA,NA,NA,NA,NA,NA,NA,NA,NA,NA
"TCGA-KM-8440-01A-11R-2315-07","TCGA-KM-8440-01A","TCGA-KM-8440","TCGA-KM-8440-01A-11R-2315-07","TP","Primary solid Tumor","not reported","not reported","2016-05-16T11:09:17.710564-05:00","c64.9","stage iii",13860,"alive","8317/3",NA,NA,1366,NA,NA,"ceeca085-36d4-5251-892b-20a8f5e4366a","not reported","c64.9",-13860,"not reported","not reported","c64.9",NA,NA,NA,"2016-05-16T11:09:17.710564-05:00",NA,NA,NA,NA,NA,NA,NA,"13d88a7c-5d3d-5ded-a42b-c068b8eaa829","2016-05-16T11:09:17.710564-05:00",NA,"male",NA,1972,"black or african american","dd62b42a-c875-5389-b52d-976be4c25758","not hispanic or latino",NA,"TCGA-KM-8440",NA,"Kidney Chromophobe",TRUE,"legacy","Kidney","TCGA-KICH","Kidney Chromophobe","TCGA-KM-8440","NO","YES","Kidney","MALE",37,"BLACK OR AFRICAN AMERICAN","NOT HISPANIC OR LATINO",2009,"No","No","Kidney Chromophobe","Left","MX","NX","T3a","Stage III","TUMOR FREE","LIVING","994","[Not Available]","[Not Available]","90","Normal","Classic","NO","Normal","Normal","Normal","Normal","","classic",""
"TCGA-KO-8410-01A-11R-2315-07","TCGA-KO-8410-01A","TCGA-KO-8410","TCGA-KO-8410-01A-11R-2315-07","TP","Primary solid Tumor","not reported","not reported","2016-05-16T11:09:34.071644-05:00","c64.9","stage i",27084,"alive","8317/3",NA,NA,3136,NA,NA,"8535973d-530c-5cfd-a400-a15b7627fc88","not reported","c64.9",-27084,"not reported","not reported","c64.9",NA,NA,NA,"2016-05-16T11:09:34.071644-05:00",NA,NA,NA,NA,NA,NA,NA,"8cb5f632-61a8-5fc3-913b-8ee994397657","2016-05-16T11:09:34.071644-05:00",NA,"female",NA,1930,"white","d40c34b5-d489-5591-9422-352b53779b54","not hispanic or latino",NA,"TCGA-KO-8410",NA,"Kidney Chromophobe",TRUE,"legacy","Kidney","TCGA-KICH","Kidney Chromophobe","TCGA-KO-8410","YES","YES","Kidney","FEMALE",74,"WHITE","NOT HISPANIC OR LATINO",2004,"No","No","Kidney Chromophobe","Left","M0","N0","T1b","Stage I","TUMOR FREE","LIVING","2670","[Not Available]","0","[Not Available]","[Not Available]","Classic","NO","[Not Available]","[Not Available]","[Not Available]","[Not Available]","","classic",""
"TCGA-KL-8342-01A-11R-2315-07","TCGA-KL-8342-01A","TCGA-KL-8342","TCGA-KL-8342-01A-11R-2315-07","TP","Primary solid Tumor","not reported","not reported","2016-05-16T11:09:32.262251-05:00","c64.9","stage ii",16550,"alive","8317/3",NA,NA,2248,NA,NA,"1ac2fbaf-39fa-58a3-8ea6-40729f842816","not reported","c64.9",-16550,"not reported","not reported","c64.9",NA,NA,NA,"2016-05-16T11:09:32.262251-05:00",NA,NA,NA,NA,NA,NA,NA,"999f52e7-b027-5af5-a48d-bbf04e2dfda6","2016-05-16T11:09:32.262251-05:00",NA,"female",NA,1961,"white","43ba24c9-f71d-5b77-b0f2-809baacfe290","not reported",NA,"TCGA-KL-8342",NA,"Kidney Chromophobe",TRUE,"legacy","Kidney","TCGA-KICH","Kidney Chromophobe","TCGA-KL-8342","NO","YES","Kidney","FEMALE",45,"WHITE","[Not Evaluated]",2006,"No","No","Kidney Chromophobe","Left","M0","N0","T2b","Stage II","TUMOR FREE","LIVING","2248","[Not Available]","0","[Not Available]","[Not Evaluated]","Classic","[Not Available]","Low","Elevated","Low","Normal","","classic",""
"TCGA-KM-8438-01A-11R-2315-07","TCGA-KM-8438-01A","TCGA-KM-8438","TCGA-KM-8438-01A-11R-2315-07","TP","Primary solid Tumor","not reported","not reported","2016-05-16T11:09:08.438779-05:00","c64.9","stage ii",16683,"alive","8317/3",NA,NA,4622,NA,NA,"c76ec683-ba51-51c0-b919-55643908c4da","not reported","c64.9",-16683,"not reported","not reported","c64.9",NA,NA,NA,"2016-05-16T11:09:08.438779-05:00",NA,NA,NA,NA,NA,NA,NA,"f263b460-cf0d-5f77-a14d-b9f7916ecadc","2016-05-16T11:09:08.438779-05:00",NA,"female",NA,1955,"white","a049e96d-e042-5add-b05e-fd63d6bc9e1a","not hispanic or latino",NA,"TCGA-KM-8438",NA,"Kidney Chromophobe",TRUE,"legacy","Kidney","TCGA-KICH","Kidney Chromophobe","TCGA-KM-8438","YES","YES","Kidney","FEMALE",45,"WHITE","NOT HISPANIC OR LATINO",2000,"No","No","Kidney Chromophobe","Left","MX","N0","T2b","Stage II","WITH TUMOR","LIVING","2316","2316","0","80","[Not Available]","Classic","YES","[Not Available]","[Not Available]","[Not Available]","[Not Available]","","classic",""
"TCGA-KN-8429-11A-01R-2315-07","TCGA-KN-8429-11A","TCGA-KN-8429","TCGA-KN-8429-11A-01R-2315-07","NT","Solid Tissue Normal","not reported","not reported","2016-05-16T11:09:35.131879-05:00","c64.9","stage iii",13903,"alive","8317/3",NA,NA,2650,NA,NA,"5112813b-a90c-552d-a59c-788d84dd1047","not reported","c64.9",-13903,"not reported","not reported","c64.9",NA,NA,NA,"2016-05-16T11:09:35.131879-05:00",NA,NA,NA,NA,NA,NA,NA,"38ba8f3c-693d-5abf-851d-48b04be3e7dd","2016-05-16T11:09:35.131879-05:00",NA,"female",NA,1968,"white","68933758-48e4-5c92-a03e-be8522b5f5c3","not reported",NA,"TCGA-KN-8429",NA,"Kidney Chromophobe",TRUE,"legacy","Kidney","TCGA-KICH","Kidney Chromophobe",NA,NA,NA,NA,NA,NA,NA,NA,NA,NA,NA,NA,NA,NA,NA,NA,NA,NA,NA,NA,NA,NA,NA,NA,NA,NA,NA,NA,NA,NA,NA,NA,NA
"TCGA-KN-8419-01A-11R-2315-07","TCGA-KN-8419-01A","TCGA-KN-8419","TCGA-KN-8419-01A-11R-2315-07","TP","Primary solid Tumor","not reported","not reported","2016-05-16T11:09:09.036009-05:00","c64.9","stage ii",15769,"alive","8317/3",NA,NA,714,NA,NA,"6f9c39ed-9029-5827-ac4b-3877f1bfef74","not reported","c64.9",-15769,"not reported","not reported","c64.9",NA,NA,NA,"2016-05-16T11:09:09.036009-05:00",NA,NA,NA,NA,NA,NA,NA,"e6ae06ff-024a-5b25-a4cc-6eb7d88aa884","2016-05-16T11:09:09.036009-05:00",NA,"male",NA,1961,"black or african american","bc6ac3db-0650-5f90-9d04-fc2a9ebeb1a2","not hispanic or latino",NA,"TCGA-KN-8419",NA,"Kidney Chromophobe",TRUE,"legacy","Kidney","TCGA-KICH","Kidney Chromophobe","TCGA-KN-8419","YES","YES","Kidney","MALE",43,"BLACK OR AFRICAN AMERICAN","NOT HISPANIC OR LATINO",2004,"No","No","Kidney Chromophobe","Left","[Not Available]","N0","T2","Stage II","TUMOR FREE","LIVING","714","[Not Available]","[Not Available]","[Not Evaluated]","[Not Evaluated]","Eosinophilic","[Not Evaluated]","Low","Elevated","Low","Low","","classic","MT-ND5 mutation (>70% heteroplasmy)"
"TCGA-KL-8332-01A-11R-2315-07","TCGA-KL-8332-01A","TCGA-KL-8332","TCGA-KL-8332-01A-11R-2315-07","TP","Primary solid Tumor","not reported","not reported","2016-05-16T11:09:49.702304-05:00","c64.9","stage i",20128,"alive","8317/3",NA,NA,2582,NA,NA,"5b330c22-4246-57e4-9ebf-c0a2a8f7b1ed","not reported","c64.9",-20128,"not reported","not reported","c64.9",NA,NA,NA,"2016-05-16T11:09:49.702304-05:00",NA,NA,NA,NA,NA,NA,NA,"fecaacef-8c9f-55f3-a983-42f8d2df3f54","2016-05-16T11:09:49.702304-05:00",NA,"male",NA,1949,"white","e799b731-ff2f-5fc8-b8f5-62300ccccbf0","not reported",NA,"TCGA-KL-8332",NA,"Kidney Chromophobe",TRUE,"legacy","Kidney","TCGA-KICH","Kidney Chromophobe","TCGA-KL-8332","YES","YES","Kidney","MALE",55,"WHITE","[Not Evaluated]",2004,"No","No","Kidney Chromophobe","Right","M0","N0","T1b","Stage I","TUMOR FREE","LIVING","2582","[Not Available]","0","[Not Available]","[Not Evaluated]","Classic","[Not Available]","Low","Normal","Normal","Normal","","classic",""
"TCGA-KN-8422-11A-01R-2315-07","TCGA-KN-8422-11A","TCGA-KN-8422","TCGA-KN-8422-11A-01R-2315-07","NT","Solid Tissue Normal","not reported","not reported","2016-05-16T11:09:15.604549-05:00","c64.9","stage i",10303,"alive","8317/3",NA,NA,775,NA,NA,"af06b97e-c357-52ac-86ed-5619af528cd3","not reported","c64.9",-10303,"not reported","not reported","c64.9",NA,NA,NA,"2016-05-16T11:09:15.604549-05:00",NA,NA,NA,NA,NA,NA,NA,"3a314737-af63-5d10-a7a6-4c2272b70a40","2016-05-16T11:09:15.604549-05:00",NA,"female",NA,1977,"white","bbdf4a6a-feaf-5abe-b361-d95dc23a6e52","not reported",NA,"TCGA-KN-8422",NA,"Kidney Chromophobe",TRUE,"legacy","Kidney","TCGA-KICH","Kidney Chromophobe",NA,NA,NA,NA,NA,NA,NA,NA,NA,NA,NA,NA,NA,NA,NA,NA,NA,NA,NA,NA,NA,NA,NA,NA,NA,NA,NA,NA,NA,NA,NA,NA,NA
"TCGA-KL-8339-11A-01R-2315-07","TCGA-KL-8339-11A","TCGA-KL-8339","TCGA-KL-8339-11A-01R-2315-07","NT","Solid Tissue Normal","not reported","not reported","2016-05-16T11:09:27.557538-05:00","c64.9","stage iv",24545,"dead","8317/3",855,NA,NA,NA,NA,"8a057deb-7f70-5827-a771-61e9f1c1b6ed","not reported","c64.9",-24545,"not reported","not reported","c64.9",NA,NA,NA,"2016-05-16T11:09:27.557538-05:00",NA,NA,NA,NA,NA,NA,NA,"32a496b2-1057-54b0-bf03-852aed29a772","2016-05-16T11:09:27.557538-05:00",NA,"male",NA,1939,"white","57bd6f59-4a6a-5e46-b544-11765271d600","not reported",2008,"TCGA-KL-8339",NA,"Kidney Chromophobe",TRUE,"legacy","Kidney","TCGA-KICH","Kidney Chromophobe",NA,NA,NA,NA,NA,NA,NA,NA,NA,NA,NA,NA,NA,NA,NA,NA,NA,NA,NA,NA,NA,NA,NA,NA,NA,NA,NA,NA,NA,NA,NA,NA,NA
"TCGA-KO-8413-01A-11R-2315-07","TCGA-KO-8413-01A","TCGA-KO-8413","TCGA-KO-8413-01A-11R-2315-07","TP","Primary solid Tumor","not reported","not reported","2016-05-16T11:09:40.221937-05:00","c64.9","stage i",17067,"alive","8317/3",NA,NA,3038,NA,NA,"409523a8-e64c-533c-aafc-9a6efeb2901b","not reported","c64.9",-17067,"not reported","not reported","c64.9",NA,NA,NA,"2016-05-16T11:09:40.221937-05:00",NA,NA,NA,NA,NA,NA,NA,"0c5f706c-0a02-5b53-a7d8-c5ca251dd1f1","2016-05-16T11:09:40.221937-05:00",NA,"male",NA,1960,"white","dce178d8-2a04-523e-a132-d9f9037d5078","hispanic or latino",NA,"TCGA-KO-8413",NA,"Kidney Chromophobe",TRUE,"legacy","Kidney","TCGA-KICH","Kidney Chromophobe","TCGA-KO-8413","YES","NO","Kidney","MALE",46,"WHITE","HISPANIC OR LATINO",2006,"No","No","Kidney Chromophobe","Right","M0","N0","T1","Stage I","TUMOR FREE","LIVING","2618","[Not Available]","[Not Available]","100","[Not Available]","Classic","NO","[Not Available]","[Not Available]","[Not Available]","[Not Available]","","classic",""
"TCGA-KN-8427-11A-01R-2315-07","TCGA-KN-8427-11A","TCGA-KN-8427","TCGA-KN-8427-11A-01R-2315-07","NT","Solid Tissue Normal","not reported","not reported","2016-05-16T11:09:33.529364-05:00","c64.9","stage iv",19854,"alive","8317/3",NA,NA,30,NA,NA,"c65a235b-abf4-5e69-acdd-48489343b833","not reported","c64.9",-19854,"not reported","not reported","c64.9",NA,NA,NA,"2016-05-16T11:09:33.529364-05:00",NA,NA,NA,NA,NA,NA,NA,"810f2602-81b2-5891-ba38-f26f99a2dd90","2016-05-16T11:09:33.529364-05:00",NA,"male",NA,1952,"white","a481c0c7-7c2a-5043-ab87-eb0160cd8f5d","not reported",NA,"TCGA-KN-8427",NA,"Kidney Chromophobe",TRUE,"legacy","Kidney","TCGA-KICH","Kidney Chromophobe",NA,NA,NA,NA,NA,NA,NA,NA,NA,NA,NA,NA,NA,NA,NA,NA,NA,NA,NA,NA,NA,NA,NA,NA,NA,NA,NA,NA,NA,NA,NA,NA,NA
"TCGA-KN-8436-11A-01R-2315-07","TCGA-KN-8436-11A","TCGA-KN-8436","TCGA-KN-8436-11A-01R-2315-07","NT","Solid Tissue Normal","not reported","not reported","2016-05-16T11:09:43.090151-05:00","c64.9","stage ii",22997,"alive","8317/3",NA,NA,1288,NA,NA,"235a8227-515e-53eb-82e1-bd034e949500","not reported","c64.9",-22997,"not reported","not reported","c64.9",NA,NA,NA,"2016-05-16T11:09:43.090151-05:00",NA,NA,NA,NA,NA,NA,NA,"d768137a-17b5-524f-a12d-6c23a442d03f","2016-05-16T11:09:43.090151-05:00",NA,"male",NA,1947,"white","fcaa42ba-54f1-5f47-9498-13702a06343e","not hispanic or latino",NA,"TCGA-KN-8436",NA,"Kidney Chromophobe",TRUE,"legacy","Kidney","TCGA-KICH","Kidney Chromophobe",NA,NA,NA,NA,NA,NA,NA,NA,NA,NA,NA,NA,NA,NA,NA,NA,NA,NA,NA,NA,NA,NA,NA,NA,NA,NA,NA,NA,NA,NA,NA,NA,NA
"TCGA-KO-8403-11A-01R-2315-07","TCGA-KO-8403-11A","TCGA-KO-8403","TCGA-KO-8403-11A-01R-2315-07","NT","Solid Tissue Normal","not reported","not reported","2016-05-16T11:09:26.862386-05:00","c64.9","stage i",18171,"alive","8317/3",NA,NA,3208,NA,NA,"dcef87ae-be63-586b-802e-95419ba708f9","not reported","c64.9",-18171,"not reported","not reported","c64.9",NA,NA,NA,"2016-05-16T11:09:26.862386-05:00",NA,NA,NA,NA,NA,NA,NA,"ef36f32a-bb74-5a4c-8f45-ac244e3e19aa","2016-05-16T11:09:26.862386-05:00",NA,"male",NA,1956,"white","7c8be500-aa57-590e-8d75-6c3ba6dab490","not hispanic or latino",NA,"TCGA-KO-8403",NA,"Kidney Chromophobe",TRUE,"legacy","Kidney","TCGA-KICH","Kidney Chromophobe",NA,NA,NA,NA,NA,NA,NA,NA,NA,NA,NA,NA,NA,NA,NA,NA,NA,NA,NA,NA,NA,NA,NA,NA,NA,NA,NA,NA,NA,NA,NA,NA,NA
"TCGA-KL-8331-01A-11R-2315-07","TCGA-KL-8331-01A","TCGA-KL-8331","TCGA-KL-8331-01A-11R-2315-07","TP","Primary solid Tumor","not reported","not reported","2016-05-16T11:09:51.708914-05:00","c64.9","stage ii",17710,"alive","8317/3",NA,NA,3010,NA,NA,"ed8bbf7d-5af9-5bf5-9743-1f218d1cbdb3","not reported","c64.9",-17710,"not reported","not reported","c64.9",NA,NA,NA,"2016-05-16T11:09:51.708914-05:00",NA,NA,NA,NA,NA,NA,NA,"62c5b9da-3bdf-5b45-8fb9-42f2750735f3","2016-05-16T11:09:51.708914-05:00",NA,"female",NA,1956,"white","c7a0ad8a-cdc8-5a13-8b9a-0902ff7403d3","not reported",NA,"TCGA-KL-8331",NA,"Kidney Chromophobe",TRUE,"legacy","Kidney","TCGA-KICH","Kidney Chromophobe","TCGA-KL-8331","YES","YES","Kidney","FEMALE",48,"WHITE","[Not Evaluated]",2004,"No","No","Kidney Chromophobe","Right","M0","N0","T2","Stage II","TUMOR FREE","LIVING","3009","[Not Available]","0","[Not Available]","[Not Evaluated]","Classic","[Not Available]","Low","Elevated","Low","Normal","","classic",""
"TCGA-KL-8338-01A-11R-2315-07","TCGA-KL-8338-01A","TCGA-KL-8338","TCGA-KL-8338-01A-11R-2315-07","TP","Primary solid Tumor","not reported","not reported","2016-05-16T11:09:39.504410-05:00","c64.9","stage iii",18667,"alive","8317/3",NA,NA,2633,NA,NA,"12ee96c5-6d22-5a65-9327-b7ce88f88895","not reported","c64.9",-18667,"not reported","not reported","c64.9",NA,NA,NA,"2016-05-16T11:09:39.504410-05:00",NA,NA,NA,NA,NA,NA,NA,"360e82ae-dab3-5f9c-b578-96d552fffeaa","2016-05-16T11:09:39.504410-05:00",NA,"male",NA,1955,"white","d5d6f757-2b68-569f-81ea-1c3bd0e31082","not reported",NA,"TCGA-KL-8338",NA,"Kidney Chromophobe",TRUE,"legacy","Kidney","TCGA-KICH","Kidney Chromophobe","TCGA-KL-8338","YES","NO","Kidney","MALE",51,"WHITE","[Not Evaluated]",2006,"No","No","Kidney Chromophobe","Left","M0","N0","T3a","Stage III","TUMOR FREE","LIVING","2632","[Not Available]","0","[Not Available]","[Not Evaluated]","Classic","[Not Available]","Low","Elevated","Low","Normal","","classic",""
"TCGA-KN-8430-01A-11R-2315-07","TCGA-KN-8430-01A","TCGA-KN-8430","TCGA-KN-8430-01A-11R-2315-07","TP","Primary solid Tumor","not reported","not reported","2016-05-16T11:09:25.835144-05:00","c64.9","stage i",27467,"dead","8317/3",NA,NA,NA,NA,NA,"3e9abc64-5eb2-5ff2-8a21-c9e8dfe1883a","not reported","c64.9",-27467,"not reported","not reported","c64.9",NA,NA,NA,"2016-05-16T11:09:25.835144-05:00",NA,NA,NA,NA,NA,NA,NA,"36312b92-2c0e-565e-b4ac-d15177684ea1","2016-05-16T11:09:25.835144-05:00",NA,"male",NA,1932,"white","09aac3cf-d29f-5975-9a97-16b8cd81e9b3","not hispanic or latino",NA,"TCGA-KN-8430",NA,"Kidney Chromophobe",TRUE,"legacy","Kidney","TCGA-KICH","Kidney Chromophobe","TCGA-KN-8430","YES","YES","Kidney","MALE",75,"WHITE","NOT HISPANIC OR LATINO",2007,"Yes, History of Prior Malignancy","No","Kidney Chromophobe","Left","[Not Available]","N0","T1b","Stage I","WITH TUMOR","DECEASED","[Not Available]","[Not Available]","[Not Available]","[Not Evaluated]","[Not Evaluated]","Classic","[Not Evaluated]","Low","Normal","Low","Normal","","classic","MT-ND5 mutation (>70% heteroplasmy)"
"TCGA-KN-8436-01A-11R-2315-07","TCGA-KN-8436-01A","TCGA-KN-8436","TCGA-KN-8436-01A-11R-2315-07","TP","Primary solid Tumor","not reported","not reported","2016-05-16T11:09:43.090151-05:00","c64.9","stage ii",22997,"alive","8317/3",NA,NA,1288,NA,NA,"235a8227-515e-53eb-82e1-bd034e949500","not reported","c64.9",-22997,"not reported","not reported","c64.9",NA,NA,NA,"2016-05-16T11:09:43.090151-05:00",NA,NA,NA,NA,NA,NA,NA,"d768137a-17b5-524f-a12d-6c23a442d03f","2016-05-16T11:09:43.090151-05:00",NA,"male",NA,1947,"white","fcaa42ba-54f1-5f47-9498-13702a06343e","not hispanic or latino",NA,"TCGA-KN-8436",NA,"Kidney Chromophobe",TRUE,"legacy","Kidney","TCGA-KICH","Kidney Chromophobe","TCGA-KN-8436","YES","NO","Kidney","MALE",62,"WHITE","NOT HISPANIC OR LATINO",2009,"No","No","Kidney Chromophobe","Right","[Not Available]","NX","T2","Stage II","TUMOR FREE","LIVING","636","[Not Available]","[Not Available]","[Not Evaluated]","[Not Evaluated]","Eosinophilic","[Not Evaluated]","[Not Evaluated]","Normal","Low","Normal","oncocytic features noted","classic",""
"TCGA-KN-8427-01A-11R-2315-07","TCGA-KN-8427-01A","TCGA-KN-8427","TCGA-KN-8427-01A-11R-2315-07","TP","Primary solid Tumor","not reported","not reported","2016-05-16T11:09:33.529364-05:00","c64.9","stage iv",19854,"alive","8317/3",NA,NA,30,NA,NA,"c65a235b-abf4-5e69-acdd-48489343b833","not reported","c64.9",-19854,"not reported","not reported","c64.9",NA,NA,NA,"2016-05-16T11:09:33.529364-05:00",NA,NA,NA,NA,NA,NA,NA,"810f2602-81b2-5891-ba38-f26f99a2dd90","2016-05-16T11:09:33.529364-05:00",NA,"male",NA,1952,"white","a481c0c7-7c2a-5043-ab87-eb0160cd8f5d","not reported",NA,"TCGA-KN-8427",NA,"Kidney Chromophobe",TRUE,"legacy","Kidney","TCGA-KICH","Kidney Chromophobe","TCGA-KN-8427","YES","YES","Kidney","MALE",54,"WHITE","[Not Evaluated]",2006,"No","No","Kidney Chromophobe","Left","[Not Available]","N1","T4","Stage IV","TUMOR FREE","LIVING","17","[Not Available]","1","[Not Evaluated]","[Not Evaluated]","Eosinophilic","YES","Low","Elevated","Low","Normal","chromophobe and sarcomatoid features noted","mixed",""
"TCGA-KN-8431-01A-11R-2315-07","TCGA-KN-8431-01A","TCGA-KN-8431","TCGA-KN-8431-01A-11R-2315-07","TP","Primary solid Tumor","not reported","not reported","2016-05-16T11:09:19.536542-05:00","c64.9","stage ii",13043,"alive","8317/3",NA,NA,588,NA,NA,"d73c4c3a-ac54-5020-8bd6-db9813307472","not reported","c64.9",-13043,"not reported","not reported","c64.9",NA,NA,NA,"2016-05-16T11:09:19.536542-05:00",NA,NA,NA,NA,NA,NA,NA,"4b0475fe-52f6-580e-8ff2-ec0c2867d599","2016-05-16T11:09:19.536542-05:00",NA,"female",NA,1972,"not reported","e5daed55-1ca4-527d-980f-329742a576f1","not reported",NA,"TCGA-KN-8431",NA,"Kidney Chromophobe",TRUE,"legacy","Kidney","TCGA-KICH","Kidney Chromophobe","TCGA-KN-8431","YES","YES","Kidney","FEMALE",35,"[Not Evaluated]","[Not Evaluated]",2007,"No","No","Kidney Chromophobe","Right","[Not Available]","NX","T2","Stage II","TUMOR FREE","LIVING","712","[Not Available]","[Not Available]","[Not Evaluated]","[Not Evaluated]","Classic","[Not Evaluated]","Low","Elevated","Normal","Normal","","classic",""
"TCGA-KM-8441-01A-11R-2315-07","TCGA-KM-8441-01A","TCGA-KM-8441","TCGA-KM-8441-01A-11R-2315-07","TP","Primary solid Tumor","not reported","not reported","2016-05-16T11:09:23.879189-05:00","c64.9","stage i",22303,"alive","8317/3",NA,NA,876,NA,NA,"212c9a8f-1a21-5ce0-9f9b-5a44c5578333","not reported","c64.9",-22303,"not reported","not reported","c64.9",NA,NA,NA,"2016-05-16T11:09:23.879189-05:00",NA,NA,NA,NA,NA,NA,NA,"c3f81186-8262-5c66-adba-1ff8336e4fcc","2016-05-16T11:09:23.879189-05:00",NA,"female",NA,1950,"white","6725e2be-674a-588d-bf69-3fb7bda4b9b2","not hispanic or latino",NA,"TCGA-KM-8441",NA,"Kidney Chromophobe",TRUE,"legacy","Kidney","TCGA-KICH","Kidney Chromophobe","TCGA-KM-8441","YES","YES","Kidney","FEMALE",61,"WHITE","NOT HISPANIC OR LATINO",2011,"Yes, History of Prior Malignancy","No","Kidney Chromophobe","Right","MX","NX","T1b","Stage I","TUMOR FREE","LIVING","114","[Not Available]","[Not Available]","90","[Not Evaluated]","Eosinophilic","NO","Normal","Normal","Normal","Normal","suspected BHD but prelim genetic testing negative; oncocytic features noted","copy neutral","MT-ND5 mutation (>70% heteroplasmy)"
"TCGA-KN-8425-01A-11R-2315-07","TCGA-KN-8425-01A","TCGA-KN-8425","TCGA-KN-8425-01A-11R-2315-07","TP","Primary solid Tumor","not reported","not reported","2016-05-16T11:09:30.939367-05:00","c64.9","stage i",19692,"alive","8317/3",NA,NA,3179,NA,NA,"ffcff2f2-c079-5653-bc90-efc430df079b","not reported","c64.9",-19692,"not reported","not reported","c64.9",NA,NA,NA,"2016-05-16T11:09:30.939367-05:00",NA,NA,NA,NA,NA,NA,NA,"dd04a005-6adf-526b-81c4-45b3ddf72b2e","2016-05-16T11:09:30.939367-05:00",NA,"male",NA,1952,"white","44264dd2-1fba-5471-ae09-fb0ed3a610cc","not reported",NA,"TCGA-KN-8425",NA,"Kidney Chromophobe",TRUE,"legacy","Kidney","TCGA-KICH","Kidney Chromophobe","TCGA-KN-8425","YES","YES","Kidney","MALE",53,"WHITE","[Not Evaluated]",2005,"No","No","Kidney Chromophobe","Left","[Not Available]","N0","T1b","Stage I","TUMOR FREE","LIVING","2211","[Not Available]","[Not Available]","[Not Evaluated]","[Not Evaluated]","Classic","[Not Evaluated]","Low","Elevated","Low","Normal","","classic",""
"TCGA-KL-8335-01A-11R-2315-07","TCGA-KL-8335-01A","TCGA-KL-8335","TCGA-KL-8335-01A-11R-2315-07","TP","Primary solid Tumor","not reported","not reported","2016-05-16T11:09:23.219697-05:00","c64.9","stage iii",24832,"alive","8317/3",NA,NA,2815,NA,NA,"a232aacb-5835-5376-b7b5-db0d4b371b71","not reported","c64.9",-24832,"not reported","not reported","c64.9",NA,1.47945205479452,NA,"2016-05-16T11:09:23.219697-05:00",NA,NA,NA,18,NA,NA,NA,"94f6180d-7882-51ed-8b06-f5e763ccd5c2","2016-05-16T11:09:23.219697-05:00",NA,"male",NA,1938,"white","cf4b668f-be8f-5b9f-b66e-320ff005c559","not reported",NA,"TCGA-KL-8335",NA,"Kidney Chromophobe",TRUE,"legacy","Kidney","TCGA-KICH","Kidney Chromophobe","TCGA-KL-8335","YES","NO","Kidney","MALE",67,"WHITE","[Not Evaluated]",2005,"No","No","Kidney Chromophobe","Left","M0","N0","T3a","Stage III","TUMOR FREE","LIVING","2815","[Not Available]","0","[Not Available]","[Not Evaluated]","Classic","[Not Available]","Low","Normal","Low","Normal","","classic",""
"TCGA-KN-8421-01A-11R-2315-07","TCGA-KN-8421-01A","TCGA-KN-8421","TCGA-KN-8421-01A-11R-2315-07","TP","Primary solid Tumor","not reported","not reported","2016-05-16T11:09:49.102543-05:00","c64.9","stage ii",17524,"alive","8317/3",NA,NA,2674,NA,NA,"90f005b2-9211-5f9c-8715-1696c720ce0b","not reported","c64.9",-17524,"not reported","not reported","c64.9",NA,NA,NA,"2016-05-16T11:09:49.102543-05:00",NA,NA,NA,NA,NA,NA,NA,"eed39320-4c36-5d35-9e41-ec046499c5b9","2016-05-16T11:09:49.102543-05:00",NA,"female",NA,1957,"white","d25296e9-31f4-55ca-b6c4-bdc279016d31","not hispanic or latino",NA,"TCGA-KN-8421",NA,"Kidney Chromophobe",TRUE,"legacy","Kidney","TCGA-KICH","Kidney Chromophobe","TCGA-KN-8421","YES","YES","Kidney","FEMALE",47,"WHITE","NOT HISPANIC OR LATINO",2004,"No","No","Kidney Chromophobe","Left","[Not Available]","N0","T2","Stage II","TUMOR FREE","LIVING","2674","[Not Available]","0","[Not Evaluated]","[Not Evaluated]","Eosinophilic","[Not Evaluated]","Low","Normal","Low","Normal","","classic",""
"TCGA-KL-8344-01A-11R-2315-07","TCGA-KL-8344-01A","TCGA-KL-8344","TCGA-KL-8344-01A-11R-2315-07","TP","Primary solid Tumor","not reported","not reported","2016-05-16T11:09:29.641397-05:00","c64.9","stage iii",18742,"alive","8317/3",NA,NA,876,NA,NA,"105b3d36-542a-5e93-b5d2-7a18cdc270fd","not reported","c64.9",-18742,"not reported","not reported","c64.9",NA,NA,NA,"2016-05-16T11:09:29.641397-05:00",NA,NA,NA,NA,NA,NA,NA,"125b89ba-5274-5921-9154-397407dc7d91","2016-05-16T11:09:29.641397-05:00",NA,"male",NA,1956,"white","8d9b72c9-2912-58fa-a8d7-6d5d06069685","not reported",NA,"TCGA-KL-8344",NA,"Kidney Chromophobe",TRUE,"legacy","Kidney","TCGA-KICH","Kidney Chromophobe","TCGA-KL-8344","YES","YES","Kidney","MALE",51,"WHITE","[Not Evaluated]",2007,"No","No","Kidney Chromophobe","Right","M0","N0","T3a","Stage III","TUMOR FREE","LIVING","876","[Not Available]","0","[Not Available]","[Not Evaluated]","Eosinophilic","[Not Available]","Low","Elevated","Low","Elevated","eosinophilic variant; immunostains for CK7, CD1, MIB-1 supported diagnosis; oncocytic features noted","chr1 loss","MT-ND5 mutation (>70% heteroplasmy)"
"TCGA-KL-8325-01A-11R-2315-07","TCGA-KL-8325-01A","TCGA-KL-8325","TCGA-KL-8325-01A-11R-2315-07","TP","Primary solid Tumor","not reported","not reported","2016-05-16T11:09:41.384457-05:00","c64.9","stage ii",20768,"dead","8317/3",725,NA,NA,NA,NA,"008cf944-786b-581a-a969-d6b2fab187b3","not reported","c64.9",-20768,"not reported","not reported","c64.9",NA,NA,NA,"2016-05-16T11:09:41.384457-05:00",NA,NA,NA,NA,NA,NA,NA,"c754ea76-f489-5da4-8760-4afa583d6b8b","2016-05-16T11:09:41.384457-05:00",NA,"female",NA,1944,"white","74483cfd-f20f-55fd-b42b-7141d7192060","not reported",2001,"TCGA-KL-8325",NA,"Kidney Chromophobe",TRUE,"legacy","Kidney","TCGA-KICH","Kidney Chromophobe","TCGA-KL-8325","YES","YES","Kidney","FEMALE",56,"WHITE","[Not Evaluated]",2000,"No","No","Kidney Chromophobe","Left","M0","NX","T2","Stage II","TUMOR FREE","DECEASED","725","[Not Available]","[Not Available]","[Not Available]","[Not Evaluated]","Classic","[Not Available]","Low","Elevated","Normal","Normal","","classic",""
"TCGA-KO-8411-01A-11R-2315-07","TCGA-KO-8411-01A","TCGA-KO-8411","TCGA-KO-8411-01A-11R-2315-07","TP","Primary solid Tumor","not reported","not reported","2016-05-16T11:09:09.892521-05:00","c64.9","stage i",21371,"alive","8317/3",NA,NA,3958,NA,NA,"c0b40d43-308b-52de-93bd-d65d521be9c5","not reported","c64.9",-21371,"not reported","not reported","c64.9",NA,NA,NA,"2016-05-16T11:09:09.892521-05:00",NA,NA,NA,NA,NA,NA,NA,"35a6e035-d2b5-507e-93e1-658ef779410d","2016-05-16T11:09:09.892521-05:00",NA,"male",NA,1946,"white","c632eea7-e9a9-52ed-a4b0-a640376a0e30","not hispanic or latino",NA,"TCGA-KO-8411",NA,"Kidney Chromophobe",TRUE,"legacy","Kidney","TCGA-KICH","Kidney Chromophobe","TCGA-KO-8411","YES","YES","Kidney","MALE",58,"WHITE","NOT HISPANIC OR LATINO",2004,"Yes, History of Prior Malignancy","No","Kidney Chromophobe","Left","M0","NX","T1b","Stage I","TUMOR FREE","LIVING","3141","[Not Available]","[Not Available]","100","[Not Available]","Classic","NO","[Not Available]","[Not Available]","[Not Available]","[Not Available]","","classic",""
"TCGA-KN-8424-11A-01R-2315-07","TCGA-KN-8424-11A","TCGA-KN-8424","TCGA-KN-8424-11A-01R-2315-07","NT","Solid Tissue Normal","not reported","not reported","2016-05-16T11:09:43.688011-05:00","c64.9","stage i",15384,"alive","8317/3",NA,NA,1983,NA,NA,"6d0b124d-2f97-5375-b38b-e1d984ef0832","not reported","c64.9",-15384,"not reported","not reported","c64.9",NA,NA,NA,"2016-05-16T11:09:43.688011-05:00",NA,NA,NA,NA,NA,NA,NA,"ba28d706-260f-5b3a-a904-82d3a0180421","2016-05-16T11:09:43.688011-05:00",NA,"female",NA,1963,"white","d7f364af-8f2c-57d2-a07e-2fff2fe8d8cb","not reported",NA,"TCGA-KN-8424",NA,"Kidney Chromophobe",TRUE,"legacy","Kidney","TCGA-KICH","Kidney Chromophobe",NA,NA,NA,NA,NA,NA,NA,NA,NA,NA,NA,NA,NA,NA,NA,NA,NA,NA,NA,NA,NA,NA,NA,NA,NA,NA,NA,NA,NA,NA,NA,NA,NA
"TCGA-KL-8329-11A-01R-2315-07","TCGA-KL-8329-11A","TCGA-KL-8329","TCGA-KL-8329-11A-01R-2315-07","NT","Solid Tissue Normal","not reported","not reported","2016-05-16T11:09:38.925903-05:00","c64.9","stage i",20972,"alive","8317/3",NA,NA,2752,NA,NA,"7c96a7e8-b4ce-5c3f-8cfb-2bddca72c184","not reported","c64.9",-20972,"not reported","not reported","c64.9",NA,NA,NA,"2016-05-16T11:09:38.925903-05:00",NA,NA,NA,NA,NA,NA,NA,"9c8a7e8a-ca84-5f20-b72f-a75b864a1b00","2016-05-16T11:09:38.925903-05:00",NA,"female",NA,1946,"asian","9e272d21-d5a5-5b52-8116-425eb74cdb33","not reported",NA,"TCGA-KL-8329",NA,"Kidney Chromophobe",TRUE,"legacy","Kidney","TCGA-KICH","Kidney Chromophobe",NA,NA,NA,NA,NA,NA,NA,NA,NA,NA,NA,NA,NA,NA,NA,NA,NA,NA,NA,NA,NA,NA,NA,NA,NA,NA,NA,NA,NA,NA,NA,NA,NA
"TCGA-KM-8476-01A-11R-2315-07","TCGA-KM-8476-01A","TCGA-KM-8476","TCGA-KM-8476-01A-11R-2315-07","TP","Primary solid Tumor","not reported","not reported","2016-05-16T11:09:14.214433-05:00","c64.9","stage i",17240,"alive","8317/3",NA,NA,3745,NA,NA,"799bb3ad-3f15-501b-b117-3b2eae1535a4","not reported","c64.9",-17240,"not reported","not reported","c64.9",NA,NA,NA,"2016-05-16T11:09:14.214433-05:00",NA,NA,NA,NA,NA,NA,NA,"72b595e1-85f7-5082-acf2-47c0ad21bf03","2016-05-16T11:09:14.214433-05:00",NA,"male",NA,1955,"white","b81ecdd6-c36b-594c-b2a0-07287691b794","not hispanic or latino",NA,"TCGA-KM-8476",NA,"Kidney Chromophobe",TRUE,"legacy","Kidney","TCGA-KICH","Kidney Chromophobe","TCGA-KM-8476","YES","YES","Kidney","MALE",47,"WHITE","NOT HISPANIC OR LATINO",2002,"No","No","Kidney Chromophobe","Right","MX","NX","T1","Stage I","TUMOR FREE","LIVING","2590","[Not Available]","[Not Available]","90","[Not Evaluated]","Classic","NO","Normal","Normal","Normal","Normal","","classic",""
