"","patient","barcode","sample","shortLetterCode","definition","classification_of_tumor","last_known_disease_status","updated_datetime.x","primary_diagnosis","tumor_stage","age_at_diagnosis","vital_status","morphology","days_to_death","days_to_last_known_disease_status","days_to_last_follow_up","state.x","days_to_recurrence","diagnosis_id","tumor_grade","tissue_or_organ_of_origin","days_to_birth","progression_or_recurrence","prior_malignancy","site_of_resection_or_biopsy","created_datetime.x","cigarettes_per_day","weight","updated_datetime.y","alcohol_history","alcohol_intensity","bmi","years_smoked","height","created_datetime.y","state.y","exposure_id","updated_datetime","created_datetime","gender","state","year_of_birth","race","demographic_id","ethnicity","year_of_death","bcr_patient_barcode","dbgap_accession_number","disease_type","released","state.1","primary_site","project_id","name"
"TCGA-N5-A59E-01A-11R-A28V-07","TCGA-N5-A59E","TCGA-N5-A59E-01A-11R-A28V-07","TCGA-N5-A59E-01A","TP","Primary solid Tumor","not reported","not reported","2016-05-16T10:44:56.542400-05:00","c54.2","not reported",22650,"dead","8950/3",447,NA,NA,NA,NA,"e55f6436-9e05-57c3-ab8b-872686615728","not reported","c54.2",-22650,"not reported","not reported","c54.2",NA,NA,88,"2016-05-16T10:44:56.542400-05:00",NA,NA,0.00366285119667014,NA,155,NA,NA,"d1dd4eab-b68e-5593-9d78-a908c1f0465b","2016-05-16T10:44:56.542400-05:00",NA,"female",NA,1949,"white","01050961-dda6-50fd-be9b-348b728d9e64","not hispanic or latino",2012,"TCGA-N5-A59E",NA,"Uterine Carcinosarcoma",TRUE,"legacy","Uterus","TCGA-UCS","Uterine Carcinosarcoma"
"TCGA-NA-A4R1-01A-11R-A28V-07","TCGA-NA-A4R1","TCGA-NA-A4R1-01A-11R-A28V-07","TCGA-NA-A4R1-01A","TP","Primary solid Tumor","not reported","not reported","2016-05-16T10:48:09.803739-05:00","c55","not reported",27688,"dead","8980/3",203,NA,NA,NA,NA,"4d4a005e-45db-5601-9b91-2d10626cd5bc","not reported","c55.9",-27688,"not reported","not reported","c55.9",NA,NA,NA,"2016-05-16T10:48:09.803739-05:00",NA,NA,NA,NA,NA,NA,NA,"b5c5658c-bad1-589c-a027-dd15afb61417","2016-05-16T10:48:09.803739-05:00",NA,"female",NA,1937,"black or african american","ac032a51-8fb3-5451-b380-0504afb91e25","not hispanic or latino",2012,"TCGA-NA-A4R1",NA,"Uterine Carcinosarcoma",TRUE,"legacy","Uterus","TCGA-UCS","Uterine Carcinosarcoma"
"TCGA-N5-A4RJ-01A-11R-A28V-07","TCGA-N5-A4RJ","TCGA-N5-A4RJ-01A-11R-A28V-07","TCGA-N5-A4RJ-01A","TP","Primary solid Tumor","not reported","not reported","2016-05-16T10:44:50.816995-05:00","c54.1","not reported",22341,"dead","8950/3",550,NA,NA,NA,NA,"c75898e9-297d-5a7a-9699-8819bdf5403f","not reported","c54.1",-22341,"not reported","not reported","c54.1",NA,NA,84,"2016-05-16T10:44:50.816995-05:00",NA,NA,0.00336484537734337,NA,158,NA,NA,"fd4b0824-a01d-59b5-b282-879d884a6b68","2016-05-16T10:44:50.816995-05:00",NA,"female",NA,1948,"white","7837b98e-4962-5b88-b99e-005ac65f8d21","not hispanic or latino",2010,"TCGA-N5-A4RJ",NA,"Uterine Carcinosarcoma",TRUE,"legacy","Uterus","TCGA-UCS","Uterine Carcinosarcoma"
"TCGA-N5-A4RM-01A-11R-A28V-07","TCGA-N5-A4RM","TCGA-N5-A4RM-01A-11R-A28V-07","TCGA-N5-A4RM-01A","TP","Primary solid Tumor","not reported","not reported","2016-05-16T10:44:51.429349-05:00","c54.1","not reported",22886,"dead","8950/3",148,NA,NA,NA,NA,"f03cf790-6a5a-5149-8e12-ee074031a768","not reported","c54.1",-22886,"not reported","not reported","c54.1",NA,NA,70,"2016-05-16T10:44:51.429349-05:00",NA,NA,0.0030297783933518,NA,152,NA,NA,"14007aa3-e754-5193-8a0e-2ff62439fa3d","2016-05-16T10:44:51.429349-05:00",NA,"female",NA,1948,"white","2b19b77a-9dda-5087-9913-785d8e0dbc00","not hispanic or latino",2010,"TCGA-N5-A4RM",NA,"Uterine Carcinosarcoma",TRUE,"legacy","Uterus","TCGA-UCS","Uterine Carcinosarcoma"
"TCGA-N8-A4PP-01A-11R-A28V-07","TCGA-N8-A4PP","TCGA-N8-A4PP-01A-11R-A28V-07","TCGA-N8-A4PP-01A","TP","Primary solid Tumor","not reported","not reported","2016-05-16T10:45:07.403836-05:00","c54.1","not reported",32415,"dead","8980/3",611,NA,471,NA,NA,"4dbda05b-f90b-58d2-8de5-6551706cdf13","not reported","c54.1",-32415,"not reported","not reported","c54.1",NA,NA,57,"2016-05-16T10:45:07.403836-05:00",NA,NA,0.00219898923652637,NA,161,NA,NA,"9f83fe9f-3a7b-533b-ae4d-985ff0f08bf7","2016-05-16T10:45:07.403836-05:00",NA,"female",NA,1924,"white","9b14d5dd-2f12-5890-b80c-cbaa7432d4ec","not hispanic or latino",NA,"TCGA-N8-A4PP",NA,"Uterine Carcinosarcoma",TRUE,"legacy","Uterus","TCGA-UCS","Uterine Carcinosarcoma"
"TCGA-N9-A4Q7-01A-11R-A28V-07","TCGA-N9-A4Q7","TCGA-N9-A4Q7-01A-11R-A28V-07","TCGA-N9-A4Q7-01A","TP","Primary solid Tumor","not reported","not reported","2016-05-16T10:45:11.776934-05:00","c55","not reported",25419,"alive","8950/3",NA,NA,604,NA,NA,"85fa11b6-be3f-59a7-a8fe-b837a0c01438","not reported","c55.9",-25419,"not reported","not reported","c55.9",NA,NA,95,"2016-05-16T10:45:11.776934-05:00",NA,NA,0.00366498206087728,NA,161,NA,NA,"9e8028a9-68e1-5b2a-8618-cb4fbef20da2","2016-05-16T10:45:11.776934-05:00",NA,"female",NA,1942,"black or african american","5b98712a-c625-555a-8a7e-7e3b2e8a152d","not reported",NA,"TCGA-N9-A4Q7",NA,"Uterine Carcinosarcoma",TRUE,"legacy","Uterus","TCGA-UCS","Uterine Carcinosarcoma"
"TCGA-NA-A4QX-01A-11R-A28V-07","TCGA-NA-A4QX","TCGA-NA-A4QX-01A-11R-A28V-07","TCGA-NA-A4QX-01A","TP","Primary solid Tumor","not reported","not reported","2016-05-16T10:48:07.754820-05:00","c55","not reported",22264,"dead","8980/3",838,NA,833,NA,NA,"68eadc0b-a808-5e53-8ea9-5a00b7fd8b90","not reported","c55.9",-22264,"not reported","not reported","c55.9",NA,NA,NA,"2016-05-16T10:48:07.754820-05:00",NA,NA,NA,NA,NA,NA,NA,"3a48f544-f12e-5b68-a1a1-cf92c6d78594","2016-05-16T10:48:07.754820-05:00",NA,"female",NA,1949,"white","cd0a5e33-73e7-55cb-8ea0-6f3558d6a680","not hispanic or latino",2011,"TCGA-NA-A4QX",NA,"Uterine Carcinosarcoma",TRUE,"legacy","Uterus","TCGA-UCS","Uterine Carcinosarcoma"
"TCGA-N5-A4R8-01A-11R-A28V-07","TCGA-N5-A4R8","TCGA-N5-A4R8-01A-11R-A28V-07","TCGA-N5-A4R8-01A","TP","Primary solid Tumor","not reported","not reported","2016-05-16T10:44:48.336206-05:00","c55","not reported",24102,"dead","8950/3",3115,NA,NA,NA,NA,"b145dff9-568e-5346-bb7f-28d01ba325ca","not reported","c55.9",-24102,"not reported","not reported","c55.9",NA,NA,54,"2016-05-16T10:44:48.336206-05:00",NA,NA,0.00200773349196907,NA,164,NA,NA,"90b8ead4-20af-50d4-bd3e-45ab0e9e5dcb","2016-05-16T10:44:48.336206-05:00",NA,"female",NA,1938,"white","a350be91-4cc6-50ee-8109-7536b71cac85","not hispanic or latino",2011,"TCGA-N5-A4R8",NA,"Uterine Carcinosarcoma",TRUE,"legacy","Uterus","TCGA-UCS","Uterine Carcinosarcoma"
"TCGA-N5-A4RO-01A-11R-A28V-07","TCGA-N5-A4RO","TCGA-N5-A4RO-01A-11R-A28V-07","TCGA-N5-A4RO-01A","TP","Primary solid Tumor","not reported","not reported","2016-05-16T10:44:53.112858-05:00","c55","not reported",24823,"dead","8950/3",685,NA,NA,NA,NA,"8418df7c-9429-5081-a68b-a7216b82fd06","not reported","c55.9",-24823,"not reported","not reported","c55.9",NA,NA,78,"2016-05-16T10:44:53.112858-05:00",NA,NA,0.00283059950645957,NA,166,NA,NA,"f8ebb497-c6aa-5926-9908-30864db260e2","2016-05-16T10:44:53.112858-05:00",NA,"female",NA,1935,"black or african american","04975b93-b30f-51fb-87a7-0e18d5de903d","not reported",2003,"TCGA-N5-A4RO",NA,"Uterine Carcinosarcoma",TRUE,"legacy","Uterus","TCGA-UCS","Uterine Carcinosarcoma"
"TCGA-N7-A4Y0-01A-12R-A28V-07","TCGA-N7-A4Y0","TCGA-N7-A4Y0-01A-12R-A28V-07","TCGA-N7-A4Y0-01A","TP","Primary solid Tumor","not reported","not reported","2016-05-16T10:45:01.697676-05:00","c54.1","not reported",23983,"dead","8950/3",771,NA,NA,NA,NA,"c7fa3bf1-d068-50a5-8f71-374ff766da9f","not reported","c54.1",-23983,"not reported","not reported","c54.1",NA,NA,70,"2016-05-16T10:45:01.697676-05:00",NA,NA,0.00283987180007303,NA,157,NA,NA,"934653d5-ae1a-526a-b8a9-fafc2d6a00b6","2016-05-16T10:45:01.697676-05:00",NA,"female",NA,1938,"white","ab031ba1-92ac-5f62-89cd-6cae5867c617","not reported",2005,"TCGA-N7-A4Y0",NA,"Uterine Carcinosarcoma",TRUE,"legacy","Uterus","TCGA-UCS","Uterine Carcinosarcoma"
"TCGA-N5-A4RA-01A-11R-A28V-07","TCGA-N5-A4RA","TCGA-N5-A4RA-01A-11R-A28V-07","TCGA-N5-A4RA-01A","TP","Primary solid Tumor","not reported","not reported","2016-05-16T10:44:48.899875-05:00","c55","not reported",23359,"dead","8950/3",1591,NA,NA,NA,NA,"07a66b3d-d9a9-5a2f-ab05-3ddaa7d41273","not reported","c55.9",-23359,"not reported","not reported","c55.9",NA,NA,72,"2016-05-16T10:44:48.899875-05:00",NA,NA,0.00311634349030471,NA,152,NA,NA,"84942b3c-1454-5709-8f59-0d0f5a54895c","2016-05-16T10:44:48.899875-05:00",NA,"female",NA,1941,"white","8415deba-0d56-5a1f-9b5c-66faaecf4ad6","hispanic or latino",2008,"TCGA-N5-A4RA",NA,"Uterine Carcinosarcoma",TRUE,"legacy","Uterus","TCGA-UCS","Uterine Carcinosarcoma"
"TCGA-N7-A59B-01A-11R-A28V-07","TCGA-N7-A59B","TCGA-N7-A59B-01A-11R-A28V-07","TCGA-N7-A59B-01A","TP","Primary solid Tumor","not reported","not reported","2016-05-16T10:45:03.407239-05:00","c54.1","not reported",25360,"alive","8950/3",NA,NA,827,NA,NA,"e02a2911-2de6-5373-b2d1-bbadcaf79e0a","not reported","c54.1",-25360,"not reported","not reported","c54.1",NA,NA,95,"2016-05-16T10:45:03.407239-05:00",NA,NA,0.00411184210526316,NA,152,NA,NA,"31fec0ad-351b-561a-967b-f4ff416a82e2","2016-05-16T10:45:03.407239-05:00",NA,"female",NA,1943,"white","454ca759-d2bc-5dd3-ae07-a4fc35f921c2","not hispanic or latino",NA,"TCGA-N7-A59B",NA,"Uterine Carcinosarcoma",TRUE,"legacy","Uterus","TCGA-UCS","Uterine Carcinosarcoma"
"TCGA-N8-A4PM-01A-11R-A28V-07","TCGA-N8-A4PM","TCGA-N8-A4PM-01A-11R-A28V-07","TCGA-N8-A4PM-01A","TP","Primary solid Tumor","not reported","not reported","2016-05-16T10:45:05.144290-05:00","c54.3","not reported",26971,"alive","8980/3",NA,NA,829,NA,NA,"540d8aa9-8247-5a0b-b945-8360a1b0e121","not reported","c54.3",-26971,"not reported","not reported","c54.3",NA,NA,92,"2016-05-16T10:45:05.144290-05:00",NA,NA,0.00382934443288241,NA,155,NA,NA,"0347a9de-1d39-54f5-b263-4655b074f0de","2016-05-16T10:45:05.144290-05:00",NA,"female",NA,1938,"white","97884899-6b45-534b-915e-fc3c674e656a","not hispanic or latino",NA,"TCGA-N8-A4PM",NA,"Uterine Carcinosarcoma",TRUE,"legacy","Uterus","TCGA-UCS","Uterine Carcinosarcoma"
"TCGA-NG-A4VW-01A-11R-A28V-07","TCGA-NG-A4VW","TCGA-NG-A4VW-01A-11R-A28V-07","TCGA-NG-A4VW-01A","TP","Primary solid Tumor","not reported","not reported","2016-05-16T10:45:22.432519-05:00","c54.1","not reported",27326,"dead","8950/3",949,NA,NA,NA,NA,"0d4de64b-38c9-5bc1-ae77-4724ee0f23eb","not reported","c54.1",-27326,"not reported","not reported","c54.1",NA,NA,81,"2016-05-16T10:45:22.432519-05:00",NA,NA,0.00280276816608997,NA,170,NA,NA,"d2a58fc9-6da7-524b-9229-1877a4a33480","2016-05-16T10:45:22.432519-05:00",NA,"female",NA,1932,"white","715b13c5-ae4d-5129-8842-f96a6b4b107f","not hispanic or latino",2008,"TCGA-NG-A4VW",NA,"Uterine Carcinosarcoma",TRUE,"legacy","Uterus","TCGA-UCS","Uterine Carcinosarcoma"
"TCGA-N9-A4Q3-01A-11R-A28V-07","TCGA-N9-A4Q3","TCGA-N9-A4Q3-01A-11R-A28V-07","TCGA-N9-A4Q3-01A","TP","Primary solid Tumor","not reported","not reported","2016-05-16T10:45:10.578570-05:00","c55","not reported",24031,"alive","8950/3",NA,NA,1672,NA,NA,"d089a88c-295c-56b7-b4d6-3409643699b4","not reported","c55.9",-24031,"not reported","not reported","c55.9",NA,NA,90,"2016-05-16T10:45:10.578570-05:00",NA,NA,0.00342935528120713,NA,162,NA,NA,"55505c94-a0d0-51a6-9141-0c1a18aea136","2016-05-16T10:45:10.578570-05:00",NA,"female",NA,1944,"white","2154ff1c-a4c5-5059-bbab-e631852b12fc","not reported",NA,"TCGA-N9-A4Q3",NA,"Uterine Carcinosarcoma",TRUE,"legacy","Uterus","TCGA-UCS","Uterine Carcinosarcoma"
"TCGA-N8-A4PQ-01A-11R-A28V-07","TCGA-N8-A4PQ","TCGA-N8-A4PQ-01A-11R-A28V-07","TCGA-N8-A4PQ-01A","TP","Primary solid Tumor","not reported","not reported","2016-05-16T10:45:08.076223-05:00","c54.1","not reported",27772,"alive","8950/3",NA,NA,572,NA,NA,"cd7b991b-3cc5-5445-97eb-124b26f43198","not reported","c54.1",-27772,"not reported","not reported","c54.1",NA,NA,75,"2016-05-16T10:45:08.076223-05:00",NA,NA,0.00356718192627824,NA,145,NA,NA,"0d1e3a72-bcf9-542d-b8b8-c1fbf930d66c","2016-05-16T10:45:08.076223-05:00",NA,"female",NA,1936,"white","cfd19cbe-d14f-5067-ae3f-ea0e2cde42fb","not hispanic or latino",NA,"TCGA-N8-A4PQ",NA,"Uterine Carcinosarcoma",TRUE,"legacy","Uterus","TCGA-UCS","Uterine Carcinosarcoma"
"TCGA-QN-A5NN-01A-11R-A28V-07","TCGA-QN-A5NN","TCGA-QN-A5NN-01A-11R-A28V-07","TCGA-QN-A5NN-01A","TP","Primary solid Tumor","not reported","not reported","2016-05-16T10:45:23.690092-05:00","c54.1","not reported",20318,"alive","8950/3",NA,NA,0,NA,NA,"d75d8b56-0164-5404-b09f-3c495bf6bdd8","not reported","c54.1",-20318,"not reported","not reported","c54.1",NA,NA,50,"2016-05-16T10:45:23.690092-05:00",NA,NA,0.00202847985719502,NA,157,NA,NA,"a1b113a9-1c50-5ca5-a014-1aac479d014b","2016-05-16T10:45:23.690092-05:00",NA,"female",NA,1957,"asian","ca2da401-6827-5b57-a0b5-13398181e947","not hispanic or latino",NA,"TCGA-QN-A5NN",NA,"Uterine Carcinosarcoma",TRUE,"legacy","Uterus","TCGA-UCS","Uterine Carcinosarcoma"
"TCGA-NA-A5I1-01A-21R-A28V-07","TCGA-NA-A5I1","TCGA-NA-A5I1-01A-21R-A28V-07","TCGA-NA-A5I1-01A","TP","Primary solid Tumor","not reported","not reported","2016-05-16T10:45:13.073750-05:00","c55","not reported",29329,"dead","8980/3",2680,NA,2596,NA,NA,"cf9c9ee2-95e4-5eef-ade0-a39f31764c9d","not reported","c55.9",-29329,"not reported","not reported","c55.9",NA,NA,45,"2016-05-16T10:45:13.073750-05:00",NA,NA,0.002231700059512,NA,142,NA,NA,"337bdb85-cc2a-538f-8a2f-f5184c34039d","2016-05-16T10:45:13.073750-05:00",NA,"female",NA,1926,"white","69f030a7-2ce7-5a05-ac25-c3eeb54daa75","not hispanic or latino",NA,"TCGA-NA-A5I1",NA,"Uterine Carcinosarcoma",TRUE,"legacy","Uterus","TCGA-UCS","Uterine Carcinosarcoma"
"TCGA-NF-A5CP-01A-12R-A28V-07","TCGA-NF-A5CP","TCGA-NF-A5CP-01A-12R-A28V-07","TCGA-NF-A5CP-01A","TP","Primary solid Tumor","not reported","not reported","2016-05-16T10:45:21.163171-05:00","c55","not reported",32871,"dead","8950/3",167,NA,NA,NA,NA,"95c75e0a-f9f7-54af-98d0-2c143cb7d6f0","not reported","c55.9",-32871,"not reported","not reported","c55.9",NA,NA,77,"2016-05-16T10:45:21.163171-05:00",NA,NA,0.00293400396281055,NA,162,NA,NA,"d33922c5-7575-517d-a410-4873c4290b93","2016-05-16T10:45:21.163171-05:00",NA,"female",NA,1917,"white","a735250b-ed7e-55fd-af3d-dcdb66dc3129","not reported",2007,"TCGA-NF-A5CP",NA,"Uterine Carcinosarcoma",TRUE,"legacy","Uterus","TCGA-UCS","Uterine Carcinosarcoma"
"TCGA-N5-A4RF-01A-11R-A28V-07","TCGA-N5-A4RF","TCGA-N5-A4RF-01A-11R-A28V-07","TCGA-N5-A4RF-01A","TP","Primary solid Tumor","not reported","not reported","2016-05-16T10:44:50.210213-05:00","c54.1","not reported",25041,"alive","8950/3",NA,NA,1806,NA,NA,"834ab2b0-d206-572a-b2ba-4d8b1e26bd0d","not reported","c54.1",-25041,"not reported","not reported","c54.1",NA,NA,49,"2016-05-16T10:44:50.210213-05:00",NA,NA,0.00229874272846688,NA,146,NA,NA,"895dc287-6166-5a76-8696-8558d3e8aafc","2016-05-16T10:44:50.210213-05:00",NA,"female",NA,1940,"white","bb0e91b5-1396-5c62-a9d8-4fdf0c8abb6b","not reported",NA,"TCGA-N5-A4RF",NA,"Uterine Carcinosarcoma",TRUE,"legacy","Uterus","TCGA-UCS","Uterine Carcinosarcoma"
"TCGA-N6-A4V9-01A-11R-A28V-07","TCGA-N6-A4V9","TCGA-N6-A4V9-01A-11R-A28V-07","TCGA-N6-A4V9-01A","TP","Primary solid Tumor","not reported","not reported","2016-05-16T10:44:57.829518-05:00","c54.1","not reported",21677,"alive","8950/3",NA,NA,979,NA,NA,"a954a5b3-1833-5d4d-bac7-15b93cb1b5d2","not reported","c54.1",-21677,"not reported","not reported","c54.1",NA,NA,86,"2016-05-16T10:44:57.829518-05:00",NA,NA,0.00323685498136926,NA,163,NA,NA,"d5c0e9ad-eae1-5e78-b872-79a3b9690015","2016-05-16T10:44:57.829518-05:00",NA,"female",NA,1952,"white","1535f082-df21-5eeb-9677-3fb1c55c5e18","not hispanic or latino",NA,"TCGA-N6-A4V9",NA,"Uterine Carcinosarcoma",TRUE,"legacy","Uterus","TCGA-UCS","Uterine Carcinosarcoma"
"TCGA-NA-A4R0-01A-11R-A28V-07","TCGA-NA-A4R0","TCGA-NA-A4R0-01A-11R-A28V-07","TCGA-NA-A4R0-01A","TP","Primary solid Tumor","not reported","not reported","2016-05-16T10:48:09.170593-05:00","c54.3","not reported",29449,"dead","8980/3",541,NA,NA,NA,NA,"8de70fae-d84b-555d-886f-6ca38c8c91db","not reported","c54.3",-29449,"not reported","not reported","c54.3",NA,NA,57,"2016-05-16T10:48:09.170593-05:00",NA,NA,0.00217192501143118,NA,162,NA,NA,"6403590a-559a-58d5-a5bf-189e22aa3464","2016-05-16T10:48:09.170593-05:00",NA,"female",NA,1930,"white","57e65b99-e9a8-5a62-a464-fffd2d7c99a1","not hispanic or latino",2011,"TCGA-NA-A4R0",NA,"Uterine Carcinosarcoma",TRUE,"legacy","Uterus","TCGA-UCS","Uterine Carcinosarcoma"
"TCGA-N6-A4VE-01A-11R-A28V-07","TCGA-N6-A4VE","TCGA-N6-A4VE-01A-11R-A28V-07","TCGA-N6-A4VE-01A","TP","Primary solid Tumor","not reported","not reported","2016-05-16T10:44:59.724802-05:00","c54.1","not reported",30794,"dead","8950/3",291,NA,NA,NA,NA,"acd966ff-5e34-5c25-b412-3e6576bb5d78","not reported","c54.1",-30794,"not reported","not reported","c54.1",NA,NA,NA,"2016-05-16T10:44:59.724802-05:00",NA,NA,NA,NA,NA,NA,NA,"c035b04d-5b95-5209-a6c6-b8ab4cd4fdb2","2016-05-16T10:44:59.724802-05:00",NA,"female",NA,1922,"white","d7358114-fb8c-54e9-82a4-eba5cd3117be","not hispanic or latino",2006,"TCGA-N6-A4VE",NA,"Uterine Carcinosarcoma",TRUE,"legacy","Uterus","TCGA-UCS","Uterine Carcinosarcoma"
"TCGA-N6-A4VG-01A-31R-A28V-07","TCGA-N6-A4VG","TCGA-N6-A4VG-01A-31R-A28V-07","TCGA-N6-A4VG-01A","TP","Primary solid Tumor","not reported","not reported","2016-05-16T10:45:01.108021-05:00","c54.1","not reported",28428,"alive","8950/3",NA,NA,1574,NA,NA,"0848db3d-61ee-5c50-9b91-b01419ff1e24","not reported","c54.1",-28428,"not reported","not reported","c54.1",NA,NA,76,"2016-05-16T10:45:01.108021-05:00",NA,NA,0.00289590001524158,NA,162,NA,NA,"323a0932-98d3-5ecc-8bab-2257f05db548","2016-05-16T10:45:01.108021-05:00",NA,"female",NA,1933,"white","c8bf21d1-e7f9-5e38-9c81-84b64c97d244","not hispanic or latino",NA,"TCGA-N6-A4VG",NA,"Uterine Carcinosarcoma",TRUE,"legacy","Uterus","TCGA-UCS","Uterine Carcinosarcoma"
"TCGA-N5-A4RD-01A-11R-A28V-07","TCGA-N5-A4RD","TCGA-N5-A4RD-01A-11R-A28V-07","TCGA-N5-A4RD-01A","TP","Primary solid Tumor","not reported","not reported","2016-05-16T10:44:49.596628-05:00","c55","not reported",25413,"dead","8950/3",142,NA,NA,NA,NA,"23541960-e4bb-5e0b-880a-8fbfee78fd13","not reported","c55.9",-25413,"not reported","not reported","c55.9",NA,NA,59,"2016-05-16T10:44:49.596628-05:00",NA,NA,0.00233376844270401,NA,159,NA,NA,"8a9553ed-18c7-5180-9388-e850d3c7cb81","2016-05-16T10:44:49.596628-05:00",NA,"female",NA,1938,"white","eb4cfa21-3dc6-5594-a76f-62042374cb9b","not hispanic or latino",2007,"TCGA-N5-A4RD",NA,"Uterine Carcinosarcoma",TRUE,"legacy","Uterus","TCGA-UCS","Uterine Carcinosarcoma"
"TCGA-ND-A4WC-01A-21R-A28V-07","TCGA-ND-A4WC","TCGA-ND-A4WC-01A-21R-A28V-07","TCGA-ND-A4WC-01A","TP","Primary solid Tumor","not reported","not reported","2016-05-16T10:45:17.938862-05:00","c54.3","not reported",30434,"alive","8950/3",NA,NA,698,NA,NA,"2f00c5a3-4293-5049-848f-5e752d619130","not reported","c54.3",-30434,"not reported","not reported","c54.3",NA,NA,67,"2016-05-16T10:45:17.938862-05:00",NA,NA,0.00289993074792244,NA,152,NA,NA,"f96280ae-7573-544e-98ed-d06c04c05319","2016-05-16T10:45:17.938862-05:00",NA,"female",NA,1928,"asian","07f8789c-660f-5a98-91e8-cd885a999881","not hispanic or latino",NA,"TCGA-ND-A4WC",NA,"Uterine Carcinosarcoma",TRUE,"legacy","Uterus","TCGA-UCS","Uterine Carcinosarcoma"
"TCGA-N6-A4VF-01A-31R-A28V-07","TCGA-N6-A4VF","TCGA-N6-A4VF-01A-31R-A28V-07","TCGA-N6-A4VF-01A","TP","Primary solid Tumor","not reported","not reported","2016-05-16T10:45:00.290631-05:00","c54.1","not reported",18806,"dead","8950/3",522,NA,NA,NA,NA,"37cb542e-06bd-505c-87ad-c498ee853a35","not reported","c54.1",-18806,"not reported","not reported","c54.1",NA,NA,167,"2016-05-16T10:45:00.290631-05:00",NA,NA,0.00677512272303136,NA,157,NA,NA,"cb697cb2-b8c4-5261-ab64-09f36bd65a5c","2016-05-16T10:45:00.290631-05:00",NA,"female",NA,1958,"white","9d3b3d61-de60-5841-9fea-a6959ae20424","not hispanic or latino",2010,"TCGA-N6-A4VF",NA,"Uterine Carcinosarcoma",TRUE,"legacy","Uterus","TCGA-UCS","Uterine Carcinosarcoma"
"TCGA-NA-A4QV-01A-11R-A28V-07","TCGA-NA-A4QV","TCGA-NA-A4QV-01A-11R-A28V-07","TCGA-NA-A4QV-01A","TP","Primary solid Tumor","not reported","not reported","2016-05-16T10:48:06.383809-05:00","c54.9","not reported",26379,"alive","8090/3",NA,NA,4269,NA,NA,"bdaeb57d-b9b9-58cf-9026-45c222e75454","not reported","c54.9",-26379,"not reported","not reported","c54.9",NA,NA,79,"2016-05-16T10:48:06.383809-05:00",NA,NA,0.00273356401384083,NA,170,NA,NA,"a8dca920-86ee-5a7d-b1dc-c265163e2a15","2016-05-16T10:48:06.383809-05:00",NA,"female",NA,1930,"black or african american","3065ccfc-e9d2-5d6f-bbbd-aea06e1fff81","not hispanic or latino",NA,"TCGA-NA-A4QV",NA,"Uterine Carcinosarcoma",TRUE,"legacy","Uterus","TCGA-UCS","Uterine Carcinosarcoma"
"TCGA-N8-A4PI-01A-21R-A28V-07","TCGA-N8-A4PI","TCGA-N8-A4PI-01A-21R-A28V-07","TCGA-N8-A4PI-01A","TP","Primary solid Tumor","not reported","not reported","2016-05-16T10:45:03.965834-05:00","c54.1","not reported",26270,"dead","8980/3",810,NA,NA,NA,NA,"35d76fb2-131b-5b98-8584-9453ec7e0d07","not reported","c54.1",-26270,"not reported","not reported","c54.1",NA,NA,99,"2016-05-16T10:45:03.965834-05:00",NA,NA,0.0038671875,NA,160,NA,NA,"2356f9ad-7a68-5e20-acec-cf758a46df2c","2016-05-16T10:45:03.965834-05:00",NA,"female",NA,1938,"white","e7015e26-c4a0-5dee-884d-c7671cd80c21","not hispanic or latino",2011,"TCGA-N8-A4PI",NA,"Uterine Carcinosarcoma",TRUE,"legacy","Uterus","TCGA-UCS","Uterine Carcinosarcoma"
"TCGA-N6-A4VC-01A-11R-A28V-07","TCGA-N6-A4VC","TCGA-N6-A4VC-01A-11R-A28V-07","TCGA-N6-A4VC-01A","TP","Primary solid Tumor","not reported","not reported","2016-05-16T10:44:58.423546-05:00","c54.1","not reported",30643,"dead","8950/3",597,NA,NA,NA,NA,"094a272d-a174-56d0-8dcc-08f981bd8c37","not reported","c54.1",-30643,"not reported","not reported","c54.1",NA,NA,82,"2016-05-16T10:44:58.423546-05:00",NA,NA,0.00304878048780488,NA,164,NA,NA,"6dcd661e-efcb-5681-9d29-3aa16779c4a7","2016-05-16T10:44:58.423546-05:00",NA,"female",NA,1926,"white","2902b4b6-9f8e-5f18-a872-9d61ff130f8e","not hispanic or latino",2010,"TCGA-N6-A4VC",NA,"Uterine Carcinosarcoma",TRUE,"legacy","Uterus","TCGA-UCS","Uterine Carcinosarcoma"
"TCGA-NF-A4X2-01A-11R-A28V-07","TCGA-NF-A4X2","TCGA-NF-A4X2-01A-11R-A28V-07","TCGA-NF-A4X2-01A","TP","Primary solid Tumor","not reported","not reported","2016-05-16T10:45:20.569402-05:00","c55","not reported",21908,"alive","8950/3",NA,NA,81,NA,NA,"c9c863de-e247-55b7-988c-53407e79494e","not reported","c55.9",-21908,"not reported","not reported","c55.9",NA,NA,75,"2016-05-16T10:45:20.569402-05:00",NA,NA,0.00304271978579253,NA,157,NA,NA,"52b71e69-7283-561d-a268-61aa632eb0d3","2016-05-16T10:45:20.569402-05:00",NA,"female",NA,1953,"white","5ef90507-ea01-56d6-baeb-a8a17b15a226","not hispanic or latino",NA,"TCGA-NF-A4X2",NA,"Uterine Carcinosarcoma",TRUE,"legacy","Uterus","TCGA-UCS","Uterine Carcinosarcoma"
"TCGA-ND-A4WF-01A-11R-A28V-07","TCGA-ND-A4WF","TCGA-ND-A4WF-01A-11R-A28V-07","TCGA-ND-A4WF-01A","TP","Primary solid Tumor","not reported","not reported","2016-05-16T10:45:18.616928-05:00","c54.3","not reported",28398,"dead","8950/3",167,NA,NA,NA,NA,"ac12a17e-5c3e-51f0-a197-78f6e0eb89e8","not reported","c54.3",-28398,"not reported","not reported","c54.3",NA,NA,72,"2016-05-16T10:45:18.616928-05:00",NA,NA,0.0028125,NA,160,NA,NA,"47539518-137a-5d33-8c0d-296cc2bb7476","2016-05-16T10:45:18.616928-05:00",NA,"female",NA,1930,"white","5cd5a503-8c31-59b8-8d8a-09a2de62b42a","not hispanic or latino",2007,"TCGA-ND-A4WF",NA,"Uterine Carcinosarcoma",TRUE,"legacy","Uterus","TCGA-UCS","Uterine Carcinosarcoma"
"TCGA-N7-A4Y5-01A-12R-A28V-07","TCGA-N7-A4Y5","TCGA-N7-A4Y5-01A-12R-A28V-07","TCGA-N7-A4Y5-01A","TP","Primary solid Tumor","not reported","not reported","2016-05-16T10:45:02.259611-05:00","c54.1","not reported",32058,"dead","8950/3",8,NA,NA,NA,NA,"579137e1-4826-5aae-92a9-924dcc533e47","not reported","c54.1",-32058,"not reported","not reported","c54.1",NA,NA,42,"2016-05-16T10:45:02.259611-05:00",NA,NA,0.00214285714285714,NA,140,NA,NA,"70e58111-0fa1-5b2e-bca4-7f99dbfd225c","2016-05-16T10:45:02.259611-05:00",NA,"female",NA,1918,"white","e6e1b4ae-3e5f-5a6c-982c-5fa98e29ea00","not reported",2005,"TCGA-N7-A4Y5",NA,"Uterine Carcinosarcoma",TRUE,"legacy","Uterus","TCGA-UCS","Uterine Carcinosarcoma"
"TCGA-N5-A4RV-01A-21R-A28V-07","TCGA-N5-A4RV","TCGA-N5-A4RV-01A-21R-A28V-07","TCGA-N5-A4RV-01A","TP","Primary solid Tumor","not reported","not reported","2016-05-16T10:44:55.924586-05:00","c55","not reported",22978,"alive","8950/3",NA,NA,2042,NA,NA,"56a6c86c-699b-5065-93cf-71a0b8f40f91","not reported","c55.9",-22978,"not reported","not reported","c55.9",NA,NA,55,"2016-05-16T10:44:55.924586-05:00",NA,NA,0.00238054016620499,NA,152,NA,NA,"3766f314-161e-55e4-b2ed-c3e30e3d2d21","2016-05-16T10:44:55.924586-05:00",NA,"female",NA,1946,"white","235e0fc4-3920-51e4-bc82-67c2073c1a66","not reported",NA,"TCGA-N5-A4RV",NA,"Uterine Carcinosarcoma",TRUE,"legacy","Uterus","TCGA-UCS","Uterine Carcinosarcoma"
"TCGA-NF-A4WX-01A-11R-A28V-07","TCGA-NF-A4WX","TCGA-NF-A4WX-01A-11R-A28V-07","TCGA-NF-A4WX-01A","TP","Primary solid Tumor","not reported","not reported","2016-05-16T10:45:19.851428-05:00","c55","not reported",22407,"alive","8950/3",NA,NA,452,NA,NA,"eb1a5f50-3d3d-5f34-93a3-ddf781d120af","not reported","c55.9",-22407,"not reported","not reported","c55.9",NA,NA,83,"2016-05-16T10:45:19.851428-05:00",NA,NA,0.00336727656294373,NA,157,NA,NA,"b2166bf6-d520-5eb3-af61-31dcc395664e","2016-05-16T10:45:19.851428-05:00",NA,"female",NA,1950,"not reported","72ed80d5-9af0-543a-8553-52a072c5f36d","not reported",NA,"TCGA-NF-A4WX",NA,"Uterine Carcinosarcoma",TRUE,"legacy","Uterus","TCGA-UCS","Uterine Carcinosarcoma"
"TCGA-N5-A59F-01A-11R-A28V-07","TCGA-N5-A59F","TCGA-N5-A59F-01A-11R-A28V-07","TCGA-N5-A59F-01A","TP","Primary solid Tumor","not reported","not reported","2016-05-16T10:44:57.237382-05:00","c54.1","not reported",23826,"dead","8950/3",361,NA,NA,NA,NA,"15956d58-2b0c-5008-be32-29ce0088321c","not reported","c54.1",-23826,"not reported","not reported","c54.1",NA,NA,73,"2016-05-16T10:44:57.237382-05:00",NA,NA,0.00246755002704164,NA,172,NA,NA,"19563097-68bd-5b63-be45-2db4d5857fee","2016-05-16T10:44:57.237382-05:00",NA,"female",NA,1947,"black or african american","58f99237-e5b6-5a87-bf65-b3b519b99934","not reported",2012,"TCGA-N5-A59F",NA,"Uterine Carcinosarcoma",TRUE,"legacy","Uterus","TCGA-UCS","Uterine Carcinosarcoma"
"TCGA-N5-A4RS-01A-11R-A28V-07","TCGA-N5-A4RS","TCGA-N5-A4RS-01A-11R-A28V-07","TCGA-N5-A4RS-01A","TP","Primary solid Tumor","not reported","not reported","2016-05-16T10:44:53.797267-05:00","c55","not reported",23893,"dead","8950/3",911,NA,NA,NA,NA,"d0641395-5136-5d02-b012-bf800e1826af","not reported","c55.9",-23893,"not reported","not reported","c55.9",NA,NA,60,"2016-05-16T10:44:53.797267-05:00",NA,NA,0.00249739854318418,NA,155,NA,NA,"fd67b6ea-96cb-57fe-a32d-6ffeb473b8ec","2016-05-16T10:44:53.797267-05:00",NA,"female",NA,1942,"white","97929e34-ae95-505f-a751-b7bddbf13e61","not hispanic or latino",2009,"TCGA-N5-A4RS",NA,"Uterine Carcinosarcoma",TRUE,"legacy","Uterus","TCGA-UCS","Uterine Carcinosarcoma"
"TCGA-N7-A4Y8-01A-11R-A28V-07","TCGA-N7-A4Y8","TCGA-N7-A4Y8-01A-11R-A28V-07","TCGA-N7-A4Y8-01A","TP","Primary solid Tumor","not reported","not reported","2016-05-16T10:45:02.829913-05:00","c55","not reported",26650,"dead","8950/3",378,NA,NA,NA,NA,"4f132f91-7e3d-5b71-a2ca-619913f04464","not reported","c55.9",-26650,"not reported","not reported","c55.9",NA,NA,64,"2016-05-16T10:45:02.829913-05:00",NA,NA,0.00259645421720962,NA,157,NA,NA,"f653fe80-4860-57ca-bb27-2105009f0756","2016-05-16T10:45:02.829913-05:00",NA,"female",NA,1938,"white","d5a5d36c-133c-5611-888c-ceefffa1eadb","not hispanic or latino",2011,"TCGA-N7-A4Y8",NA,"Uterine Carcinosarcoma",TRUE,"legacy","Uterus","TCGA-UCS","Uterine Carcinosarcoma"
"TCGA-NG-A4VU-01A-11R-A28V-07","TCGA-NG-A4VU","TCGA-NG-A4VU-01A-11R-A28V-07","TCGA-NG-A4VU-01A","TP","Primary solid Tumor","not reported","not reported","2016-05-16T10:45:21.821175-05:00","c54.1","not reported",23323,"dead","8950/3",442,NA,NA,NA,NA,"bf620c2b-6b11-5720-8efd-9fb3e1cb48ea","not reported","c54.1",-23323,"not reported","not reported","c54.1",NA,NA,83,"2016-05-16T10:45:21.821175-05:00",NA,NA,0.00349974700624051,NA,154,NA,NA,"1c9097a1-3a1d-5395-b244-5599d891f3dc","2016-05-16T10:45:21.821175-05:00",NA,"female",NA,1948,"white","8192fa8b-d131-52fe-a5be-fa151f5e0f91","not hispanic or latino",2012,"TCGA-NG-A4VU",NA,"Uterine Carcinosarcoma",TRUE,"legacy","Uterus","TCGA-UCS","Uterine Carcinosarcoma"
"TCGA-QM-A5NM-01A-11R-A28V-07","TCGA-QM-A5NM","TCGA-QM-A5NM-01A-11R-A28V-07","TCGA-QM-A5NM-01A","TP","Primary solid Tumor","not reported","not reported","2016-05-16T10:45:23.086676-05:00","c54.1","not reported",24781,"alive","8950/3",NA,NA,587,NA,NA,"0f5263e0-8a64-54fe-8e23-1dd0856ab4ca","not reported","c54.1",-24781,"not reported","not reported","c54.1",NA,NA,73,"2016-05-16T10:45:23.086676-05:00",NA,NA,0.0028515625,NA,160,NA,NA,"bd4786a9-70ba-5292-a4d5-d434c335912c","2016-05-16T10:45:23.086676-05:00",NA,"female",NA,1945,"white","2cee4981-53e3-58db-94f7-8235a7489f19","not hispanic or latino",NA,"TCGA-QM-A5NM",NA,"Uterine Carcinosarcoma",TRUE,"legacy","Uterus","TCGA-UCS","Uterine Carcinosarcoma"
"TCGA-N8-A4PO-01A-11R-A28V-07","TCGA-N8-A4PO","TCGA-N8-A4PO-01A-11R-A28V-07","TCGA-N8-A4PO-01A","TP","Primary solid Tumor","not reported","not reported","2016-05-16T10:45:06.485753-05:00","c54.0","not reported",24124,"alive","8980/3",NA,NA,781,NA,NA,"79b39027-8761-509f-86c3-3e35928bbbb8","not reported","c54.0",-24124,"not reported","not reported","c54.0",NA,NA,119,"2016-05-16T10:45:06.485753-05:00",NA,NA,0.00624868725057761,NA,138,NA,NA,"35a6e072-12ac-594b-a69f-9e7168527502","2016-05-16T10:45:06.485753-05:00",NA,"female",NA,1945,"black or african american","59ee56e5-24b7-5b2c-8b3b-9b2ef2a17fd5","not hispanic or latino",NA,"TCGA-N8-A4PO",NA,"Uterine Carcinosarcoma",TRUE,"legacy","Uterus","TCGA-UCS","Uterine Carcinosarcoma"
"TCGA-NF-A4WU-01A-11R-A28V-07","TCGA-NF-A4WU","TCGA-NF-A4WU-01A-11R-A28V-07","TCGA-NF-A4WU-01A","TP","Primary solid Tumor","not reported","not reported","2016-05-16T10:45:19.218483-05:00","c55","not reported",21901,"alive","8980/3",NA,NA,298,NA,NA,"77c9073d-1382-5027-90f5-f85c4b47b180","not reported","c55.9",-21901,"not reported","not reported","c55.9",NA,NA,83,"2016-05-16T10:45:19.218483-05:00",NA,NA,0.0032830979787192,NA,159,NA,NA,"3b659be9-ecf6-55b6-8533-dad93ec8535a","2016-05-16T10:45:19.218483-05:00",NA,"female",NA,1952,"white","36320c6e-e1a1-56c6-875f-facd3621fa38","not hispanic or latino",NA,"TCGA-NF-A4WU",NA,"Uterine Carcinosarcoma",TRUE,"legacy","Uterus","TCGA-UCS","Uterine Carcinosarcoma"
"TCGA-NA-A4QW-01A-11R-A28V-07","TCGA-NA-A4QW","TCGA-NA-A4QW-01A-11R-A28V-07","TCGA-NA-A4QW-01A","TP","Primary solid Tumor","not reported","not reported","2016-05-16T10:48:07.063631-05:00","c54.9","not reported",22588,"alive","8950/3",NA,NA,2457,NA,NA,"6b02eff6-c6f1-561a-b5e2-daedb2a48969","not reported","c54.9",-22588,"not reported","not reported","c54.9",NA,NA,66,"2016-05-16T10:48:07.063631-05:00",NA,NA,0.0027471383975026,NA,155,NA,NA,"c44e7475-21aa-5530-b988-81ffe61cc645","2016-05-16T10:48:07.063631-05:00",NA,"female",NA,1946,"white","75ca99e0-232e-539a-aa79-e06012022956","not hispanic or latino",NA,"TCGA-NA-A4QW",NA,"Uterine Carcinosarcoma",TRUE,"legacy","Uterus","TCGA-UCS","Uterine Carcinosarcoma"
"TCGA-N5-A4RT-01A-11R-A28V-07","TCGA-N5-A4RT","TCGA-N5-A4RT-01A-11R-A28V-07","TCGA-N5-A4RT-01A","TP","Primary solid Tumor","not reported","not reported","2016-05-16T10:44:54.438513-05:00","c54.1","not reported",25386,"alive","8950/3",NA,NA,2485,NA,NA,"694980fe-7781-59f2-af63-6e3826b83b29","not reported","c54.1",-25386,"not reported","not reported","c54.1",NA,NA,56,"2016-05-16T10:44:54.438513-05:00",NA,NA,0.00189291508923743,NA,172,NA,NA,"d1363ccd-25ff-5f85-ade6-aa49a76c143e","2016-05-16T10:44:54.438513-05:00",NA,"female",NA,1938,"white","7ee9b599-2204-5c63-9204-cbe8798a59a8","not reported",NA,"TCGA-N5-A4RT",NA,"Uterine Carcinosarcoma",TRUE,"legacy","Uterus","TCGA-UCS","Uterine Carcinosarcoma"
"TCGA-N5-A4RN-01A-12R-A28V-07","TCGA-N5-A4RN","TCGA-N5-A4RN-01A-12R-A28V-07","TCGA-N5-A4RN-01A","TP","Primary solid Tumor","not reported","not reported","2016-05-16T10:44:52.552592-05:00","c54.1","not reported",26054,"alive","8950/3",NA,NA,1053,NA,NA,"4e88d3c1-72a1-52d9-8f8f-d64a75baef97","not reported","c54.1",-26054,"not reported","not reported","c54.1",NA,NA,76,"2016-05-16T10:44:52.552592-05:00",NA,NA,0.00328947368421053,NA,152,NA,NA,"635446a1-cc05-5b1b-88f9-61f9a411766d","2016-05-16T10:44:52.552592-05:00",NA,"female",NA,1940,"white","1866516d-95c5-5fe1-9b50-a7f717a1f5e3","not hispanic or latino",NA,"TCGA-N5-A4RN",NA,"Uterine Carcinosarcoma",TRUE,"legacy","Uterus","TCGA-UCS","Uterine Carcinosarcoma"
"TCGA-N9-A4Q1-01A-11R-A28V-07","TCGA-N9-A4Q1","TCGA-N9-A4Q1-01A-11R-A28V-07","TCGA-N9-A4Q1-01A","TP","Primary solid Tumor","not reported","not reported","2016-05-16T10:45:09.930416-05:00","c55","not reported",25791,"dead","8950/3",2043,NA,NA,NA,NA,"e8341810-0b2e-5d78-81c0-9a15ce9196af","not reported","c55.9",-25791,"not reported","not reported","c55.9",NA,NA,77,"2016-05-16T10:45:09.930416-05:00",NA,NA,0.00279430976919727,NA,166,NA,NA,"a2d3f43e-a823-5912-88aa-115f87b51a3d","2016-05-16T10:45:09.930416-05:00",NA,"female",NA,1935,"black or african american","ca7687dd-1b6b-5b26-8d55-fd2b314b2be6","not hispanic or latino",2010,"TCGA-N9-A4Q1",NA,"Uterine Carcinosarcoma",TRUE,"legacy","Uterus","TCGA-UCS","Uterine Carcinosarcoma"
"TCGA-NA-A4QY-01A-11R-A28V-07","TCGA-NA-A4QY","TCGA-NA-A4QY-01A-11R-A28V-07","TCGA-NA-A4QY-01A","TP","Primary solid Tumor","not reported","not reported","2016-05-16T10:48:08.427624-05:00","c55","not reported",22756,"dead","8951/3",114,NA,NA,NA,NA,"d2a60042-a8b2-5dad-9235-c8ae23a800f2","not reported","c55.9",-22756,"not reported","not reported","c55.9",NA,NA,NA,"2016-05-16T10:48:08.427624-05:00",NA,NA,NA,NA,NA,NA,NA,"760f279f-75a3-5a98-938b-783b5348cde8","2016-05-16T10:48:08.427624-05:00",NA,"female",NA,1947,"white","00032b40-551a-5da1-8ac8-ce162705aa8e","not hispanic or latino",2009,"TCGA-NA-A4QY",NA,"Uterine Carcinosarcoma",TRUE,"legacy","Uterus","TCGA-UCS","Uterine Carcinosarcoma"
"TCGA-N8-A56S-01A-11R-A28V-07","TCGA-N8-A56S","TCGA-N8-A56S-01A-11R-A28V-07","TCGA-N8-A56S-01A","TP","Primary solid Tumor","not reported","not reported","2016-05-16T10:45:08.651207-05:00","c54.1","not reported",27519,"dead","8950/3",371,NA,295,NA,NA,"24edf2a8-f498-51d2-8079-6e3e4110477b","not reported","c54.1",-27519,"not reported","not reported","c54.1",NA,NA,68,"2016-05-16T10:45:08.651207-05:00",NA,NA,0.00240929705215419,NA,168,NA,NA,"cbe70cb8-affc-563d-ad07-87cc940ad078","2016-05-16T10:45:08.651207-05:00",NA,"female",NA,1937,"white","0bb665f5-e9ad-5f36-bf66-5314445aab61","not hispanic or latino",NA,"TCGA-N8-A56S",NA,"Uterine Carcinosarcoma",TRUE,"legacy","Uterus","TCGA-UCS","Uterine Carcinosarcoma"
"TCGA-N5-A4RU-01A-31R-A28V-07","TCGA-N5-A4RU","TCGA-N5-A4RU-01A-31R-A28V-07","TCGA-N5-A4RU-01A","TP","Primary solid Tumor","not reported","not reported","2016-05-16T10:44:54.976118-05:00","c54.1","not reported",20025,"dead","8950/3",1526,NA,NA,NA,NA,"0fc63bc8-aad7-54ac-ae88-86d14e539364","not reported","c54.1",-20025,"not reported","not reported","c54.1",NA,NA,58,"2016-05-16T10:44:54.976118-05:00",NA,NA,0.002265625,NA,160,NA,NA,"6966f57e-e14f-5834-95bf-771f836e216d","2016-05-16T10:44:54.976118-05:00",NA,"female",NA,1953,"white","186f47c8-a7fc-5c62-9261-14b2e8141d9d","not hispanic or latino",2011,"TCGA-N5-A4RU",NA,"Uterine Carcinosarcoma",TRUE,"legacy","Uterus","TCGA-UCS","Uterine Carcinosarcoma"
"TCGA-ND-A4WA-01A-12R-A28V-07","TCGA-ND-A4WA","TCGA-ND-A4WA-01A-12R-A28V-07","TCGA-ND-A4WA-01A","TP","Primary solid Tumor","not reported","not reported","2016-05-16T10:45:17.363907-05:00","c54.1","not reported",32872,"dead","8950/3",714,NA,NA,NA,NA,"2baba50a-eb91-549c-bcf8-9c1210d15471","not reported","c54.1",-32872,"not reported","not reported","c54.1",NA,NA,44,"2016-05-16T10:45:17.363907-05:00",NA,NA,0.00195555555555556,NA,150,NA,NA,"01694ad6-a858-52e4-a74c-2bcf2e610669","2016-05-16T10:45:17.363907-05:00",NA,"female",NA,1914,"asian","97ad810c-9ef4-5861-806c-cefa570297e4","not hispanic or latino",2005,"TCGA-ND-A4WA",NA,"Uterine Carcinosarcoma",TRUE,"legacy","Uterus","TCGA-UCS","Uterine Carcinosarcoma"
"TCGA-N9-A4PZ-01A-22R-A28V-07","TCGA-N9-A4PZ","TCGA-N9-A4PZ-01A-22R-A28V-07","TCGA-N9-A4PZ-01A","TP","Primary solid Tumor","not reported","not reported","2016-05-16T10:45:09.352014-05:00","c55","not reported",28211,"dead","8950/3",667,NA,NA,NA,NA,"439fc627-aef5-54ae-84a6-96b161045726","not reported","c55.9",-28211,"not reported","not reported","c55.9",NA,NA,70,"2016-05-16T10:45:09.352014-05:00",NA,NA,0.00266727632982777,NA,162,NA,NA,"68695eec-8a23-54dd-95da-6773b39d1437","2016-05-16T10:45:09.352014-05:00",NA,"female",NA,1928,"white","35ac0453-5978-5933-bbab-c0c46c69e7ea","not reported",2006,"TCGA-N9-A4PZ",NA,"Uterine Carcinosarcoma",TRUE,"legacy","Uterus","TCGA-UCS","Uterine Carcinosarcoma"
"TCGA-ND-A4W6-01A-11R-A28V-07","TCGA-ND-A4W6","TCGA-ND-A4W6-01A-11R-A28V-07","TCGA-ND-A4W6-01A","TP","Primary solid Tumor","not reported","not reported","2016-05-16T10:45:16.786149-05:00","c54.1","not reported",24835,"dead","8950/3",317,NA,NA,NA,NA,"68fb939e-a1c6-5f0a-a6b7-4931b510ef79","not reported","c54.1",-24835,"not reported","not reported","c54.1",NA,NA,67,"2016-05-16T10:45:16.786149-05:00",NA,NA,0.00231833910034602,NA,170,NA,NA,"90904355-f6df-55d6-b901-d9766498fb3c","2016-05-16T10:45:16.786149-05:00",NA,"female",NA,1945,"black or african american","bcf77eee-a06f-54ac-9e18-ef92d5da8a80","not hispanic or latino",2012,"TCGA-ND-A4W6",NA,"Uterine Carcinosarcoma",TRUE,"legacy","Uterus","TCGA-UCS","Uterine Carcinosarcoma"
"TCGA-N9-A4Q4-01A-11R-A28V-07","TCGA-N9-A4Q4","TCGA-N9-A4Q4-01A-11R-A28V-07","TCGA-N9-A4Q4-01A","TP","Primary solid Tumor","not reported","not reported","2016-05-16T10:45:11.186760-05:00","c55","not reported",22575,"alive","8950/3",NA,NA,1089,NA,NA,"92e87fb5-a446-57ce-ab0a-04c3b1e6617f","not reported","c55.9",-22575,"not reported","not reported","c55.9",NA,NA,68,"2016-05-16T10:45:11.186760-05:00",NA,NA,0.00310445580715851,NA,148,NA,NA,"539c6714-c087-56c1-bc74-4654d1441b55","2016-05-16T10:45:11.186760-05:00",NA,"female",NA,1949,"black or african american","09609ba8-9b8c-511a-8cd8-f45a4380c332","not hispanic or latino",NA,"TCGA-N9-A4Q4",NA,"Uterine Carcinosarcoma",TRUE,"legacy","Uterus","TCGA-UCS","Uterine Carcinosarcoma"
"TCGA-N6-A4VD-01A-11R-A28V-07","TCGA-N6-A4VD","TCGA-N6-A4VD-01A-11R-A28V-07","TCGA-N6-A4VD-01A","TP","Primary solid Tumor","not reported","not reported","2016-05-16T10:44:59.060394-05:00","c54.1","not reported",29658,"dead","8950/3",112,NA,NA,NA,NA,"9c962769-3f7c-522f-b543-7cdc51109338","not reported","c54.1",-29658,"not reported","not reported","c54.1",NA,NA,NA,"2016-05-16T10:44:59.060394-05:00",NA,NA,NA,NA,NA,NA,NA,"672d8ba8-29bf-511a-a304-227121a866a5","2016-05-16T10:44:59.060394-05:00",NA,"female",NA,1928,"white","8981b605-d647-57e2-ae36-354dce2fd557","not hispanic or latino",2009,"TCGA-N6-A4VD",NA,"Uterine Carcinosarcoma",TRUE,"legacy","Uterus","TCGA-UCS","Uterine Carcinosarcoma"
"TCGA-N8-A4PL-01A-11R-A28V-07","TCGA-N8-A4PL","TCGA-N8-A4PL-01A-11R-A28V-07","TCGA-N8-A4PL-01A","TP","Primary solid Tumor","not reported","not reported","2016-05-16T10:45:04.504639-05:00","c54.1","not reported",30069,"dead","8950/3",418,NA,NA,NA,NA,"de66c5ac-38fb-5fb8-9d8f-4f4388fbf53a","not reported","c54.1",-30069,"not reported","not reported","c54.1",NA,NA,60,"2016-05-16T10:45:04.504639-05:00",NA,NA,0.002465483234714,NA,156,NA,NA,"d6d023cb-0763-5f87-a12d-e96a32b5481a","2016-05-16T10:45:04.504639-05:00",NA,"female",NA,1929,"white","4c3835e4-391e-5940-becc-df057cf0436c","not hispanic or latino",2012,"TCGA-N8-A4PL",NA,"Uterine Carcinosarcoma",TRUE,"legacy","Uterus","TCGA-UCS","Uterine Carcinosarcoma"
"TCGA-N8-A4PN-01A-11R-A28V-07","TCGA-N8-A4PN","TCGA-N8-A4PN-01A-11R-A28V-07","TCGA-N8-A4PN-01A","TP","Primary solid Tumor","not reported","not reported","2016-05-16T10:45:05.856889-05:00","c54.1","not reported",25064,"alive","8980/3",NA,NA,812,NA,NA,"9ac2b980-27a5-5705-9ef2-28ef24d7d295","not reported","c54.1",-25064,"not reported","not reported","c54.1",NA,NA,63,"2016-05-16T10:45:05.856889-05:00",NA,NA,0.00252363403300753,NA,158,NA,NA,"b160dd00-0c7d-5609-9d06-e189e14cb938","2016-05-16T10:45:05.856889-05:00",NA,"female",NA,1943,"white","87b7753e-30e9-5dcc-8af3-018cabbfde3b","not hispanic or latino",NA,"TCGA-N8-A4PN",NA,"Uterine Carcinosarcoma",TRUE,"legacy","Uterus","TCGA-UCS","Uterine Carcinosarcoma"
